[Info]
Version 1
Dimension 2
NumNodes 441
Num3DElements 0
Num2DElements 400
Num1DElements 0
NumNodeBC 88
NumSaveNodes 0
NumSaveElements 0
Num 2d-line      : 0
Num 2d-line,quad : 0
Num 3d-line      : 0
Num 3d-line,quad : 0
Num triangle     : 0
Num triangle,quad: 0
Num quadr        : 400
Num quadr,quad   : 0
Num tetra        : 0
Num tetra,quad   : 0
Num brick        : 0
Num brick,quad   : 0
Num pyramid      : 0
Num pyramid,quad : 0
Num wedge        : 0
Num wedge,quad   : 0

[Nodes]
#NodeNr x-coord y-coord z-coord
1  0.0  0.0  0.0
2  0.05  0.0  0.0
3  0.1  0.0  0.0
4  0.15000000000000002  0.0  0.0
5  0.2  0.0  0.0
6  0.25  0.0  0.0
7  0.30000000000000004  0.0  0.0
8  0.35000000000000003  0.0  0.0
9  0.4  0.0  0.0
10  0.45  0.0  0.0
11  0.5  0.0  0.0
12  0.55  0.0  0.0
13  0.6000000000000001  0.0  0.0
14  0.65  0.0  0.0
15  0.7000000000000001  0.0  0.0
16  0.75  0.0  0.0
17  0.8  0.0  0.0
18  0.8500000000000001  0.0  0.0
19  0.9  0.0  0.0
20  0.9500000000000001  0.0  0.0
21  1.0  0.0  0.0
22  0.0  0.05  0.0
23  0.05  0.05  0.0
24  0.1  0.05  0.0
25  0.15000000000000002  0.05  0.0
26  0.2  0.05  0.0
27  0.25  0.05  0.0
28  0.30000000000000004  0.05  0.0
29  0.35000000000000003  0.05  0.0
30  0.4  0.05  0.0
31  0.45  0.05  0.0
32  0.5  0.05  0.0
33  0.55  0.05  0.0
34  0.6000000000000001  0.05  0.0
35  0.65  0.05  0.0
36  0.7000000000000001  0.05  0.0
37  0.75  0.05  0.0
38  0.8  0.05  0.0
39  0.8500000000000001  0.05  0.0
40  0.9  0.05  0.0
41  0.9500000000000001  0.05  0.0
42  1.0  0.05  0.0
43  0.0  0.1  0.0
44  0.05  0.1  0.0
45  0.1  0.1  0.0
46  0.15000000000000002  0.1  0.0
47  0.2  0.1  0.0
48  0.25  0.1  0.0
49  0.30000000000000004  0.1  0.0
50  0.35000000000000003  0.1  0.0
51  0.4  0.1  0.0
52  0.45  0.1  0.0
53  0.5  0.1  0.0
54  0.55  0.1  0.0
55  0.6000000000000001  0.1  0.0
56  0.65  0.1  0.0
57  0.7000000000000001  0.1  0.0
58  0.75  0.1  0.0
59  0.8  0.1  0.0
60  0.8500000000000001  0.1  0.0
61  0.9  0.1  0.0
62  0.9500000000000001  0.1  0.0
63  1.0  0.1  0.0
64  0.0  0.15000000000000002  0.0
65  0.05  0.15000000000000002  0.0
66  0.1  0.15000000000000002  0.0
67  0.15000000000000002  0.15000000000000002  0.0
68  0.2  0.15000000000000002  0.0
69  0.25  0.15000000000000002  0.0
70  0.30000000000000004  0.15000000000000002  0.0
71  0.35000000000000003  0.15000000000000002  0.0
72  0.4  0.15000000000000002  0.0
73  0.45  0.15000000000000002  0.0
74  0.5  0.15000000000000002  0.0
75  0.55  0.15000000000000002  0.0
76  0.6000000000000001  0.15000000000000002  0.0
77  0.65  0.15000000000000002  0.0
78  0.7000000000000001  0.15000000000000002  0.0
79  0.75  0.15000000000000002  0.0
80  0.8  0.15000000000000002  0.0
81  0.8500000000000001  0.15000000000000002  0.0
82  0.9  0.15000000000000002  0.0
83  0.9500000000000001  0.15000000000000002  0.0
84  1.0  0.15000000000000002  0.0
85  0.0  0.2  0.0
86  0.05  0.2  0.0
87  0.1  0.2  0.0
88  0.15000000000000002  0.2  0.0
89  0.2  0.2  0.0
90  0.25  0.2  0.0
91  0.30000000000000004  0.2  0.0
92  0.35000000000000003  0.2  0.0
93  0.4  0.2  0.0
94  0.45  0.2  0.0
95  0.5  0.2  0.0
96  0.55  0.2  0.0
97  0.6000000000000001  0.2  0.0
98  0.65  0.2  0.0
99  0.7000000000000001  0.2  0.0
100  0.75  0.2  0.0
101  0.8  0.2  0.0
102  0.8500000000000001  0.2  0.0
103  0.9  0.2  0.0
104  0.9500000000000001  0.2  0.0
105  1.0  0.2  0.0
106  0.0  0.25  0.0
107  0.05  0.25  0.0
108  0.1  0.25  0.0
109  0.15000000000000002  0.25  0.0
110  0.2  0.25  0.0
111  0.25  0.25  0.0
112  0.30000000000000004  0.25  0.0
113  0.35000000000000003  0.25  0.0
114  0.4  0.25  0.0
115  0.45  0.25  0.0
116  0.5  0.25  0.0
117  0.55  0.25  0.0
118  0.6000000000000001  0.25  0.0
119  0.65  0.25  0.0
120  0.7000000000000001  0.25  0.0
121  0.75  0.25  0.0
122  0.8  0.25  0.0
123  0.8500000000000001  0.25  0.0
124  0.9  0.25  0.0
125  0.9500000000000001  0.25  0.0
126  1.0  0.25  0.0
127  0.0  0.30000000000000004  0.0
128  0.05  0.30000000000000004  0.0
129  0.1  0.30000000000000004  0.0
130  0.15000000000000002  0.30000000000000004  0.0
131  0.2  0.30000000000000004  0.0
132  0.25  0.30000000000000004  0.0
133  0.30000000000000004  0.30000000000000004  0.0
134  0.35000000000000003  0.30000000000000004  0.0
135  0.4  0.30000000000000004  0.0
136  0.45  0.30000000000000004  0.0
137  0.5  0.30000000000000004  0.0
138  0.55  0.30000000000000004  0.0
139  0.6000000000000001  0.30000000000000004  0.0
140  0.65  0.30000000000000004  0.0
141  0.7000000000000001  0.30000000000000004  0.0
142  0.75  0.30000000000000004  0.0
143  0.8  0.30000000000000004  0.0
144  0.8500000000000001  0.30000000000000004  0.0
145  0.9  0.30000000000000004  0.0
146  0.9500000000000001  0.30000000000000004  0.0
147  1.0  0.30000000000000004  0.0
148  0.0  0.35000000000000003  0.0
149  0.05  0.35000000000000003  0.0
150  0.1  0.35000000000000003  0.0
151  0.15000000000000002  0.35000000000000003  0.0
152  0.2  0.35000000000000003  0.0
153  0.25  0.35000000000000003  0.0
154  0.30000000000000004  0.35000000000000003  0.0
155  0.35000000000000003  0.35000000000000003  0.0
156  0.4  0.35000000000000003  0.0
157  0.45  0.35000000000000003  0.0
158  0.5  0.35000000000000003  0.0
159  0.55  0.35000000000000003  0.0
160  0.6000000000000001  0.35000000000000003  0.0
161  0.65  0.35000000000000003  0.0
162  0.7000000000000001  0.35000000000000003  0.0
163  0.75  0.35000000000000003  0.0
164  0.8  0.35000000000000003  0.0
165  0.8500000000000001  0.35000000000000003  0.0
166  0.9  0.35000000000000003  0.0
167  0.9500000000000001  0.35000000000000003  0.0
168  1.0  0.35000000000000003  0.0
169  0.0  0.4  0.0
170  0.05  0.4  0.0
171  0.1  0.4  0.0
172  0.15000000000000002  0.4  0.0
173  0.2  0.4  0.0
174  0.25  0.4  0.0
175  0.30000000000000004  0.4  0.0
176  0.35000000000000003  0.4  0.0
177  0.4  0.4  0.0
178  0.45  0.4  0.0
179  0.5  0.4  0.0
180  0.55  0.4  0.0
181  0.6000000000000001  0.4  0.0
182  0.65  0.4  0.0
183  0.7000000000000001  0.4  0.0
184  0.75  0.4  0.0
185  0.8  0.4  0.0
186  0.8500000000000001  0.4  0.0
187  0.9  0.4  0.0
188  0.9500000000000001  0.4  0.0
189  1.0  0.4  0.0
190  0.0  0.45  0.0
191  0.05  0.45  0.0
192  0.1  0.45  0.0
193  0.15000000000000002  0.45  0.0
194  0.2  0.45  0.0
195  0.25  0.45  0.0
196  0.30000000000000004  0.45  0.0
197  0.35000000000000003  0.45  0.0
198  0.4  0.45  0.0
199  0.45  0.45  0.0
200  0.5  0.45  0.0
201  0.55  0.45  0.0
202  0.6000000000000001  0.45  0.0
203  0.65  0.45  0.0
204  0.7000000000000001  0.45  0.0
205  0.75  0.45  0.0
206  0.8  0.45  0.0
207  0.8500000000000001  0.45  0.0
208  0.9  0.45  0.0
209  0.9500000000000001  0.45  0.0
210  1.0  0.45  0.0
211  0.0  0.5  0.0
212  0.05  0.5  0.0
213  0.1  0.5  0.0
214  0.15000000000000002  0.5  0.0
215  0.2  0.5  0.0
216  0.25  0.5  0.0
217  0.30000000000000004  0.5  0.0
218  0.35000000000000003  0.5  0.0
219  0.4  0.5  0.0
220  0.45  0.5  0.0
221  0.5  0.5  0.0
222  0.55  0.5  0.0
223  0.6000000000000001  0.5  0.0
224  0.65  0.5  0.0
225  0.7000000000000001  0.5  0.0
226  0.75  0.5  0.0
227  0.8  0.5  0.0
228  0.8500000000000001  0.5  0.0
229  0.9  0.5  0.0
230  0.9500000000000001  0.5  0.0
231  1.0  0.5  0.0
232  0.0  0.55  0.0
233  0.05  0.55  0.0
234  0.1  0.55  0.0
235  0.15000000000000002  0.55  0.0
236  0.2  0.55  0.0
237  0.25  0.55  0.0
238  0.30000000000000004  0.55  0.0
239  0.35000000000000003  0.55  0.0
240  0.4  0.55  0.0
241  0.45  0.55  0.0
242  0.5  0.55  0.0
243  0.55  0.55  0.0
244  0.6000000000000001  0.55  0.0
245  0.65  0.55  0.0
246  0.7000000000000001  0.55  0.0
247  0.75  0.55  0.0
248  0.8  0.55  0.0
249  0.8500000000000001  0.55  0.0
250  0.9  0.55  0.0
251  0.9500000000000001  0.55  0.0
252  1.0  0.55  0.0
253  0.0  0.6000000000000001  0.0
254  0.05  0.6000000000000001  0.0
255  0.1  0.6000000000000001  0.0
256  0.15000000000000002  0.6000000000000001  0.0
257  0.2  0.6000000000000001  0.0
258  0.25  0.6000000000000001  0.0
259  0.30000000000000004  0.6000000000000001  0.0
260  0.35000000000000003  0.6000000000000001  0.0
261  0.4  0.6000000000000001  0.0
262  0.45  0.6000000000000001  0.0
263  0.5  0.6000000000000001  0.0
264  0.55  0.6000000000000001  0.0
265  0.6000000000000001  0.6000000000000001  0.0
266  0.65  0.6000000000000001  0.0
267  0.7000000000000001  0.6000000000000001  0.0
268  0.75  0.6000000000000001  0.0
269  0.8  0.6000000000000001  0.0
270  0.8500000000000001  0.6000000000000001  0.0
271  0.9  0.6000000000000001  0.0
272  0.9500000000000001  0.6000000000000001  0.0
273  1.0  0.6000000000000001  0.0
274  0.0  0.65  0.0
275  0.05  0.65  0.0
276  0.1  0.65  0.0
277  0.15000000000000002  0.65  0.0
278  0.2  0.65  0.0
279  0.25  0.65  0.0
280  0.30000000000000004  0.65  0.0
281  0.35000000000000003  0.65  0.0
282  0.4  0.65  0.0
283  0.45  0.65  0.0
284  0.5  0.65  0.0
285  0.55  0.65  0.0
286  0.6000000000000001  0.65  0.0
287  0.65  0.65  0.0
288  0.7000000000000001  0.65  0.0
289  0.75  0.65  0.0
290  0.8  0.65  0.0
291  0.8500000000000001  0.65  0.0
292  0.9  0.65  0.0
293  0.9500000000000001  0.65  0.0
294  1.0  0.65  0.0
295  0.0  0.7000000000000001  0.0
296  0.05  0.7000000000000001  0.0
297  0.1  0.7000000000000001  0.0
298  0.15000000000000002  0.7000000000000001  0.0
299  0.2  0.7000000000000001  0.0
300  0.25  0.7000000000000001  0.0
301  0.30000000000000004  0.7000000000000001  0.0
302  0.35000000000000003  0.7000000000000001  0.0
303  0.4  0.7000000000000001  0.0
304  0.45  0.7000000000000001  0.0
305  0.5  0.7000000000000001  0.0
306  0.55  0.7000000000000001  0.0
307  0.6000000000000001  0.7000000000000001  0.0
308  0.65  0.7000000000000001  0.0
309  0.7000000000000001  0.7000000000000001  0.0
310  0.75  0.7000000000000001  0.0
311  0.8  0.7000000000000001  0.0
312  0.8500000000000001  0.7000000000000001  0.0
313  0.9  0.7000000000000001  0.0
314  0.9500000000000001  0.7000000000000001  0.0
315  1.0  0.7000000000000001  0.0
316  0.0  0.75  0.0
317  0.05  0.75  0.0
318  0.1  0.75  0.0
319  0.15000000000000002  0.75  0.0
320  0.2  0.75  0.0
321  0.25  0.75  0.0
322  0.30000000000000004  0.75  0.0
323  0.35000000000000003  0.75  0.0
324  0.4  0.75  0.0
325  0.45  0.75  0.0
326  0.5  0.75  0.0
327  0.55  0.75  0.0
328  0.6000000000000001  0.75  0.0
329  0.65  0.75  0.0
330  0.7000000000000001  0.75  0.0
331  0.75  0.75  0.0
332  0.8  0.75  0.0
333  0.8500000000000001  0.75  0.0
334  0.9  0.75  0.0
335  0.9500000000000001  0.75  0.0
336  1.0  0.75  0.0
337  0.0  0.8  0.0
338  0.05  0.8  0.0
339  0.1  0.8  0.0
340  0.15000000000000002  0.8  0.0
341  0.2  0.8  0.0
342  0.25  0.8  0.0
343  0.30000000000000004  0.8  0.0
344  0.35000000000000003  0.8  0.0
345  0.4  0.8  0.0
346  0.45  0.8  0.0
347  0.5  0.8  0.0
348  0.55  0.8  0.0
349  0.6000000000000001  0.8  0.0
350  0.65  0.8  0.0
351  0.7000000000000001  0.8  0.0
352  0.75  0.8  0.0
353  0.8  0.8  0.0
354  0.8500000000000001  0.8  0.0
355  0.9  0.8  0.0
356  0.9500000000000001  0.8  0.0
357  1.0  0.8  0.0
358  0.0  0.8500000000000001  0.0
359  0.05  0.8500000000000001  0.0
360  0.1  0.8500000000000001  0.0
361  0.15000000000000002  0.8500000000000001  0.0
362  0.2  0.8500000000000001  0.0
363  0.25  0.8500000000000001  0.0
364  0.30000000000000004  0.8500000000000001  0.0
365  0.35000000000000003  0.8500000000000001  0.0
366  0.4  0.8500000000000001  0.0
367  0.45  0.8500000000000001  0.0
368  0.5  0.8500000000000001  0.0
369  0.55  0.8500000000000001  0.0
370  0.6000000000000001  0.8500000000000001  0.0
371  0.65  0.8500000000000001  0.0
372  0.7000000000000001  0.8500000000000001  0.0
373  0.75  0.8500000000000001  0.0
374  0.8  0.8500000000000001  0.0
375  0.8500000000000001  0.8500000000000001  0.0
376  0.9  0.8500000000000001  0.0
377  0.9500000000000001  0.8500000000000001  0.0
378  1.0  0.8500000000000001  0.0
379  0.0  0.9  0.0
380  0.05  0.9  0.0
381  0.1  0.9  0.0
382  0.15000000000000002  0.9  0.0
383  0.2  0.9  0.0
384  0.25  0.9  0.0
385  0.30000000000000004  0.9  0.0
386  0.35000000000000003  0.9  0.0
387  0.4  0.9  0.0
388  0.45  0.9  0.0
389  0.5  0.9  0.0
390  0.55  0.9  0.0
391  0.6000000000000001  0.9  0.0
392  0.65  0.9  0.0
393  0.7000000000000001  0.9  0.0
394  0.75  0.9  0.0
395  0.8  0.9  0.0
396  0.8500000000000001  0.9  0.0
397  0.9  0.9  0.0
398  0.9500000000000001  0.9  0.0
399  1.0  0.9  0.0
400  0.0  0.9500000000000001  0.0
401  0.05  0.9500000000000001  0.0
402  0.1  0.9500000000000001  0.0
403  0.15000000000000002  0.9500000000000001  0.0
404  0.2  0.9500000000000001  0.0
405  0.25  0.9500000000000001  0.0
406  0.30000000000000004  0.9500000000000001  0.0
407  0.35000000000000003  0.9500000000000001  0.0
408  0.4  0.9500000000000001  0.0
409  0.45  0.9500000000000001  0.0
410  0.5  0.9500000000000001  0.0
411  0.55  0.9500000000000001  0.0
412  0.6000000000000001  0.9500000000000001  0.0
413  0.65  0.9500000000000001  0.0
414  0.7000000000000001  0.9500000000000001  0.0
415  0.75  0.9500000000000001  0.0
416  0.8  0.9500000000000001  0.0
417  0.8500000000000001  0.9500000000000001  0.0
418  0.9  0.9500000000000001  0.0
419  0.9500000000000001  0.9500000000000001  0.0
420  1.0  0.9500000000000001  0.0
421  0.0  1.0  0.0
422  0.05  1.0  0.0
423  0.1  1.0  0.0
424  0.15000000000000002  1.0  0.0
425  0.2  1.0  0.0
426  0.25  1.0  0.0
427  0.30000000000000004  1.0  0.0
428  0.35000000000000003  1.0  0.0
429  0.4  1.0  0.0
430  0.45  1.0  0.0
431  0.5  1.0  0.0
432  0.55  1.0  0.0
433  0.6000000000000001  1.0  0.0
434  0.65  1.0  0.0
435  0.7000000000000001  1.0  0.0
436  0.75  1.0  0.0
437  0.8  1.0  0.0
438  0.8500000000000001  1.0  0.0
439  0.9  1.0  0.0
440  0.9500000000000001  1.0  0.0
441  1.0  1.0  0.0

[1D Elements]
#ElemNr  ElemType  NrOfNodes  Level
#Node1 Node2 ... NodeNrOfNodes

[2D Elements]
#ElemNr  ElemType  NrOfNodes  Level
#Node1 Node2 ... NodeNrOfNodes
1 6 4 void
1 2 23 22
2 6 4 void
22 23 44 43
3 6 4 void
43 44 65 64
4 6 4 void
64 65 86 85
5 6 4 void
85 86 107 106
6 6 4 void
106 107 128 127
7 6 4 void
127 128 149 148
8 6 4 void
148 149 170 169
9 6 4 void
169 170 191 190
10 6 4 void
190 191 212 211
11 6 4 void
211 212 233 232
12 6 4 void
232 233 254 253
13 6 4 void
253 254 275 274
14 6 4 void
274 275 296 295
15 6 4 void
295 296 317 316
16 6 4 void
316 317 338 337
17 6 4 void
337 338 359 358
18 6 4 void
358 359 380 379
19 6 4 void
379 380 401 400
20 6 4 void
400 401 422 421
21 6 4 void
2 3 24 23
22 6 4 void
23 24 45 44
23 6 4 void
44 45 66 65
24 6 4 void
65 66 87 86
25 6 4 void
86 87 108 107
26 6 4 void
107 108 129 128
27 6 4 void
128 129 150 149
28 6 4 void
149 150 171 170
29 6 4 void
170 171 192 191
30 6 4 void
191 192 213 212
31 6 4 void
212 213 234 233
32 6 4 void
233 234 255 254
33 6 4 void
254 255 276 275
34 6 4 void
275 276 297 296
35 6 4 void
296 297 318 317
36 6 4 void
317 318 339 338
37 6 4 void
338 339 360 359
38 6 4 void
359 360 381 380
39 6 4 void
380 381 402 401
40 6 4 void
401 402 423 422
41 6 4 void
3 4 25 24
42 6 4 void
24 25 46 45
43 6 4 void
45 46 67 66
44 6 4 void
66 67 88 87
45 6 4 void
87 88 109 108
46 6 4 void
108 109 130 129
47 6 4 void
129 130 151 150
48 6 4 void
150 151 172 171
49 6 4 void
171 172 193 192
50 6 4 void
192 193 214 213
51 6 4 void
213 214 235 234
52 6 4 void
234 235 256 255
53 6 4 void
255 256 277 276
54 6 4 void
276 277 298 297
55 6 4 void
297 298 319 318
56 6 4 void
318 319 340 339
57 6 4 void
339 340 361 360
58 6 4 void
360 361 382 381
59 6 4 void
381 382 403 402
60 6 4 void
402 403 424 423
61 6 4 void
4 5 26 25
62 6 4 void
25 26 47 46
63 6 4 void
46 47 68 67
64 6 4 void
67 68 89 88
65 6 4 void
88 89 110 109
66 6 4 void
109 110 131 130
67 6 4 void
130 131 152 151
68 6 4 void
151 152 173 172
69 6 4 void
172 173 194 193
70 6 4 void
193 194 215 214
71 6 4 void
214 215 236 235
72 6 4 void
235 236 257 256
73 6 4 void
256 257 278 277
74 6 4 void
277 278 299 298
75 6 4 void
298 299 320 319
76 6 4 void
319 320 341 340
77 6 4 void
340 341 362 361
78 6 4 void
361 362 383 382
79 6 4 void
382 383 404 403
80 6 4 void
403 404 425 424
81 6 4 void
5 6 27 26
82 6 4 void
26 27 48 47
83 6 4 void
47 48 69 68
84 6 4 void
68 69 90 89
85 6 4 void
89 90 111 110
86 6 4 void
110 111 132 131
87 6 4 void
131 132 153 152
88 6 4 void
152 153 174 173
89 6 4 void
173 174 195 194
90 6 4 void
194 195 216 215
91 6 4 void
215 216 237 236
92 6 4 void
236 237 258 257
93 6 4 void
257 258 279 278
94 6 4 void
278 279 300 299
95 6 4 mech
299 300 321 320
96 6 4 void
320 321 342 341
97 6 4 void
341 342 363 362
98 6 4 void
362 363 384 383
99 6 4 void
383 384 405 404
100 6 4 void
404 405 426 425
101 6 4 void
6 7 28 27
102 6 4 void
27 28 49 48
103 6 4 void
48 49 70 69
104 6 4 void
69 70 91 90
105 6 4 void
90 91 112 111
106 6 4 void
111 112 133 132
107 6 4 void
132 133 154 153
108 6 4 void
153 154 175 174
109 6 4 void
174 175 196 195
110 6 4 void
195 196 217 216
111 6 4 void
216 217 238 237
112 6 4 void
237 238 259 258
113 6 4 void
258 259 280 279
114 6 4 mech
279 280 301 300
115 6 4 mech
300 301 322 321
116 6 4 void
321 322 343 342
117 6 4 void
342 343 364 363
118 6 4 void
363 364 385 384
119 6 4 void
384 385 406 405
120 6 4 void
405 406 427 426
121 6 4 void
7 8 29 28
122 6 4 void
28 29 50 49
123 6 4 void
49 50 71 70
124 6 4 void
70 71 92 91
125 6 4 void
91 92 113 112
126 6 4 void
112 113 134 133
127 6 4 void
133 134 155 154
128 6 4 void
154 155 176 175
129 6 4 void
175 176 197 196
130 6 4 void
196 197 218 217
131 6 4 void
217 218 239 238
132 6 4 void
238 239 260 259
133 6 4 mech
259 260 281 280
134 6 4 mech
280 281 302 301
135 6 4 void
301 302 323 322
136 6 4 void
322 323 344 343
137 6 4 void
343 344 365 364
138 6 4 void
364 365 386 385
139 6 4 void
385 386 407 406
140 6 4 void
406 407 428 427
141 6 4 void
8 9 30 29
142 6 4 void
29 30 51 50
143 6 4 void
50 51 72 71
144 6 4 void
71 72 93 92
145 6 4 void
92 93 114 113
146 6 4 void
113 114 135 134
147 6 4 void
134 135 156 155
148 6 4 void
155 156 177 176
149 6 4 void
176 177 198 197
150 6 4 void
197 198 219 218
151 6 4 void
218 219 240 239
152 6 4 mech
239 240 261 260
153 6 4 mech
260 261 282 281
154 6 4 void
281 282 303 302
155 6 4 void
302 303 324 323
156 6 4 void
323 324 345 344
157 6 4 void
344 345 366 365
158 6 4 void
365 366 387 386
159 6 4 void
386 387 408 407
160 6 4 void
407 408 429 428
161 6 4 void
9 10 31 30
162 6 4 void
30 31 52 51
163 6 4 void
51 52 73 72
164 6 4 void
72 73 94 93
165 6 4 void
93 94 115 114
166 6 4 void
114 115 136 135
167 6 4 void
135 136 157 156
168 6 4 void
156 157 178 177
169 6 4 void
177 178 199 198
170 6 4 void
198 199 220 219
171 6 4 mech
219 220 241 240
172 6 4 mech
240 241 262 261
173 6 4 void
261 262 283 282
174 6 4 void
282 283 304 303
175 6 4 void
303 304 325 324
176 6 4 void
324 325 346 345
177 6 4 void
345 346 367 366
178 6 4 void
366 367 388 387
179 6 4 void
387 388 409 408
180 6 4 void
408 409 430 429
181 6 4 void
10 11 32 31
182 6 4 void
31 32 53 52
183 6 4 void
52 53 74 73
184 6 4 void
73 74 95 94
185 6 4 void
94 95 116 115
186 6 4 void
115 116 137 136
187 6 4 void
136 137 158 157
188 6 4 void
157 158 179 178
189 6 4 void
178 179 200 199
190 6 4 mech
199 200 221 220
191 6 4 mech
220 221 242 241
192 6 4 void
241 242 263 262
193 6 4 void
262 263 284 283
194 6 4 void
283 284 305 304
195 6 4 void
304 305 326 325
196 6 4 void
325 326 347 346
197 6 4 void
346 347 368 367
198 6 4 void
367 368 389 388
199 6 4 void
388 389 410 409
200 6 4 void
409 410 431 430
201 6 4 void
11 12 33 32
202 6 4 void
32 33 54 53
203 6 4 void
53 54 75 74
204 6 4 void
74 75 96 95
205 6 4 void
95 96 117 116
206 6 4 void
116 117 138 137
207 6 4 void
137 138 159 158
208 6 4 void
158 159 180 179
209 6 4 mech
179 180 201 200
210 6 4 mech
200 201 222 221
211 6 4 void
221 222 243 242
212 6 4 void
242 243 264 263
213 6 4 void
263 264 285 284
214 6 4 void
284 285 306 305
215 6 4 void
305 306 327 326
216 6 4 void
326 327 348 347
217 6 4 void
347 348 369 368
218 6 4 void
368 369 390 389
219 6 4 void
389 390 411 410
220 6 4 void
410 411 432 431
221 6 4 void
12 13 34 33
222 6 4 void
33 34 55 54
223 6 4 void
54 55 76 75
224 6 4 void
75 76 97 96
225 6 4 void
96 97 118 117
226 6 4 void
117 118 139 138
227 6 4 void
138 139 160 159
228 6 4 mech
159 160 181 180
229 6 4 mech
180 181 202 201
230 6 4 void
201 202 223 222
231 6 4 void
222 223 244 243
232 6 4 void
243 244 265 264
233 6 4 void
264 265 286 285
234 6 4 void
285 286 307 306
235 6 4 void
306 307 328 327
236 6 4 void
327 328 349 348
237 6 4 void
348 349 370 369
238 6 4 void
369 370 391 390
239 6 4 void
390 391 412 411
240 6 4 void
411 412 433 432
241 6 4 void
13 14 35 34
242 6 4 void
34 35 56 55
243 6 4 void
55 56 77 76
244 6 4 void
76 77 98 97
245 6 4 void
97 98 119 118
246 6 4 void
118 119 140 139
247 6 4 mech
139 140 161 160
248 6 4 mech
160 161 182 181
249 6 4 void
181 182 203 202
250 6 4 void
202 203 224 223
251 6 4 void
223 224 245 244
252 6 4 void
244 245 266 265
253 6 4 void
265 266 287 286
254 6 4 void
286 287 308 307
255 6 4 void
307 308 329 328
256 6 4 void
328 329 350 349
257 6 4 void
349 350 371 370
258 6 4 void
370 371 392 391
259 6 4 void
391 392 413 412
260 6 4 void
412 413 434 433
261 6 4 void
14 15 36 35
262 6 4 void
35 36 57 56
263 6 4 void
56 57 78 77
264 6 4 void
77 78 99 98
265 6 4 void
98 99 120 119
266 6 4 mech
119 120 141 140
267 6 4 mech
140 141 162 161
268 6 4 void
161 162 183 182
269 6 4 void
182 183 204 203
270 6 4 void
203 204 225 224
271 6 4 void
224 225 246 245
272 6 4 void
245 246 267 266
273 6 4 void
266 267 288 287
274 6 4 void
287 288 309 308
275 6 4 void
308 309 330 329
276 6 4 void
329 330 351 350
277 6 4 void
350 351 372 371
278 6 4 void
371 372 393 392
279 6 4 void
392 393 414 413
280 6 4 void
413 414 435 434
281 6 4 void
15 16 37 36
282 6 4 void
36 37 58 57
283 6 4 void
57 58 79 78
284 6 4 void
78 79 100 99
285 6 4 mech
99 100 121 120
286 6 4 mech
120 121 142 141
287 6 4 void
141 142 163 162
288 6 4 void
162 163 184 183
289 6 4 void
183 184 205 204
290 6 4 void
204 205 226 225
291 6 4 void
225 226 247 246
292 6 4 void
246 247 268 267
293 6 4 void
267 268 289 288
294 6 4 void
288 289 310 309
295 6 4 void
309 310 331 330
296 6 4 void
330 331 352 351
297 6 4 void
351 352 373 372
298 6 4 void
372 373 394 393
299 6 4 void
393 394 415 414
300 6 4 void
414 415 436 435
301 6 4 void
16 17 38 37
302 6 4 void
37 38 59 58
303 6 4 void
58 59 80 79
304 6 4 mech
79 80 101 100
305 6 4 mech
100 101 122 121
306 6 4 void
121 122 143 142
307 6 4 void
142 143 164 163
308 6 4 void
163 164 185 184
309 6 4 void
184 185 206 205
310 6 4 void
205 206 227 226
311 6 4 void
226 227 248 247
312 6 4 void
247 248 269 268
313 6 4 void
268 269 290 289
314 6 4 void
289 290 311 310
315 6 4 void
310 311 332 331
316 6 4 void
331 332 353 352
317 6 4 void
352 353 374 373
318 6 4 void
373 374 395 394
319 6 4 void
394 395 416 415
320 6 4 void
415 416 437 436
321 6 4 void
17 18 39 38
322 6 4 void
38 39 60 59
323 6 4 void
59 60 81 80
324 6 4 mech
80 81 102 101
325 6 4 void
101 102 123 122
326 6 4 void
122 123 144 143
327 6 4 void
143 144 165 164
328 6 4 void
164 165 186 185
329 6 4 void
185 186 207 206
330 6 4 void
206 207 228 227
331 6 4 void
227 228 249 248
332 6 4 void
248 249 270 269
333 6 4 void
269 270 291 290
334 6 4 void
290 291 312 311
335 6 4 void
311 312 333 332
336 6 4 void
332 333 354 353
337 6 4 void
353 354 375 374
338 6 4 void
374 375 396 395
339 6 4 void
395 396 417 416
340 6 4 void
416 417 438 437
341 6 4 void
18 19 40 39
342 6 4 void
39 40 61 60
343 6 4 void
60 61 82 81
344 6 4 void
81 82 103 102
345 6 4 void
102 103 124 123
346 6 4 void
123 124 145 144
347 6 4 void
144 145 166 165
348 6 4 void
165 166 187 186
349 6 4 void
186 187 208 207
350 6 4 void
207 208 229 228
351 6 4 void
228 229 250 249
352 6 4 void
249 250 271 270
353 6 4 void
270 271 292 291
354 6 4 void
291 292 313 312
355 6 4 void
312 313 334 333
356 6 4 void
333 334 355 354
357 6 4 void
354 355 376 375
358 6 4 void
375 376 397 396
359 6 4 void
396 397 418 417
360 6 4 void
417 418 439 438
361 6 4 void
19 20 41 40
362 6 4 void
40 41 62 61
363 6 4 void
61 62 83 82
364 6 4 void
82 83 104 103
365 6 4 void
103 104 125 124
366 6 4 void
124 125 146 145
367 6 4 void
145 146 167 166
368 6 4 void
166 167 188 187
369 6 4 void
187 188 209 208
370 6 4 void
208 209 230 229
371 6 4 void
229 230 251 250
372 6 4 void
250 251 272 271
373 6 4 void
271 272 293 292
374 6 4 void
292 293 314 313
375 6 4 void
313 314 335 334
376 6 4 void
334 335 356 355
377 6 4 void
355 356 377 376
378 6 4 void
376 377 398 397
379 6 4 void
397 398 419 418
380 6 4 void
418 419 440 439
381 6 4 void
20 21 42 41
382 6 4 void
41 42 63 62
383 6 4 void
62 63 84 83
384 6 4 void
83 84 105 104
385 6 4 void
104 105 126 125
386 6 4 void
125 126 147 146
387 6 4 void
146 147 168 167
388 6 4 void
167 168 189 188
389 6 4 void
188 189 210 209
390 6 4 void
209 210 231 230
391 6 4 void
230 231 252 251
392 6 4 void
251 252 273 272
393 6 4 void
272 273 294 293
394 6 4 void
293 294 315 314
395 6 4 void
314 315 336 335
396 6 4 void
335 336 357 356
397 6 4 void
356 357 378 377
398 6 4 void
377 378 399 398
399 6 4 void
398 399 420 419
400 6 4 void
419 420 441 440

[3D Elements]
#ElemNr  ElemType  NrOfNodes  Level
#Node1 Node2 ... NodeNrOfNodes

[Node BC]
#NodeNr Level
1 south
2 south
3 south
4 south
5 south
6 south
7 south
8 south
9 south
10 south
11 south
12 south
13 south
14 south
15 south
16 south
17 south
18 south
19 south
20 south
21 south
421 north
422 north
423 north
424 north
425 north
426 north
427 north
428 north
429 north
430 north
431 north
432 north
433 north
434 north
435 north
436 north
437 north
438 north
439 north
440 north
441 north
1 west
22 west
43 west
64 west
85 west
106 west
127 west
148 west
169 west
190 west
211 west
232 west
253 west
274 west
295 west
316 west
337 west
358 west
379 west
400 west
421 west
21 east
42 east
63 east
84 east
105 east
126 east
147 east
168 east
189 east
210 east
231 east
252 east
273 east
294 east
315 east
336 east
357 east
378 east
399 east
420 east
441 east
1 left_lower
21 right_lower
421 left_upper
441 right_upper

[Save Nodes]
#NodeNr Level

[Save Elements]
#ElemNr Level

 
