
0                         0
2.0000000000000003E-6     9.642005797183766E-7
4.000000000000001E-6      1.9054613703138353E-6
6.0E-6                    2.8239923376266287E-6
8.000000000000001E-6      3.7199993203939834E-6
1.0E-5                    4.593684017187462E-6
1.2E-5                    5.4452439736706884E-6
1.4000000000000001E-5     6.274872570174531E-6
1.6000000000000003E-5     7.082759009586866E-6
1.8000000000000004E-5     7.869088305554296E-6
2.0E-5                    8.634041270993046E-6
2.2E-5                    9.37779450690639E-6
2.4E-5                    1.010052039150619E-5
2.6000000000000002E-5     1.0802387069635659E-5
2.8000000000000003E-5     1.1483558442491443E-5
3.0000000000000008E-5     1.2144194157642325E-5
3.2000000000000005E-5     1.2784449599341899E-5
3.4000000000000007E-5     1.340447587913376E-5
3.600000000000001E-5      1.4004419826746155E-5
3.8E-5                    1.4584423981274539E-5
4.0E-5                    1.5144626582649636E-5
4.2E-5                    1.5685161563389006E-5
4.4E-5                    1.6206158540630284E-5
4.6E-5                    1.6707742808444248E-5
4.8E-5                    1.719003533042531E-5
5.0E-5                    1.7653152732558716E-5
5.2000000000000004E-5     1.809720729636154E-5
5.4000000000000005E-5     1.8522306952296612E-5
5.6000000000000006E-5     1.8928555273457584E-5
5.800000000000001E-5      1.931605146952347E-5
6.0000000000000015E-5     1.9684890380981194E-5
6.200000000000002E-5      2.0035162473615044E-5
6.400000000000001E-5      2.036695383326125E-5
6.600000000000002E-5      2.0680346160826717E-5
6.800000000000001E-5      2.0975416767570465E-5
7.0E-5                    2.1252238570646964E-5
7.200000000000002E-5      2.151088008890968E-5
7.4E-5                    2.1751405438974422E-5
7.6E-5                    2.1973874331541186E-5
7.800000000000001E-5      2.217834206797342E-5
8.0E-5                    2.236485953713435E-5
8.200000000000001E-5      2.253347321247917E-5
8.4E-5                    2.268422514940262E-5
8.600000000000002E-5      2.2817152982840895E-5
8.8E-5                    2.293228992512798E-5
9.000000000000002E-5      2.3029664764105077E-5
9.2E-5                    2.3109301861483308E-5
9.4E-5                    2.317122115145891E-5
9.6E-5                    2.321543813958076E-5
9.8E-5                    2.3241963901869526E-5
1.0E-4                    2.3250805084189167E-5
