
0                         0
2.0000000000000003E-6     8.741679672613826E-6
4.000000000000001E-6      1.7647150657480915E-5
6.0E-6                    2.669003337221521E-5
8.000000000000001E-6      3.5845017347980955E-5
1.0E-5                    4.508783561996833E-5
1.2E-5                    5.439523879964729E-5
1.4000000000000001E-5     6.374496889748953E-5
1.6000000000000003E-5     7.311573296214007E-5
1.8000000000000004E-5     8.248717659899525E-5
2.0E-5                    9.183985742867979E-5
2.2E-5                    1.0115521854304276E-4
2.4E-5                    1.1041556201380064E-4
2.6000000000000002E-5     1.1960402250641847E-4
2.8000000000000003E-5     1.2870454104940907E-4
3.0000000000000008E-5     1.3770183900684447E-4
3.2000000000000005E-5     1.4658139229961368E-4
3.4000000000000007E-5     1.5532940591872222E-4
3.600000000000001E-5      1.639327887718172E-4
3.8E-5                    1.7237912890203543E-4
4.0E-5                    1.8065666911629255E-4
4.2E-5                    1.8875428305819008E-4
4.4E-5                    1.9666145175887943E-4
4.6E-5                    2.0436824069741905E-4
4.8E-5                    2.1186527740044085E-4
5.0E-5                    2.1914372960929986E-4
5.2000000000000004E-5     2.2619528404128246E-4
5.4000000000000005E-5     2.3301212576988596E-4
5.6000000000000006E-5     2.3958691824778076E-4
5.800000000000001E-5      2.4591278399457053E-4
6.0000000000000015E-5     2.5198328597017013E-4
6.200000000000002E-5      2.577924096533036E-4
6.400000000000001E-5      2.6333454584337164E-4
6.600000000000002E-5      2.686044742027219E-4
6.800000000000001E-5      2.73597347555254E-4
7.0E-5                    2.7830867695615406E-4
7.200000000000002E-5      2.8273431754648E-4
7.4E-5                    2.868704552053557E-4
7.6E-5                    2.907135940114997E-4
7.800000000000001E-5      2.9426054452493444E-4
8.0E-5                    2.975084128987647E-4
8.200000000000001E-5      3.0045459083007656E-4
8.4E-5                    3.030967463581544E-4
8.600000000000002E-5      3.0543281551743056E-4
8.8E-5                    3.074609948517696E-4
9.000000000000002E-5      3.0917973479592753E-4
9.2E-5                    3.105877339293336E-4
9.4E-5                    3.116839341065469E-4
9.6E-5                    3.12467516468114E-4
9.8E-5                    3.1293789833480233E-4
1.0E-4                    3.13094730987555E-4
