
0                         0.0024628838468554997
8.33E-4                   0.002452170711756864
0.001667                  0.002446215568026557
0.0025                    0.0024384937105201014
0.003333                  0.0024294205681867622
0.004167                  0.002419360447908641
0.005                     0.0024084427118148274
0.005833                  0.0023967005328358634
0.006667                  0.0023841549181406515
0.0075                    0.002370821106498045
0.008333                  0.002356715269133707
0.009167                  0.002341856367059387
0.01                      0.0023262557290172517
0.010833                  0.0023099315728468428
0.011667                  0.0022929048290280278
0.0125                    0.002275183470159662
0.013333                  0.002256787734470625
0.014167                  0.0022377403722527623
0.015                     0.0022180461100215344
0.015833                  0.0021977270532351086
0.016667                  0.0021768076185141637
0.0175                    0.002155289399088223
0.018333                  0.0021331962143620203
0.019167                  0.002110553993752275
0.02                      0.0020873613167213707
0.020833                  0.0020636435633138734
0.021667                  0.0020394280229610734
0.0225                    0.002014710386826237
0.023333                  0.001989517442860879
0.024167                  0.0019638776889802523
0.025                     0.0019377840587955896
0.025833                  0.0019112645965045064
0.026667                  0.0018843488587198694
0.0275                    0.0018570271568471985
0.028333                  0.0018293286412609485
0.029167                  0.001801283779677228
0.03                      0.00177288040058549
0.030833                  0.0017441486125031967
0.031667                  0.0017151196493079355
0.0325                    0.0016857789991504323
0.033333                  0.0016561575831455068
0.034167                  0.0016262872594477837
0.035                     0.0015961513210864212
0.035833                  0.0015657813591235406
0.036667                  0.0015352097175623395
0.0375                    0.0015044176415553324
0.038333                  0.0014734372528053992
0.039167                  0.0014423012464580861
0.04                      0.0014109889684478345
0.040833                  0.0013795329354776439
0.041667                  0.0013479660633079061
0.0425                    0.0013162659481366643
0.043333                  0.0012844653700045535
0.044167                  0.0012525973391877602
0.045                     0.0012206378518849024
0.045833                  0.0011886198241270257
0.046667                  0.001156576239291198
0.0475                    0.0011244816430443483
0.048333                  0.0010923689646922148
0.049167                  0.0010602710442047937
0.05                      0.001028161125411628
0.050833                  9.96072032960662E-4
0.051667                  9.640363521327954E-4
0.0525                    9.320261722141496E-4
0.053333                  9.000741004572333E-4
0.054167                  8.682123614503025E-4
0.055                     8.364120355522443E-4
0.055833                  8.047054050490396E-4
0.056667                  7.731242333651826E-4
0.0575                    7.416387353404727E-4
0.058333                  7.102807661758517E-4
0.059167                  6.790815333340192E-4
0.06                      6.480105268521372E-4
0.060833                  6.17099078351099E-4
0.061667                  5.86377750293882E-4
0.0625                    5.55815445592292E-4
0.063333                  5.254428815419228E-4
0.064167                  4.952898923021802E-4
0.065                     4.653249280789798E-4
0.065833                  4.3557800674086237E-4
0.066667                  4.06078156987963E-4
0.0675                    3.767935067092226E-4
0.068333                  3.47753295361659E-4
0.069167                  3.189856748068849E-4
0.07                      2.9045857710807867E-4
0.070833                  2.6220039006753E-4
0.071667                  2.3423832349477928E-4
0.0725                    2.0654023551347597E-4
0.073333                  1.791335953198911E-4
0.074167                  1.5204461103859025E-4
0.075                     1.252411845904569E-4
0.075833                  9.874980504147191E-5
0.076667                  7.259562552979854E-5
0.0775                    4.674670432646871E-5
0.078333                  2.122849516517997E-5
0.079167                  -3.934951478864132E-6
0.08                      -2.877531332748646E-5
0.080833                  -5.326822148888681E-5
0.081667                  -7.739076979430498E-5
0.0825                    -1.0117426975303606E-4
0.083333                  -1.245954807635305E-4
0.084167                  -1.4763267707450426E-4
0.085                     -1.703167068867503E-4
0.085833                  -1.9262549590302275E-4
0.086667                  -2.1453852903081849E-4
0.0875                    -2.3608609984986803E-4
0.088333                  -2.5724733239766576E-4
0.089167                  -2.7800294715907086E-4
0.09                      -2.983825972499247E-4
0.090833                  -3.1836663173491475E-4
0.091667                  -3.3793702602809874E-4
0.0925                    -3.5712271279640087E-4
0.093333                  -3.7590528722580065E-4
0.094167                  -3.9426799392954957E-4
0.095                     -4.1223897075033195E-4
0.095833                  -4.2980107496967305E-4
0.096667                  -4.46938829418508E-4
0.0975                    -4.636795087029527E-4
0.098333                  -4.8000724288592276E-4
0.099167                  -4.959078372659082E-4
0.1                       -5.114076404693048E-4
0.100833                  -5.264920612089528E-4
0.101667                  -5.411481866159699E-4
0.1025                    -5.554013825454299E-4
0.103333                  -5.692383372921427E-4
0.104167                  -5.826474147799451E-4
0.105                     -5.956529469558449E-4
0.105833                  -6.082428981582401E-4
0.106667                  -6.204068995575968E-4
0.1075                    -6.321682039328798E-4
0.108333                  -6.435160435952743E-4
0.109167                  -6.544413034522701E-4
0.11                      -6.649661173183273E-4
0.110833                  -6.750809733412732E-4
0.111667                  -6.847779925763151E-4
0.1125                    -6.940781558506901E-4
0.113333                  -7.02973190891234E-4
0.114167                  -7.114564336969531E-4
0.115                     -7.195476834452245E-4
0.115833                  -7.272398875115847E-4
0.116667                  -7.345275720547676E-4
0.1175                    -7.414293314065484E-4
0.118333                  -7.479393089990128E-4
0.119167                  -7.540531932457255E-4
0.12                      -7.597883555143413E-4
0.120833                  -7.651401085094884E-4
0.121667                  -7.701052718045398E-4
0.1225                    -7.746999809309762E-4
0.123333                  -7.789206878833709E-4
0.124167                  -7.827653095842519E-4
0.125                     -7.862487377069846E-4
0.125833                  -7.893685306922233E-4
0.126667                  -7.921236664523943E-4
0.1275                    -7.945277895509116E-4
0.128333                  -7.965795294002061E-4
0.129167                  -7.982788861808943E-4
0.13                      -7.996382586885705E-4
0.130833                  -8.006573094355368E-4
0.131667                  -8.013370200035193E-4
0.1325                    -8.016885491794058E-4
0.133333                  -8.017125525175906E-4
0.134167                  -8.014109503193407E-4
0.135                     -8.007936712719564E-4
0.135833                  -7.998623219674602E-4
0.136667                  -7.986197170488586E-4
0.1375                    -7.970745690728164E-4
0.138333                  -7.952293919272265E-4
0.139167                  -7.930878488281417E-4
0.14                      -7.906574539001563E-4
0.140833                  -7.879415831112067E-4
0.141667                  -7.849447012507656E-4
0.1425                    -7.816731453215742E-4
0.143333                  -7.781311068586029E-4
0.144167                  -7.743238042419335E-4
0.145                     -7.702564219993376E-4
0.145833                  -7.659339196761514E-4
0.146667                  -7.613622204809931E-4
0.1475                    -7.565453842445749E-4
0.148333                  -7.514890901079612E-4
0.149167                  -7.461999167689434E-4
0.15                      -7.406808300532558E-4
0.150833                  -7.349381796364654E-4
0.151667                  -7.289791499908524E-4
0.1525                    -7.228056463027633E-4
0.153333                  -7.164246392955741E-4
0.154167                  -7.098438692926661E-4
0.155                     -7.030642166918933E-4
0.155833                  -6.960932234979983E-4
0.156667                  -6.889391359890491E-4
0.1575                    -6.816018478266964E-4
0.158333                  -6.740894224896109E-4
0.159167                  -6.664105624806964E-4
0.16                      -6.585642147876263E-4
0.160833                  -6.50558914663503E-4
0.161667                  -6.424037714672316E-4
0.1625                    -6.34096827341845E-4
0.163333                  -6.256470399340006E-4
0.164167                  -6.170638765448516E-4
0.165                     -6.083445179253017E-4
0.165833                  -5.994982951305387E-4
0.166667                  -5.90534985215163E-4
0.1675                    -5.814509522671569E-4
0.168333                  -5.722558524240904E-4
0.169167                  -5.629597250893973E-4
0.17                      -5.535581635627739E-4
0.170833                  -5.440611014714569E-4
0.171667                  -5.344787941321781E-4
0.1725                    -5.24806110850694E-4
0.173333                  -5.150532160669164E-4
0.174167                  -5.052305355821983E-4
0.175                     -4.953322622389358E-4
0.175833                  -4.8536874567273305E-4
0.176667                  -4.75350537956832E-4
0.1775                    -4.652712035219252E-4
0.178333                  -4.5514123263039075E-4
0.179167                  -4.449712607799105E-4
0.18                      -4.347542723229223E-4
0.180833                  -4.2450085492368335E-4
0.181667                  -4.142216860350112E-4
0.1825                    -4.0390921839828496E-4
0.183333                  -3.9357409524226844E-4
0.184167                  -3.8322699590095477E-4
0.185                     -3.728598900225979E-4
0.185833                  -3.624834359519903E-4
0.186667                  -3.5210827654977544E-4
0.1875                    -3.4172594656566247E-4
0.188333                  -3.3134708060259183E-4
0.189167                  -3.2098224828368835E-4
0.19                      -3.106225973172921E-4
0.190833                  -3.002787013279144E-4
0.191667                  -2.8996102166384296E-4
0.1925                    -2.7966036633607166E-4
0.193333                  -2.693872124380167E-4
0.194167                  -2.5915187977605393E-4
0.195                     -2.489448832561571E-4
0.195833                  -2.3877656972475517E-4
0.196667                  -2.2865708596887316E-4
0.1975                    -2.1857669966527383E-4
0.198333                  -2.0854559533864985E-4
0.199167                  -1.9857371722690654E-4
0.2                       -1.886511306151679E-4
0.200833                  -1.7878782759113407E-4
0.201667                  -1.6899352218782492E-4
0.2025                    -1.5925812105084782E-4
0.203333                  -1.4959139564272805E-4
0.204167                  -1.4000280390788302E-4
0.205                     -1.304821365074776E-4
0.205833                  -1.2103891789934367E-4
0.206667                  -1.1168232623122401E-4
0.2075                    -1.0240207742106577E-4
0.208333                  -9.320742445040094E-5
0.209167                  -8.410724380590868E-5
0.21                      -7.509121656372645E-5
0.210833                  -6.616830179402756E-5
0.211667                  -5.734705436211754E-5
0.2125                    -4.861715891174067E-5
0.213333                  -3.9987260062270284E-5
0.214167                  -3.146557309500203E-5
0.215                     -2.304182304340951E-5
0.215833                  -1.47243215177466E-5
0.216667                  -6.520928098015658E-6
0.2175                    1.5785565040277187E-6
0.218333                  9.56617040919088E-6
0.219167                  1.7434423847171708E-5
0.22                      2.5193406947550067E-5
0.220833                  3.283552228447021E-5
0.221667                  4.03536621585289E-5
0.2225                    4.775777577771771E-5
0.223333                  5.5040643035796785E-5
0.224167                  6.219554868468545E-5
0.225                     6.923227105704903E-5
0.225833                  7.614397832875674E-5
0.226667                  8.292435634030108E-5
0.2275                    8.958298433500195E-5
0.228333                  9.611342799072484E-5
0.229167                  1.0250978100434705E-4
0.23                      1.0878139727627928E-4
0.230833                  1.149222473371005E-4
0.231667                  1.2092683780772242E-4
0.2325                    1.268042728454704E-4
0.233333                  1.325489334725318E-4
0.234167                  1.3815574259183922E-4
0.235                     1.4363353210777047E-4
0.235833                  1.489770974451043E-4
0.236667                  1.5418177960467246E-4
0.2375                    1.5925611757231254E-4
0.238333                  1.6419532348165553E-4
0.239167                  1.689951565567165E-4
0.24                      1.7366384418895418E-4
0.240833                  1.781970159076172E-4
0.241667                  1.8259084782277338E-4
0.2425                    1.8685323890852527E-4
0.243333                  1.909802352485036E-4
0.244167                  1.9496842704483624E-4
0.245                     1.9882536989211276E-4
0.245833                  2.0254752412869956E-4
0.246667                  2.0613188987580469E-4
0.2475                    2.0958566627706966E-4
0.248333                  2.1290572418363634E-4
0.249167                  2.1608946816310286E-4
0.25                      2.1914372960929986E-4
0.250833                  2.2206578486962157E-4
0.251667                  2.2485343619010155E-4
0.2525                    2.2751313783025086E-4
0.253333                  2.30042565253696E-4
0.254167                  2.3243991051070408E-4
0.255                     2.34711242907981E-4
0.255833                  2.3685462963799866E-4
0.256667                  2.3886864350397E-4
0.2575                    2.4075896291285098E-4
0.258333                  2.4252403808191903E-4
0.259167                  2.4416281257333986E-4
0.26                      2.4568056958888297E-4
0.260833                  2.470761326680695E-4
0.261667                  2.483488051210604E-4
0.2625                    2.49503472276622E-4
0.263333                  2.5053932037337164E-4
0.264167                  2.514560006051914E-4
0.265                     2.522579992329582E-4
0.265833                  2.529448536929671E-4
0.266667                  2.535165503871785E-4
0.2675                    2.53977176919311E-4
0.268333                  2.543266094926063E-4
0.269167                  2.545651563732114E-4
0.27                      2.54696508338805E-4
0.270833                  2.547208672235915E-4
0.271667                  2.5463884910394396E-4
0.2725                    2.5445375115743234E-4
0.273333                  2.541660870795771E-4
0.274167                  2.5377676614476465E-4
0.275                     2.532886964227976E-4
0.275833                  2.527026890974452E-4
0.276667                  2.5201993153689225E-4
0.2775                    2.512429484874967E-4
0.278333                  2.5037283368582936E-4
0.279167                  2.494110370686937E-4
0.28                      2.483597070098878E-4
0.280833                  2.4722020443304816E-4
0.281667                  2.459942259486932E-4
0.2825                    2.4468355161728526E-4
0.283333                  2.4328979380646318E-4
0.284167                  2.4181487962679209E-4
0.285                     2.402602299009258E-4
0.285833                  2.386276923949451E-4
0.286667                  2.3691940832215827E-4
0.2875                    2.3513644931479166E-4
0.288333                  2.3328088223538622E-4
0.289167                  2.3135504586908656E-4
0.29                      2.293596735640856E-4
0.290833                  2.272970348270026E-4
0.291667                  2.2516964937575453E-4
0.2925                    2.2297792401123568E-4
0.293333                  2.2072431430285186E-4
0.294167                  2.1841150425299462E-4
0.295                     2.1603958656441565E-4
0.295833                  2.13611186260174E-4
0.296667                  2.1112913500987026E-4
0.2975                    2.0859322452408867E-4
0.298333                  2.06006232685029E-4
0.299167                  2.0337112229498074E-4
0.3                       2.0068739778346495E-4
0.300833                  1.9795797334029285E-4
0.301667                  1.9518592654698782E-4
0.3025                    1.9237048873531188E-4
0.303333                  1.8951469402216306E-4
0.304167                  1.866217185946155E-4
0.305                     1.8369053528906088E-4
0.305833                  1.8072428197242832E-4
0.306667                  1.7772621749673176E-4
0.3075                    1.7469507121740724E-4
0.308333                  1.716340687424117E-4
0.309167                  1.6854653599831368E-4
0.31                      1.6543097411898455E-4
0.310833                  1.622906807737975E-4
0.311667                  1.5912903366599056E-4
0.3125                    1.5594432125034404E-4
0.313333                  1.527398978631887E-4
0.314167                  1.495191781204441E-4
0.315                     1.462802533940257E-4
0.315833                  1.4302651975831685E-4
0.316667                  1.3976141424931795E-4
0.3175                    1.3648284692754974E-4
0.318333                  1.3319424099147723E-4
0.319167                  1.29899041884431E-4
0.32                      1.2659499416386563E-4
0.320833                  1.2328553398441926E-4
0.321667                  1.1997410173538067E-4
0.3225                    1.166582921413813E-4
0.323333                  1.1334154072228633E-4
0.324167                  1.100272697731261E-4
0.325                     1.0671293987138674E-4
0.325833                  1.0340197273447364E-4
0.326667                  1.0009776016349304E-4
0.3275                    9.679764405322263E-5
0.328333                  9.350501972759386E-5
0.329167                  9.0223236634884E-5
0.33                      8.694953327431048E-5
0.330833                  8.368726657397306E-5
0.331667                  8.043973232462369E-5
0.3325                    7.720408070169789E-5
0.333333                  7.398361877623828E-5
0.334167                  7.07815780674882E-5
0.335                     6.759503514341148E-5
0.335833                  6.442723636143985E-5
0.336667                  6.128133900775165E-5
0.3375                    5.815436039305917E-5
0.338333                  5.504947600264928E-5
0.339167                  5.1969759471841715E-5
0.34                      4.89121828934443E-5
0.340833                  4.587984129889186E-5
0.341667                  4.287571598489085E-5
0.3425                    3.989674737312591E-5
0.343333                  3.694594116151004E-5
0.344167                  3.402617822489203E-5
0.345                     3.1134380480569194E-5
0.345833                  2.8273455978836386E-5
0.346667                  2.5446177879946328E-5
0.3475                    2.264946213910012E-5
0.348333                  1.9886111640541405E-5
0.349167                  1.7158785085750107E-5
0.35                      1.446440455725606E-5
0.350833                  1.1805660888554404E-5
0.351667                  9.185092290324472E-6
0.3525                    6.599638532844072E-6
0.353333                  4.051872113920571E-6
0.354167                  1.544205441248502E-6
0.355                     -9.263930850738769E-7
0.355833                  -3.3574748438520325E-6
0.356667                  -5.746757908409338E-6
0.3575                    -8.09723491739147E-6
0.358333                  -1.0406585992179526E-5
0.359167                  -1.267266372552285E-5
0.36                      -1.489841201588454E-5
0.360833                  -1.7081643985426608E-5
0.361667                  -1.9220350057344998E-5
0.3625                    -2.1317416338931822E-5
0.363333                  -2.337079247886819E-5
0.364167                  -2.5378609457346206E-5
0.365                     -2.7343687093731817E-5
0.365833                  -2.9264114507525498E-5
0.366667                  -3.113816530054935E-5
0.3675                    -3.2968585206168857E-5
0.368333                  -3.475360506728976E-5
0.369167                  -3.6491642553035255E-5
0.37                      -3.818536217629753E-5
0.370833                  -3.983313814393449E-5
0.371667                  -4.14335330396953E-5
0.3725                    -4.2989123649400944E-5
0.373333                  -4.4498428612194144E-5
0.374167                  -4.5960155642918354E-5
0.375                     -4.737678799440086E-5
0.375833                  -4.874698915288417E-5
0.376667                  -5.00696116650545E-5
0.3775                    -5.1347040104584484E-5
0.378333                  -5.2578082641489704E-5
0.379167                  -5.376173574324477E-5
0.38                      -5.490028082929786E-5
0.380833                  -5.599267007740792E-5
0.381667                  -5.703804243416348E-5
0.3825                    -5.803857232690909E-5
0.383333                  -5.899335467258584E-5
0.384167                  -5.990166899134747E-5
0.385                     -6.076557950978235E-5
0.385833                  -6.158432212200675E-5
0.386667                  -6.235731448297986E-5
0.3875                    -6.308650806438017E-5
0.388333                  -6.377127747508559E-5
0.389167                  -6.44111755987271E-5
0.39                      -6.500803921548403E-5
0.390833                  -6.556137890832775E-5
0.391667                  -6.607087945607106E-5
0.3925                    -6.653826159858624E-5
0.393333                  -6.696316870924329E-5
0.394167                  -6.734541368120854E-5
0.395                     -6.768660049569886E-5
0.395833                  -6.798650167271073E-5
0.396667                  -6.824505407713635E-5
0.3975                    -6.84637447461666E-5
0.398333                  -6.864247133029016E-5
0.399167                  -6.878129012504056E-5
0.4                       -6.888157161378221E-5
0.400833                  -6.89433341713345E-5
0.401667                  -6.896674865306286E-5
0.4025                    -6.895306989511247E-5
0.403333                  -6.89024322383064E-5
0.404167                  -6.881511591542533E-5
0.405                     -6.86922615258323E-5
0.405833                  -6.853411429892812E-5
0.406667                  -6.83410583598416E-5
0.4075                    -6.811412197212908E-5
0.408333                  -6.785365587816157E-5
0.409167                  -6.756014235036935E-5
0.41                      -6.723449967031397E-5
0.410833                  -6.68771784386E-5
0.411667                  -6.64887531016103E-5
0.4125                    -6.607003473861929E-5
0.413333                  -6.562156791558858E-5
0.414167                  -6.514401306646799E-5
0.415                     -6.463807725116685E-5
0.415833                  -6.410439288913557E-5
0.416667                  -6.354370003422949E-5
0.4175                    -6.29566052816337E-5
0.418333                  -6.234382260238311E-5
0.419167                  -6.170616515065039E-5
0.42                      -6.104414295406137E-5
0.420833                  -6.0358545071151755E-5
0.421667                  -5.965025110745737E-5
0.4225                    -5.891967873370299E-5
0.423333                  -5.816768549664518E-5
0.424167                  -5.739521070152131E-5
0.425                     -5.660258415934719E-5
0.425833                  -5.5790725191610734E-5
0.426667                  -5.496062598079687E-5
0.4275                    -5.4112533224809684E-5
0.428333                  -5.324742122512126E-5
0.429167                  -5.236632817089407E-5
0.43                      -5.146942261125302E-5
0.430833                  -5.055772698166733E-5
0.431667                  -4.9632318574317203E-5
0.4325                    -4.869329295654447E-5
0.433333                  -4.774171380624987E-5
0.434167                  -4.67786906337061E-5
0.435                     -4.580425133073741E-5
0.435833                  -4.481949393679937E-5
0.436667                  -4.382555330489332E-5
0.4375                    -4.2822395104902474E-5
0.438333                  -4.181114486108108E-5
0.439167                  -4.079295594902067E-5
0.44                      -3.976773736130258E-5
0.440833                  -3.8736635273064164E-5
0.441667                  -3.770081484770091E-5
0.4425                    -3.666013399815855E-5
0.443333                  -3.561575279441239E-5
0.444167                  -3.45688415293489E-5
0.445                     -3.3519212689362306E-5
0.445833                  -3.246803355819753E-5
0.446667                  -3.141647303024094E-5
0.4475                    -3.036430381166479E-5
0.448333                  -2.9312693841051535E-5
0.449167                  -2.826280421056902E-5
0.45                      -2.721437348642761E-5
0.450833                  -2.6168563819149403E-5
0.451667                  -2.5126522276760315E-5
0.4525                    -2.408795885273188E-5
0.453333                  -2.3054023625256197E-5
0.454167                  -2.2025843591547193E-5
0.455                     -2.100310566343905E-5
0.455833                  -1.9986941748856024E-5
0.456667                  -1.897845290427188E-5
0.4575                    -1.797730835818941E-5
0.458333                  -1.6984615928052673E-5
0.459167                  -1.6001445091514333E-5
0.46                      -1.5027452651565026E-5
0.460833                  -1.4063716624422247E-5
0.461667                  -1.3111269505430756E-5
0.4625                    -1.2169760771628911E-5
0.463333                  -1.1240233157493779E-5
0.464167                  -1.0323677010410256E-5
0.465                     -9.419739412061253E-6
0.465833                  -8.529422568247296E-6
0.466667                  -7.653669796354437E-6
0.4675                    -6.792130481779317E-6
0.468333                  -5.945761337630575E-6
0.469167                  -5.115454024589344E-6
0.47                      -4.300864729489994E-6
0.470833                  -3.5028999614924215E-6
0.471667                  -2.7223954060289254E-6
0.4725                    -1.9590182895152344E-6
0.473333                  -1.2136205030097045E-6
0.474167                  -4.869777376619856E-7
0.475                     2.2122776630798917E-7
0.475833                  9.10202850587235E-7
0.476667                  1.5792355243617146E-6
0.4775                    2.2286248355212274E-6
0.478333                  2.857640171196371E-6
0.479167                  3.4656366089786273E-6
0.48                      4.052891099336925E-6
0.480833                  4.618739050385187E-6
0.481667                  5.162605650351886E-6
0.4825                    5.684742681554979E-6
0.483333                  6.184554714986129E-6
0.484167                  6.661539746930309E-6
0.485                     7.11592164186987E-6
0.485833                  7.5471769454811054E-6
0.486667                  7.954878800287798E-6
0.4875                    8.339220750717255E-6
0.488333                  8.699753772630517E-6
0.489167                  9.03612813931717E-6
0.49                      9.348505019142291E-6
0.490833                  9.636511921349628E-6
0.491667                  9.89987786892045E-6
0.4925                    1.0138729967149511E-5
0.493333                  1.035277390145374E-5
0.494167                  1.0541817519086364E-5
0.495                     1.0705940583230854E-5
0.495833                  1.0844826286160736E-5
0.496667                  1.0957590964172182E-5
0.4975                    1.1039246714991194E-5
0.498333                  1.1064072322736537E-5
0.499167                  1.0976311659892937E-5
0.5                       1.1577679115510725E-5
