
0                         0
2.0000000000000003E-6     4.231465701625456E-6
4.000000000000001E-6      8.36280733999392E-6
6.0E-6                    1.2395103384911959E-5
8.000000000000001E-6      1.6329392089000982E-5
1.0E-5                    2.016667250824127E-5
1.2E-5                    2.390790550937388E-5
1.4000000000000001E-5     2.7554014764012764E-5
1.6000000000000003E-5     3.110588772928005E-5
1.8000000000000004E-5     3.456437661474114E-5
2.0E-5                    3.793029933538335E-5
2.2E-5                    4.120444045034988E-5
2.4E-5                    4.4387552087113866E-5
2.6000000000000002E-5     4.7480354850749465E-5
2.8000000000000003E-5     5.0483538717935256E-5
3.0000000000000008E-5     5.339776391530398E-5
3.2000000000000005E-5     5.622366178173416E-5
3.4000000000000007E-5     5.896183561416331E-5
3.600000000000001E-5      6.161286149648749E-5
3.8E-5                    6.417728911110102E-5
4.0E-5                    6.665564253262478E-5
4.2E-5                    6.90484210033561E-5
4.4E-5                    7.135609968997555E-5
4.6E-5                    7.357913042103966E-5
4.8E-5                    7.571794240478601E-5
5.0E-5                    7.777294292678242E-5
5.2000000000000004E-5     7.974451802694717E-5
5.4000000000000005E-5     8.163303315547691E-5
5.6000000000000006E-5     8.343883380722366E-5
5.800000000000001E-5      8.51622461340652E-5
6.0000000000000015E-5     8.680357753482473E-5
6.200000000000002E-5      8.836311722230879E-5
6.400000000000001E-5      8.98411367670367E-5
6.600000000000002E-5      9.123789061724835E-5
6.800000000000001E-5      9.255361659479499E-5
7.0E-5                    9.378853636653177E-5
7.200000000000002E-5      9.494285589083916E-5
7.4E-5                    9.60167658389227E-5
7.6E-5                    9.701044199055964E-5
7.800000000000001E-5      9.792404560397358E-5
8.0E-5                    9.875772375954027E-5
8.200000000000001E-5      9.951160967704411E-5
8.4E-5                    1.0018582300622947E-4
8.600000000000002E-5      1.0078047009041217E-4
8.8E-5                    1.012956442029285E-4
9.000000000000002E-5      1.0173142575623122E-4
9.2E-5                    1.0208788248345667E-4
9.4E-5                    1.023650695923183E-4
9.6E-5                    1.0256302989119218E-4
9.8E-5                    1.0268179388729396E-4
1.0E-4                    1.0272137985686192E-4
