[Info]
Version 1
Dimension 2
NumNodes 256
Num3DElements 0
Num2DElements 225
Num1DElements 0
NumNodeBC 64
NumSaveNodes 0
NumSaveElements 0
Num 2d-line      : 0
Num 2d-line,quad : 0
Num 3d-line      : 0
Num 3d-line,quad : 0
Num triangle     : 0
Num triangle,quad: 0
Num quadr        : 225
Num quadr,quad   : 0
Num tetra        : 0
Num tetra,quad   : 0
Num brick        : 0
Num brick,quad   : 0
Num pyramid      : 0
Num pyramid,quad : 0
Num wedge        : 0
Num wedge,quad   : 0

[Nodes]
#NodeNr x-coord y-coord z-coord
       1  1.0000000000000e+00  0.0000000000000e+00  0.0000000000000e+00 
       2  9.3340000000000e-01  0.0000000000000e+00  0.0000000000000e+00 
       3  1.0000000000000e+00  6.6600000000000e-02  0.0000000000000e+00 
       4  9.3340000000000e-01  6.6600000000000e-02  0.0000000000000e+00 
       5  8.6680000000000e-01  0.0000000000000e+00  0.0000000000000e+00 
       6  1.0000000000000e+00  1.3320000000000e-01  0.0000000000000e+00 
       7  8.6680000000000e-01  6.6600000000000e-02  0.0000000000000e+00 
       8  9.3340000000000e-01  1.3320000000000e-01  0.0000000000000e+00 
       9  8.6680000000000e-01  1.3320000000000e-01  0.0000000000000e+00 
      10  8.0020000000000e-01  0.0000000000000e+00  0.0000000000000e+00 
      11  1.0000000000000e+00  1.9980000000000e-01  0.0000000000000e+00 
      12  9.3340000000000e-01  1.9980000000000e-01  0.0000000000000e+00 
      13  8.0020000000000e-01  6.6600000000000e-02  0.0000000000000e+00 
      14  8.6680000000000e-01  1.9980000000000e-01  0.0000000000000e+00 
      15  8.0020000000000e-01  1.3320000000000e-01  0.0000000000000e+00 
      16  7.3360000000000e-01  0.0000000000000e+00  0.0000000000000e+00 
      17  1.0000000000000e+00  2.6640000000000e-01  0.0000000000000e+00 
      18  7.3360000000000e-01  6.6600000000000e-02  0.0000000000000e+00 
      19  9.3340000000000e-01  2.6640000000000e-01  0.0000000000000e+00 
      20  8.0020000000000e-01  1.9980000000000e-01  0.0000000000000e+00 
      21  8.6680000000000e-01  2.6640000000000e-01  0.0000000000000e+00 
      22  7.3360000000000e-01  1.3320000000000e-01  0.0000000000000e+00 
      23  7.3360000000000e-01  1.9980000000000e-01  0.0000000000000e+00 
      24  6.6700000000000e-01  0.0000000000000e+00  0.0000000000000e+00 
      25  1.0000000000000e+00  3.3300000000000e-01  0.0000000000000e+00 
      26  8.0020000000000e-01  2.6640000000000e-01  0.0000000000000e+00 
      27  6.6700000000000e-01  6.6600000000000e-02  0.0000000000000e+00 
      28  9.3340000000000e-01  3.3300000000000e-01  0.0000000000000e+00 
      29  6.6700000000000e-01  1.3320000000000e-01  0.0000000000000e+00 
      30  8.6680000000000e-01  3.3300000000000e-01  0.0000000000000e+00 
      31  7.3360000000000e-01  2.6640000000000e-01  0.0000000000000e+00 
      32  6.6700000000000e-01  1.9980000000000e-01  0.0000000000000e+00 
      33  8.0020000000000e-01  3.3300000000000e-01  0.0000000000000e+00 
      34  6.0020000000000e-01  0.0000000000000e+00  0.0000000000000e+00 
      35  1.0000000000000e+00  3.9980000000000e-01  0.0000000000000e+00 
      36  6.0020000000000e-01  6.6600000000000e-02  0.0000000000000e+00 
      37  9.3340000000000e-01  3.9980000000000e-01  0.0000000000000e+00 
      38  6.0020000000000e-01  1.3320000000000e-01  0.0000000000000e+00 
      39  8.6680000000000e-01  3.9980000000000e-01  0.0000000000000e+00 
      40  6.6700000000000e-01  2.6640000000000e-01  0.0000000000000e+00 
      41  7.3360000000000e-01  3.3300000000000e-01  0.0000000000000e+00 
      42  6.0020000000000e-01  1.9980000000000e-01  0.0000000000000e+00 
      43  8.0020000000000e-01  3.9980000000000e-01  0.0000000000000e+00 
      44  5.3340000000000e-01  0.0000000000000e+00  0.0000000000000e+00 
      45  1.0000000000000e+00  4.6660000000000e-01  0.0000000000000e+00 
      46  6.6700000000000e-01  3.3300000000000e-01  0.0000000000000e+00 
      47  5.3340000000000e-01  6.6600000000000e-02  0.0000000000000e+00 
      48  9.3340000000000e-01  4.6660000000000e-01  0.0000000000000e+00 
      49  6.0020000000000e-01  2.6640000000000e-01  0.0000000000000e+00 
      50  7.3360000000000e-01  3.9980000000000e-01  0.0000000000000e+00 
      51  5.3340000000000e-01  1.3320000000000e-01  0.0000000000000e+00 
      52  8.6680000000000e-01  4.6660000000000e-01  0.0000000000000e+00 
      53  5.3340000000000e-01  1.9980000000000e-01  0.0000000000000e+00 
      54  8.0020000000000e-01  4.6660000000000e-01  0.0000000000000e+00 
      55  6.0020000000000e-01  3.3300000000000e-01  0.0000000000000e+00 
      56  6.6700000000000e-01  3.9980000000000e-01  0.0000000000000e+00 
      57  4.6660000000000e-01  0.0000000000000e+00  0.0000000000000e+00 
      58  1.0000000000000e+00  5.3340000000000e-01  0.0000000000000e+00 
      59  5.3340000000000e-01  2.6640000000000e-01  0.0000000000000e+00 
      60  7.3360000000000e-01  4.6660000000000e-01  0.0000000000000e+00 
      61  4.6660000000000e-01  6.6600000000000e-02  0.0000000000000e+00 
      62  9.3340000000000e-01  5.3340000000000e-01  0.0000000000000e+00 
      63  4.6660000000000e-01  1.3320000000000e-01  0.0000000000000e+00 
      64  8.6680000000000e-01  5.3340000000000e-01  0.0000000000000e+00 
      65  6.0020000000000e-01  3.9980000000000e-01  0.0000000000000e+00 
      66  4.6660000000000e-01  1.9980000000000e-01  0.0000000000000e+00 
      67  8.0020000000000e-01  5.3340000000000e-01  0.0000000000000e+00 
      68  6.6700000000000e-01  4.6660000000000e-01  0.0000000000000e+00 
      69  5.3340000000000e-01  3.3300000000000e-01  0.0000000000000e+00 
      70  7.3360000000000e-01  5.3340000000000e-01  0.0000000000000e+00 
      71  4.6660000000000e-01  2.6640000000000e-01  0.0000000000000e+00 
      72  3.9980000000000e-01  0.0000000000000e+00  0.0000000000000e+00 
      73  1.0000000000000e+00  6.0020000000000e-01  0.0000000000000e+00 
      74  3.9980000000000e-01  6.6600000000000e-02  0.0000000000000e+00 
      75  9.3340000000000e-01  6.0020000000000e-01  0.0000000000000e+00 
      76  6.0020000000000e-01  4.6660000000000e-01  0.0000000000000e+00 
      77  5.3340000000000e-01  3.9980000000000e-01  0.0000000000000e+00 
      78  3.9980000000000e-01  1.3320000000000e-01  0.0000000000000e+00 
      79  8.6680000000000e-01  6.0020000000000e-01  0.0000000000000e+00 
      80  6.6700000000000e-01  5.3340000000000e-01  0.0000000000000e+00 
      81  4.6660000000000e-01  3.3300000000000e-01  0.0000000000000e+00 
      82  3.9980000000000e-01  1.9980000000000e-01  0.0000000000000e+00 
      83  8.0020000000000e-01  6.0020000000000e-01  0.0000000000000e+00 
      84  7.3360000000000e-01  6.0020000000000e-01  0.0000000000000e+00 
      85  3.9980000000000e-01  2.6640000000000e-01  0.0000000000000e+00 
      86  5.3340000000000e-01  4.6660000000000e-01  0.0000000000000e+00 
      87  6.0020000000000e-01  5.3340000000000e-01  0.0000000000000e+00 
      88  4.6660000000000e-01  3.9980000000000e-01  0.0000000000000e+00 
      89  3.3300000000000e-01  0.0000000000000e+00  0.0000000000000e+00 
      90  1.0000000000000e+00  6.6700000000000e-01  0.0000000000000e+00 
      91  3.3300000000000e-01  6.6600000000000e-02  0.0000000000000e+00 
      92  9.3340000000000e-01  6.6700000000000e-01  0.0000000000000e+00 
      93  3.3300000000000e-01  1.3320000000000e-01  0.0000000000000e+00 
      94  8.6680000000000e-01  6.6700000000000e-01  0.0000000000000e+00 
      95  6.6700000000000e-01  6.0020000000000e-01  0.0000000000000e+00 
      96  3.9980000000000e-01  3.3300000000000e-01  0.0000000000000e+00 
      97  3.3300000000000e-01  1.9980000000000e-01  0.0000000000000e+00 
      98  8.0020000000000e-01  6.6700000000000e-01  0.0000000000000e+00 
      99  5.3340000000000e-01  5.3340000000000e-01  0.0000000000000e+00 
     100  4.6660000000000e-01  4.6660000000000e-01  0.0000000000000e+00 
     101  3.3300000000000e-01  2.6640000000000e-01  0.0000000000000e+00 
     102  7.3360000000000e-01  6.6700000000000e-01  0.0000000000000e+00 
     103  3.9980000000000e-01  3.9980000000000e-01  0.0000000000000e+00 
     104  6.0020000000000e-01  6.0020000000000e-01  0.0000000000000e+00 
     105  2.6640000000000e-01  0.0000000000000e+00  0.0000000000000e+00 
     106  1.0000000000000e+00  7.3360000000000e-01  0.0000000000000e+00 
     107  2.6640000000000e-01  6.6600000000000e-02  0.0000000000000e+00 
     108  9.3340000000000e-01  7.3360000000000e-01  0.0000000000000e+00 
     109  6.6700000000000e-01  6.6700000000000e-01  0.0000000000000e+00 
     110  3.3300000000000e-01  3.3300000000000e-01  0.0000000000000e+00 
     111  2.6640000000000e-01  1.3320000000000e-01  0.0000000000000e+00 
     112  8.6680000000000e-01  7.3360000000000e-01  0.0000000000000e+00 
     113  4.6660000000000e-01  5.3340000000000e-01  0.0000000000000e+00 
     114  5.3340000000000e-01  6.0020000000000e-01  0.0000000000000e+00 
     115  3.9980000000000e-01  4.6660000000000e-01  0.0000000000000e+00 
     116  2.6640000000000e-01  1.9980000000000e-01  0.0000000000000e+00 
     117  8.0020000000000e-01  7.3360000000000e-01  0.0000000000000e+00 
     118  6.0020000000000e-01  6.6700000000000e-01  0.0000000000000e+00 
     119  3.3300000000000e-01  3.9980000000000e-01  0.0000000000000e+00 
     120  2.6640000000000e-01  2.6640000000000e-01  0.0000000000000e+00 
     121  7.3360000000000e-01  7.3360000000000e-01  0.0000000000000e+00 
     122  1.9980000000000e-01  0.0000000000000e+00  0.0000000000000e+00 
     123  1.0000000000000e+00  8.0020000000000e-01  0.0000000000000e+00 
     124  3.9980000000000e-01  5.3340000000000e-01  0.0000000000000e+00 
     125  1.9980000000000e-01  6.6600000000000e-02  0.0000000000000e+00 
     126  4.6660000000000e-01  6.0020000000000e-01  0.0000000000000e+00 
     127  9.3340000000000e-01  8.0020000000000e-01  0.0000000000000e+00 
     128  2.6640000000000e-01  3.3300000000000e-01  0.0000000000000e+00 
     129  6.6700000000000e-01  7.3360000000000e-01  0.0000000000000e+00 
     130  1.9980000000000e-01  1.3320000000000e-01  0.0000000000000e+00 
     131  8.6680000000000e-01  8.0020000000000e-01  0.0000000000000e+00 
     132  3.3300000000000e-01  4.6660000000000e-01  0.0000000000000e+00 
     133  5.3340000000000e-01  6.6700000000000e-01  0.0000000000000e+00 
     134  1.9980000000000e-01  1.9980000000000e-01  0.0000000000000e+00 
     135  8.0020000000000e-01  8.0020000000000e-01  0.0000000000000e+00 
     136  6.0020000000000e-01  7.3360000000000e-01  0.0000000000000e+00 
     137  2.6640000000000e-01  3.9980000000000e-01  0.0000000000000e+00 
     138  1.9980000000000e-01  2.6640000000000e-01  0.0000000000000e+00 
     139  7.3360000000000e-01  8.0020000000000e-01  0.0000000000000e+00 
     140  3.9980000000000e-01  6.0020000000000e-01  0.0000000000000e+00 
     141  3.3300000000000e-01  5.3340000000000e-01  0.0000000000000e+00 
     142  4.6660000000000e-01  6.6700000000000e-01  0.0000000000000e+00 
     143  1.9980000000000e-01  3.3300000000000e-01  0.0000000000000e+00 
     144  6.6700000000000e-01  8.0020000000000e-01  0.0000000000000e+00 
     145  1.3320000000000e-01  0.0000000000000e+00  0.0000000000000e+00 
     146  1.0000000000000e+00  8.6680000000000e-01  0.0000000000000e+00 
     147  1.3320000000000e-01  6.6600000000000e-02  0.0000000000000e+00 
     148  9.3340000000000e-01  8.6680000000000e-01  0.0000000000000e+00 
     149  2.6640000000000e-01  4.6660000000000e-01  0.0000000000000e+00 
     150  5.3340000000000e-01  7.3360000000000e-01  0.0000000000000e+00 
     151  1.3320000000000e-01  1.3320000000000e-01  0.0000000000000e+00 
     152  8.6680000000000e-01  8.6680000000000e-01  0.0000000000000e+00 
     153  8.0020000000000e-01  8.6680000000000e-01  0.0000000000000e+00 
     154  1.3320000000000e-01  1.9980000000000e-01  0.0000000000000e+00 
     155  6.0020000000000e-01  8.0020000000000e-01  0.0000000000000e+00 
     156  1.9980000000000e-01  3.9980000000000e-01  0.0000000000000e+00 
     157  3.3300000000000e-01  6.0020000000000e-01  0.0000000000000e+00 
     158  3.9980000000000e-01  6.6700000000000e-01  0.0000000000000e+00 
     159  1.3320000000000e-01  2.6640000000000e-01  0.0000000000000e+00 
     160  7.3360000000000e-01  8.6680000000000e-01  0.0000000000000e+00 
     161  2.6640000000000e-01  5.3340000000000e-01  0.0000000000000e+00 
     162  4.6660000000000e-01  7.3360000000000e-01  0.0000000000000e+00 
     163  1.9980000000000e-01  4.6660000000000e-01  0.0000000000000e+00 
     164  5.3340000000000e-01  8.0020000000000e-01  0.0000000000000e+00 
     165  1.3320000000000e-01  3.3300000000000e-01  0.0000000000000e+00 
     166  6.6700000000000e-01  8.6680000000000e-01  0.0000000000000e+00 
     167  6.6600000000000e-02  0.0000000000000e+00  0.0000000000000e+00 
     168  1.0000000000000e+00  9.3340000000000e-01  0.0000000000000e+00 
     169  6.6600000000000e-02  6.6600000000000e-02  0.0000000000000e+00 
     170  9.3340000000000e-01  9.3340000000000e-01  0.0000000000000e+00 
     171  6.6600000000000e-02  1.3320000000000e-01  0.0000000000000e+00 
     172  8.6680000000000e-01  9.3340000000000e-01  0.0000000000000e+00 
     173  3.3300000000000e-01  6.6700000000000e-01  0.0000000000000e+00 
     174  3.9980000000000e-01  7.3360000000000e-01  0.0000000000000e+00 
     175  2.6640000000000e-01  6.0020000000000e-01  0.0000000000000e+00 
     176  6.6600000000000e-02  1.9980000000000e-01  0.0000000000000e+00 
     177  8.0020000000000e-01  9.3340000000000e-01  0.0000000000000e+00 
     178  6.0020000000000e-01  8.6680000000000e-01  0.0000000000000e+00 
     179  1.3320000000000e-01  3.9980000000000e-01  0.0000000000000e+00 
     180  1.9980000000000e-01  5.3340000000000e-01  0.0000000000000e+00 
     181  4.6660000000000e-01  8.0020000000000e-01  0.0000000000000e+00 
     182  6.6600000000000e-02  2.6640000000000e-01  0.0000000000000e+00 
     183  7.3360000000000e-01  9.3340000000000e-01  0.0000000000000e+00 
     184  1.3320000000000e-01  4.6660000000000e-01  0.0000000000000e+00 
     185  5.3340000000000e-01  8.6680000000000e-01  0.0000000000000e+00 
     186  6.6600000000000e-02  3.3300000000000e-01  0.0000000000000e+00 
     187  6.6700000000000e-01  9.3340000000000e-01  0.0000000000000e+00 
     188  2.6640000000000e-01  6.6700000000000e-01  0.0000000000000e+00 
     189  3.3300000000000e-01  7.3360000000000e-01  0.0000000000000e+00 
     190  0.0000000000000e+00  0.0000000000000e+00  0.0000000000000e+00 
     191  1.0000000000000e+00  1.0000000000000e+00  0.0000000000000e+00 
     192  1.9980000000000e-01  6.0020000000000e-01  0.0000000000000e+00 
     193  3.9980000000000e-01  8.0020000000000e-01  0.0000000000000e+00 
     194  0.0000000000000e+00  6.6600000000000e-02  0.0000000000000e+00 
     195  9.3340000000000e-01  1.0000000000000e+00  0.0000000000000e+00 
     196  0.0000000000000e+00  1.3320000000000e-01  0.0000000000000e+00 
     197  8.6680000000000e-01  1.0000000000000e+00  0.0000000000000e+00 
     198  6.6600000000000e-02  3.9980000000000e-01  0.0000000000000e+00 
     199  6.0020000000000e-01  9.3340000000000e-01  0.0000000000000e+00 
     200  1.3320000000000e-01  5.3340000000000e-01  0.0000000000000e+00 
     201  4.6660000000000e-01  8.6680000000000e-01  0.0000000000000e+00 
     202  0.0000000000000e+00  1.9980000000000e-01  0.0000000000000e+00 
     203  8.0020000000000e-01  1.0000000000000e+00  0.0000000000000e+00 
     204  0.0000000000000e+00  2.6640000000000e-01  0.0000000000000e+00 
     205  7.3360000000000e-01  1.0000000000000e+00  0.0000000000000e+00 
     206  2.6640000000000e-01  7.3360000000000e-01  0.0000000000000e+00 
     207  1.9980000000000e-01  6.6700000000000e-01  0.0000000000000e+00 
     208  3.3300000000000e-01  8.0020000000000e-01  0.0000000000000e+00 
     209  6.6600000000000e-02  4.6660000000000e-01  0.0000000000000e+00 
     210  5.3340000000000e-01  9.3340000000000e-01  0.0000000000000e+00 
     211  0.0000000000000e+00  3.3300000000000e-01  0.0000000000000e+00 
     212  6.6700000000000e-01  1.0000000000000e+00  0.0000000000000e+00 
     213  1.3320000000000e-01  6.0020000000000e-01  0.0000000000000e+00 
     214  3.9980000000000e-01  8.6680000000000e-01  0.0000000000000e+00 
     215  6.6600000000000e-02  5.3340000000000e-01  0.0000000000000e+00 
     216  4.6660000000000e-01  9.3340000000000e-01  0.0000000000000e+00 
     217  0.0000000000000e+00  3.9980000000000e-01  0.0000000000000e+00 
     218  6.0020000000000e-01  1.0000000000000e+00  0.0000000000000e+00 
     219  2.6640000000000e-01  8.0020000000000e-01  0.0000000000000e+00 
     220  1.9980000000000e-01  7.3360000000000e-01  0.0000000000000e+00 
     221  1.3320000000000e-01  6.6700000000000e-01  0.0000000000000e+00 
     222  3.3300000000000e-01  8.6680000000000e-01  0.0000000000000e+00 
     223  0.0000000000000e+00  4.6660000000000e-01  0.0000000000000e+00 
     224  5.3340000000000e-01  1.0000000000000e+00  0.0000000000000e+00 
     225  6.6600000000000e-02  6.0020000000000e-01  0.0000000000000e+00 
     226  3.9980000000000e-01  9.3340000000000e-01  0.0000000000000e+00 
     227  1.9980000000000e-01  8.0020000000000e-01  0.0000000000000e+00 
     228  0.0000000000000e+00  5.3340000000000e-01  0.0000000000000e+00 
     229  4.6660000000000e-01  1.0000000000000e+00  0.0000000000000e+00 
     230  2.6640000000000e-01  8.6680000000000e-01  0.0000000000000e+00 
     231  1.3320000000000e-01  7.3360000000000e-01  0.0000000000000e+00 
     232  6.6600000000000e-02  6.6700000000000e-01  0.0000000000000e+00 
     233  3.3300000000000e-01  9.3340000000000e-01  0.0000000000000e+00 
     234  0.0000000000000e+00  6.0020000000000e-01  0.0000000000000e+00 
     235  3.9980000000000e-01  1.0000000000000e+00  0.0000000000000e+00 
     236  1.3320000000000e-01  8.0020000000000e-01  0.0000000000000e+00 
     237  1.9980000000000e-01  8.6680000000000e-01  0.0000000000000e+00 
     238  2.6640000000000e-01  9.3340000000000e-01  0.0000000000000e+00 
     239  6.6600000000000e-02  7.3360000000000e-01  0.0000000000000e+00 
     240  0.0000000000000e+00  6.6700000000000e-01  0.0000000000000e+00 
     241  3.3300000000000e-01  1.0000000000000e+00  0.0000000000000e+00 
     242  1.3320000000000e-01  8.6680000000000e-01  0.0000000000000e+00 
     243  6.6600000000000e-02  8.0020000000000e-01  0.0000000000000e+00 
     244  1.9980000000000e-01  9.3340000000000e-01  0.0000000000000e+00 
     245  2.6640000000000e-01  1.0000000000000e+00  0.0000000000000e+00 
     246  0.0000000000000e+00  7.3360000000000e-01  0.0000000000000e+00 
     247  6.6600000000000e-02  8.6680000000000e-01  0.0000000000000e+00 
     248  1.3320000000000e-01  9.3340000000000e-01  0.0000000000000e+00 
     249  1.9980000000000e-01  1.0000000000000e+00  0.0000000000000e+00 
     250  0.0000000000000e+00  8.0020000000000e-01  0.0000000000000e+00 
     251  6.6600000000000e-02  9.3340000000000e-01  0.0000000000000e+00 
     252  1.3320000000000e-01  1.0000000000000e+00  0.0000000000000e+00 
     253  0.0000000000000e+00  8.6680000000000e-01  0.0000000000000e+00 
     254  6.6600000000000e-02  1.0000000000000e+00  0.0000000000000e+00 
     255  0.0000000000000e+00  9.3340000000000e-01  0.0000000000000e+00 
     256  0.0000000000000e+00  1.0000000000000e+00  0.0000000000000e+00 


[1D Elements]
#ElemNr  ElemType  NrOfNodes  Level
#Node1 Node2 ... NodeNrOfNodes

[2D Elements]
#ElemNr  ElemType  NrOfNodes  Level
#Node1 Node2 ... NodeNrOfNodes
1 6 4 outer
167 169 194 190
2 6 4 outer
145 147 169 167
3 6 4 outer
122 125 147 145
4 6 4 outer
105 107 125 122
5 6 4 outer
89 91 107 105
6 6 4 outer
169 171 196 194
7 6 4 outer
147 151 171 169
8 6 4 outer
125 130 151 147
9 6 4 outer
107 111 130 125
10 6 4 outer
91 93 111 107
11 6 4 outer
171 176 202 196
12 6 4 outer
151 154 176 171
13 6 4 outer
130 134 154 151
14 6 4 outer
111 116 134 130
15 6 4 outer
93 97 116 111
16 6 4 outer
176 182 204 202
17 6 4 outer
154 159 182 176
18 6 4 outer
134 138 159 154
19 6 4 outer
116 120 138 134
20 6 4 outer
97 101 120 116
21 6 4 outer
182 186 211 204
22 6 4 outer
159 165 186 182
23 6 4 outer
138 143 165 159
24 6 4 outer
120 128 143 138
25 6 4 outer
101 110 128 120
26 6 4 outer
72 74 91 89
27 6 4 outer
57 61 74 72
28 6 4 outer
44 47 61 57
29 6 4 outer
34 36 47 44
30 6 4 outer
24 27 36 34
31 6 4 outer
74 78 93 91
32 6 4 outer
61 63 78 74
33 6 4 outer
47 51 63 61
34 6 4 outer
36 38 51 47
35 6 4 outer
27 29 38 36
36 6 4 outer
78 82 97 93
37 6 4 outer
63 66 82 78
38 6 4 outer
51 53 66 63
39 6 4 outer
38 42 53 51
40 6 4 outer
29 32 42 38
41 6 4 outer
82 85 101 97
42 6 4 outer
66 71 85 82
43 6 4 outer
53 59 71 66
44 6 4 outer
42 49 59 53
45 6 4 outer
32 40 49 42
46 6 4 outer
85 96 110 101
47 6 4 outer
71 81 96 85
48 6 4 outer
59 69 81 71
49 6 4 outer
49 55 69 59
50 6 4 outer
40 46 55 49
51 6 4 outer
3 4 2 1
52 6 4 outer
6 8 4 3
53 6 4 outer
11 12 8 6
54 6 4 outer
17 19 12 11
55 6 4 outer
25 28 19 17
56 6 4 outer
4 7 5 2
57 6 4 outer
8 9 7 4
58 6 4 outer
12 14 9 8
59 6 4 outer
19 21 14 12
60 6 4 outer
28 30 21 19
61 6 4 outer
7 13 10 5
62 6 4 outer
9 15 13 7
63 6 4 outer
14 20 15 9
64 6 4 outer
21 26 20 14
65 6 4 outer
30 33 26 21
66 6 4 outer
13 18 16 10
67 6 4 outer
15 22 18 13
68 6 4 outer
20 23 22 15
69 6 4 outer
26 31 23 20
70 6 4 outer
33 41 31 26
71 6 4 outer
18 27 24 16
72 6 4 outer
22 29 27 18
73 6 4 outer
23 32 29 22
74 6 4 outer
31 40 32 23
75 6 4 outer
41 46 40 31
76 6 4 outer
119 137 128 110
77 6 4 outer
132 149 137 119
78 6 4 outer
141 161 149 132
79 6 4 outer
157 175 161 141
80 6 4 outer
173 188 175 157
81 6 4 outer
137 156 143 128
82 6 4 outer
149 163 156 137
83 6 4 outer
161 180 163 149
84 6 4 outer
175 192 180 161
85 6 4 outer
188 207 192 175
86 6 4 outer
156 179 165 143
87 6 4 outer
163 184 179 156
88 6 4 outer
180 200 184 163
89 6 4 outer
192 213 200 180
90 6 4 outer
207 221 213 192
91 6 4 outer
179 198 186 165
92 6 4 outer
184 209 198 179
93 6 4 outer
200 215 209 184
94 6 4 outer
213 225 215 200
95 6 4 outer
221 232 225 213
96 6 4 outer
198 217 211 186
97 6 4 outer
209 223 217 198
98 6 4 outer
215 228 223 209
99 6 4 outer
225 234 228 215
100 6 4 outer
232 240 234 225
101 6 4 inner
96 103 119 110
102 6 4 inner
81 88 103 96
103 6 4 inner
69 77 88 81
104 6 4 inner
55 65 77 69
105 6 4 inner
46 56 65 55
106 6 4 inner
103 115 132 119
107 6 4 inner
88 100 115 103
108 6 4 inner
77 86 100 88
109 6 4 inner
65 76 86 77
110 6 4 inner
56 68 76 65
111 6 4 inner
115 124 141 132
112 6 4 inner
100 113 124 115
113 6 4 inner
86 99 113 100
114 6 4 inner
76 87 99 86
115 6 4 inner
68 80 87 76
116 6 4 inner
124 140 157 141
117 6 4 inner
113 126 140 124
118 6 4 inner
99 114 126 113
119 6 4 inner
87 104 114 99
120 6 4 inner
80 95 104 87
121 6 4 inner
140 158 173 157
122 6 4 inner
126 142 158 140
123 6 4 inner
114 133 142 126
124 6 4 inner
104 118 133 114
125 6 4 inner
95 109 118 104
126 6 4 outer
35 37 28 25
127 6 4 outer
45 48 37 35
128 6 4 outer
58 62 48 45
129 6 4 outer
73 75 62 58
130 6 4 outer
90 92 75 73
131 6 4 outer
37 39 30 28
132 6 4 outer
48 52 39 37
133 6 4 outer
62 64 52 48
134 6 4 outer
75 79 64 62
135 6 4 outer
92 94 79 75
136 6 4 outer
39 43 33 30
137 6 4 outer
52 54 43 39
138 6 4 outer
64 67 54 52
139 6 4 outer
79 83 67 64
140 6 4 outer
94 98 83 79
141 6 4 outer
43 50 41 33
142 6 4 outer
54 60 50 43
143 6 4 outer
67 70 60 54
144 6 4 outer
83 84 70 67
145 6 4 outer
98 102 84 83
146 6 4 outer
50 56 46 41
147 6 4 outer
60 68 56 50
148 6 4 outer
70 80 68 60
149 6 4 outer
84 95 80 70
150 6 4 outer
102 109 95 84
151 6 4 outer
232 239 246 240
152 6 4 outer
221 231 239 232
153 6 4 outer
207 220 231 221
154 6 4 outer
188 206 220 207
155 6 4 outer
173 189 206 188
156 6 4 outer
239 243 250 246
157 6 4 outer
231 236 243 239
158 6 4 outer
220 227 236 231
159 6 4 outer
206 219 227 220
160 6 4 outer
189 208 219 206
161 6 4 outer
243 247 253 250
162 6 4 outer
236 242 247 243
163 6 4 outer
227 237 242 236
164 6 4 outer
219 230 237 227
165 6 4 outer
208 222 230 219
166 6 4 outer
247 251 255 253
167 6 4 outer
242 248 251 247
168 6 4 outer
237 244 248 242
169 6 4 outer
230 238 244 237
170 6 4 outer
222 233 238 230
171 6 4 outer
251 254 256 255
172 6 4 outer
248 252 254 251
173 6 4 outer
244 249 252 248
174 6 4 outer
238 245 249 244
175 6 4 outer
233 241 245 238
176 6 4 outer
158 174 189 173
177 6 4 outer
142 162 174 158
178 6 4 outer
133 150 162 142
179 6 4 outer
118 136 150 133
180 6 4 outer
109 129 136 118
181 6 4 outer
174 193 208 189
182 6 4 outer
162 181 193 174
183 6 4 outer
150 164 181 162
184 6 4 outer
136 155 164 150
185 6 4 outer
129 144 155 136
186 6 4 outer
193 214 222 208
187 6 4 outer
181 201 214 193
188 6 4 outer
164 185 201 181
189 6 4 outer
155 178 185 164
190 6 4 outer
144 166 178 155
191 6 4 outer
214 226 233 222
192 6 4 outer
201 216 226 214
193 6 4 outer
185 210 216 201
194 6 4 outer
178 199 210 185
195 6 4 outer
166 187 199 178
196 6 4 outer
226 235 241 233
197 6 4 outer
216 229 235 226
198 6 4 outer
210 224 229 216
199 6 4 outer
199 218 224 210
200 6 4 outer
187 212 218 199
201 6 4 outer
102 121 129 109
202 6 4 outer
98 117 121 102
203 6 4 outer
94 112 117 98
204 6 4 outer
92 108 112 94
205 6 4 outer
90 106 108 92
206 6 4 outer
121 139 144 129
207 6 4 outer
117 135 139 121
208 6 4 outer
112 131 135 117
209 6 4 outer
108 127 131 112
210 6 4 outer
106 123 127 108
211 6 4 outer
139 160 166 144
212 6 4 outer
135 153 160 139
213 6 4 outer
131 152 153 135
214 6 4 outer
127 148 152 131
215 6 4 outer
123 146 148 127
216 6 4 outer
160 183 187 166
217 6 4 outer
153 177 183 160
218 6 4 outer
152 172 177 153
219 6 4 outer
148 170 172 152
220 6 4 outer
146 168 170 148
221 6 4 outer
183 205 212 187
222 6 4 outer
177 203 205 183
223 6 4 outer
172 197 203 177
224 6 4 outer
170 195 197 172
225 6 4 outer
168 191 195 170


[3D Elements]
#ElemNr  ElemType  NrOfNodes  Level
#Node1 Node2 ... NodeNrOfNodes

[Node BC]
#NodeNr Level
1 right
1 down
10 down
105 down
106 right
11 right
122 down
123 right
145 down
146 right
16 down
167 down
168 right
17 right
190 left
190 down
191 right
191 up
194 left
195 up
196 left
197 up
2 down
202 left
203 up
204 left
205 up
211 left
212 up
217 left
218 up
223 left
224 up
228 left
229 up
234 left
235 up
24 down
240 left
241 up
245 up
246 left
249 up
25 right
250 left
252 up
253 left
254 up
255 left
256 left
256 up
3 right
34 down
35 right
44 down
45 right
5 down
57 down
58 right
6 right
72 down
73 right
89 down
90 right

[Save Nodes]
#NodeNr Level


[Save Elements]
#ElemNr Level

