$MeshFormat
2.2 0 8
$EndMeshFormat
$PhysicalNames
1
2 1 "channel"
$EndPhysicalNames
$Nodes
557
1 0 0 0
2 0.2 0 0
3 0.2 4 0
4 0 4 0
5 0.09999999999983904 0 0
6 0.04999999999993412 0 0
7 0.1499999999999031 0 0
8 0.2 0.0005579185045263405 0
9 0.2 0.001171627640300123 0
10 0.2 0.001846708647561871 0
11 0.2 0.002589296425065649 0
12 0.2 0.003406142822412798 0
13 0.2 0.004304674792740361 0
14 0.2 0.005293060532540317 0
15 0.2 0.006380284766424765 0
16 0.2 0.007576229121925806 0
17 0.2 0.00889176711240092 0
18 0.2 0.01033885986619558 0
19 0.2 0.01193066270062048 0
20 0.2 0.01368164518165461 0
21 0.2 0.01560772518936719 0
22 0.2 0.01772641404368407 0
23 0.2 0.02005697114231365 0
24 0.2 0.02262058630627764 0
25 0.2 0.02544056283501452 0
26 0.2 0.02854253547922406 0
27 0.2 0.03195470693565786 0
28 0.2 0.03570809610383406 0
29 0.2 0.03983682444255567 0
30 0.2 0.04437842563880148 0
31 0.2 0.04937418837146414 0
32 0.2 0.05486952625697376 0
33 0.2 0.06091439620910337 0
34 0.2 0.06756375404750969 0
35 0.2 0.07487804670811626 0
36 0.2 0.08292377097636339 0
37 0.2 0.0917740674341844 0
38 0.2 0.1015093899202573 0
39 0.2 0.1122182489639022 0
40 0.2 0.1239979936192915 0
41 0.2 0.1369557143363683 0
42 0.2 0.151209204648406 0
43 0.2 0.1668880438458147 0
44 0.2 0.1841347691867344 0
45 0.2 0.2031061677197547 0
46 0.2 0.2239747020615143 0
47 0.2 0.2469300901568019 0
48 0.2 0.2721810209891992 0
49 0.2 0.2999570414765604 0
50 0.2 0.3305106667980614 0
51 0.2 0.364119654139379 0
52 0.2 0.4010895426314916 0
53 0.2 0.4417564196509153 0
54 0.2 0.4864899852102823 0
55 0.2 0.5356969064592024 0
56 0.2 0.5898245218602473 0
57 0.2 0.6493648980511447 0
58 0.2 0.7148593116318999 0
59 0.2 0.7869031675106677 0
60 0.2 0.8661514123954284 0
61 0.2 0.953324482548363 0
62 0.2 1.049214857594024 0
63 0.2 1.15469427496199 0
64 0.2 1.270721635193934 0
65 0.2 1.398351733285022 0
66 0.2 1.538744840820581 0
67 0.2 1.693177257516495 0
68 0.2 1.863052917705758 0
69 0.2 2.049916149496705 0
70 0.2 2.25546570464774 0
71 0.2 2.481570218492432 0
72 0.2 2.730285186621948 0
73 0.2 3.003871651178532 0
74 0.2 3.304816764746564 0
75 0.2 3.635856398220861 0
76 0.2 0.0002789592522631703 0
77 0.2 0.000864773072413232 0
78 0.2 0.001509168143930997 0
79 0.2 0.00221800253631376 0
80 0.2 0.002997719623739224 0
81 0.2 0.00385540880757658 0
82 0.2 0.004798867662640338 0
83 0.2 0.005836672649482541 0
84 0.2 0.006978256944175285 0
85 0.2 0.008233998117163363 0
86 0.2 0.009615313489298252 0
87 0.2 0.01113476128340803 0
88 0.2 0.01280615394113755 0
89 0.2 0.0146446851855109 0
90 0.2 0.01666706961652563 0
91 0.2 0.01889169259299886 0
92 0.2 0.02133877872429564 0
93 0.2 0.02403057457064608 0
94 0.2 0.02699154915711929 0
95 0.2 0.03024862120744096 0
96 0.2 0.03383140151974596 0
97 0.2 0.03777246027319486 0
98 0.2 0.04210762504067857 0
99 0.2 0.04687630700513281 0
100 0.2 0.05212185731421895 0
101 0.2 0.05789196123303856 0
102 0.2 0.06423907512830652 0
103 0.2 0.07122090037781298 0
104 0.2 0.07890090884223983 0
105 0.2 0.08734891920527389 0
106 0.2 0.09664172867722085 0
107 0.2 0.1068638194420797 0
108 0.2 0.1181081212915968 0
109 0.2 0.1304768539778301 0
110 0.2 0.1440824594923872 0
111 0.2 0.1590486242471104 0
112 0.2 0.1755114065162746 0
113 0.2 0.1936204684532446 0
114 0.2 0.2135404348906345 0
115 0.2 0.2354523961091581 0
116 0.2 0.2595555555729996 0
117 0.2 0.2860690312328797 0
118 0.2 0.3152338541373109 0
119 0.2 0.3473151604687202 0
120 0.2 0.3826045983854353 0
121 0.2 0.4214229811412035 0
122 0.2 0.4641232024305988 0
123 0.2 0.5110934458347509 0
124 0.2 0.5627607141597248 0
125 0.2 0.619594709955696 0
126 0.2 0.6821121048415223 0
127 0.2 0.7508812395712837 0
128 0.2 0.826527289953048 0
129 0.2 0.9097379474718956 0
130 0.2 1.001269670071194 0
131 0.2 1.101954566278007 0
132 0.2 1.212707955077962 0
133 0.2 1.334536684239478 0
134 0.2 1.468548287052801 0
135 0.2 1.615961049168538 0
136 0.2 1.778115087611126 0
137 0.2 1.956484533601102 0
138 0.2 2.152690927072223 0
139 0.2 2.368517961570086 0
140 0.2 2.60592770255719 0
141 0.2 2.86707841890024 0
142 0.2 3.154344207962548 0
143 0.2 3.470336581483712 0
144 0.2 3.817928199110431 0
145 0.1000000000001735 4 0
146 0.1500000000000634 4 0
147 0.05000000000004365 4 0
148 0 3.635856374647791 0
149 0 3.304816720328765 0
150 0 3.003871589593178 0
151 0 2.730285111357484 0
152 0 2.481570132544942 0
153 0 2.255465610581624 0
154 0 2.049916049498388 0
155 0 1.863052813629331 0
156 0 1.693177150929014 0
157 0 1.538744733038738 0
158 0 1.398351625406865 0
159 0 1.27072152812773 0
160 0 1.154694169451665 0
161 0 1.049214754241538 0
162 0 0.9533243818333657 0
163 0 0.8661513146925293 0
164 0 0.786903073104567 0
165 0 0.7148592207306441 0
166 0 0.6493648107977057 0
167 0 0.5898244383426361 0
168 0 0.5356968267192794 0
169 0 0.4864899092514423 0
170 0 0.4417563474447346 0
171 0 0.4010894741234283 0
172 0 0.3641195892537921 0
173 0 0.3305106054425022 0
174 0 0.2999569835454494 0
175 0 0.2721809663669807 0
176 0 0.2469300387206257 0
177 0 0.2239746536835114 0
178 0 0.2031061222689865 0
179 0 0.1841347265307944 0
180 0 0.1668880038521783 0
181 0 0.1512091671855464 0
182 0 0.1369556792746707 0
183 0 0.1239979604998545 0
184 0 0.1122182183268787 0
185 0 0.1015093613136853 0
186 0 0.09177404074208972 0
187 0 0.08292374604046371 0
188 0 0.07487802307207581 0
189 0 0.06756373244686698 0
190 0 0.06091437610352646 0
191 0 0.05486950755314979 0
192 0 0.04937417015255896 0
193 0 0.04437840870730581 0
194 0 0.03983680940702472 0
195 0 0.03570808150118632 0
196 0 0.03195469394393324 0
197 0 0.02854252290705528 0
198 0 0.02544055170666226 0
199 0 0.02262057549963803 0
200 0 0.02005696121236555 0
201 0 0.01772640519003321 0
202 0 0.01560771660088855 0
203 0 0.01368163759309704 0
204 0 0.01193065534414162 0
205 0 0.01033885306095916 0
206 0 0.008891760840977092 0
207 0 0.007576223480074695 0
208 0 0.006380279388647381 0
209 0 0.005293055563378335 0
210 0 0.004304670202344596 0
211 0 0.003406138582984219 0
212 0 0.002589292510728924 0
213 0 0.00184670503424611 0
214 0 0.001171624305623897 0
215 0 0.0005579154276902365 0
216 0 3.817928187324163 0
217 0 3.470336547487934 0
218 0 3.154344154960999 0
219 0 2.867078350475264 0
220 0 2.605927621951083 0
221 0 2.368517871563206 0
222 0 2.152690830039936 0
223 0 1.956484431563998 0
224 0 1.778114982279172 0
225 0 1.615960941983877 0
226 0 1.468548179222802 0
227 0 1.334536576767298 0
228 0 1.212707848789698 0
229 0 1.101954461846602 0
230 0 1.001269568037452 0
231 0 0.9097378482629472 0
232 0 0.8265271938985483 0
233 0 0.7508811469176053 0
234 0 0.6821120157641749 0
235 0 0.6195946245701709 0
236 0 0.5627606325309578 0
237 0 0.5110933679853611 0
238 0 0.4641231283480884 0
239 0 0.4214229107840817 0
240 0 0.3826045316886102 0
241 0 0.3473150973481474 0
242 0 0.3152337944939756 0
243 0 0.2860689749562151 0
244 0 0.2595555025438032 0
245 0 0.2354523462020683 0
246 0 0.213540387976249 0
247 0 0.1936204243998905 0
248 0 0.1755113651914866 0
249 0 0.1590485855188621 0
250 0 0.1440824232301083 0
251 0 0.1304768198872628 0
252 0 0.1181080894133668 0
253 0 0.1068637898202818 0
254 0 0.09664170102788727 0
255 0 0.08734889339127694 0
256 0 0.07890088455626953 0
257 0 0.07122087775947161 0
258 0 0.06423905427519694 0
259 0 0.05789194182833812 0
260 0 0.05212183885285437 0
261 0 0.0468762894299326 0
262 0 0.04210760905716526 0
263 0 0.03777244545410552 0
264 0 0.03383138772255956 0
265 0 0.03024860842549426 0
266 0 0.02699153730685877 0
267 0 0.02403056360315015 0
268 0 0.02133876835600201 0
269 0 0.01889168320119916 0
270 0 0.01666706089546111 0
271 0 0.0146446770969928 0
272 0 0.01280614646861933 0
273 0 0.01113475420255039 0
274 0 0.009615306950967906 0
275 0 0.008233992160525894 0
276 0 0.006978251434361038 0
277 0 0.005836667476012636 0
278 0 0.004798862882861243 0
279 0 0.003855404392664408 0
280 0 0.002997715546856572 0
281 0 0.002217998772487739 0
282 0 0.001509164669935004 0
283 0 0.0008647698666570669 0
284 0 0.0002789577138448962 0
285 0.100000000000143 3.635856386434326 0
286 0.1000000000001153 3.304816742537664 0
287 0.1000000000000902 3.003871620385855 0
288 0.1000000000000673 2.730285148989715 0
289 0.1000000000000465 2.481570175518687 0
290 0.1000000000000276 2.255465657614682 0
291 0.1000000000000104 2.049916099497547 0
292 0.09999999999999483 1.863052865667544 0
293 0.09999999999998063 1.693177204222754 0
294 0.09999999999996768 1.53874478692966 0
295 0.09999999999995599 1.398351679345944 0
296 0.09999999999994529 1.270721581660832 0
297 0.09999999999993561 1.154694222206828 0
298 0.09999999999992677 1.049214805917781 0
299 0.09999999999991875 0.9533244321908645 0
300 0.09999999999991144 0.8661513635439788 0
301 0.09999999999990485 0.7869031203076176 0
302 0.09999999999989879 0.7148592661812718 0
303 0.09999999999989333 0.6493648544244253 0
304 0.09999999999988836 0.5898244801014416 0
305 0.09999999999988383 0.535696866589241 0
306 0.09999999999987971 0.4864899472308624 0
307 0.09999999999987599 0.441756383547825 0
308 0.09999999999987259 0.4010895083774599 0
309 0.0999999999998695 0.3641196216965856 0
310 0.09999999999986665 0.3305106361202819 0
311 0.0999999999998641 0.2999570125110049 0
312 0.0999999999998618 0.2721809936780899 0
313 0.09999999999985966 0.2469300644387138 0
314 0.09999999999985777 0.2239746778725129 0
315 0.099999999999856 0.2031061449943706 0
316 0.09999999999985444 0.1841347478587644 0
317 0.09999999999985301 0.1668880238489965 0
318 0.09999999999985168 0.1512091859169762 0
319 0.0999999999998505 0.1369556968055195 0
320 0.09999999999984939 0.123997977059573 0
321 0.09999999999984845 0.1122182336453905 0
322 0.0999999999998475 0.1015093756169713 0
323 0.09999999999984673 0.09177405408813707 0
324 0.09999999999984595 0.08292375850841355 0
325 0.09999999999984528 0.07487803489009603 0
326 0.09999999999984467 0.06756374324718833 0
327 0.09999999999984412 0.06091438615631492 0
328 0.09999999999984362 0.05486951690506177 0
329 0.09999999999984317 0.04937417926201156 0
330 0.09999999999984273 0.04437841717305364 0
331 0.09999999999984237 0.03983681692479019 0
332 0.09999999999984201 0.0357080888025102 0
333 0.0999999999998417 0.03195470043979555 0
334 0.09999999999984144 0.02854252919313967 0
335 0.09999999999984117 0.02544055727083839 0
336 0.09999999999984092 0.02262058090295783 0
337 0.09999999999984073 0.0200569661773396 0
338 0.09999999999984052 0.01772640961685865 0
339 0.09999999999984034 0.01560772089512787 0
340 0.09999999999984018 0.01368164138737582 0
341 0.09999999999984005 0.01193065902238105 0
342 0.0999999999998399 0.01033885646357737 0
343 0.09999999999983979 0.008891763976689008 0
344 0.09999999999983969 0.007576226301000251 0
345 0.09999999999983958 0.006380282077536072 0
346 0.0999999999998395 0.005293058047959327 0
347 0.0999999999998394 0.004304672497542478 0
348 0.09999999999983936 0.003406140702698509 0
349 0.09999999999983927 0.002589294467897288 0
350 0.09999999999983918 0.001846706840903991 0
351 0.09999999999983912 0.00117162597296201 0
352 0.09999999999983911 0.0005579169661082885 0
353 0.05000000000007152 3.635856380541059 0
354 0.1000000000001583 3.817928193217163 0
355 0.1500000000000715 3.635856392327594 0
356 0.05000000000005767 3.304816731433214 0
357 0.1000000000001292 3.470336564485995 0
358 0.1500000000000577 3.304816753642114 0
359 0.0500000000000451 3.003871604989516 0
360 0.1000000000001028 3.154344181461759 0
361 0.1500000000000451 3.003871635782193 0
362 0.05000000000003367 2.730285130173599 0
363 0.1000000000000788 2.867078384687785 0
364 0.1500000000000337 2.730285167805832 0
365 0.05000000000002326 2.481570154031814 0
366 0.1000000000000569 2.605927662254201 0
367 0.1500000000000233 2.481570197005559 0
368 0.05000000000001381 2.255465634098153 0
369 0.1000000000000371 2.368517916566685 0
370 0.1500000000000138 2.255465681131211 0
371 0.05000000000000521 2.049916074497967 0
372 0.100000000000019 2.152690878556114 0
373 0.1500000000000052 2.049916124497126 0
374 0.04999999999999741 1.863052839648438 0
375 0.1000000000000026 1.956484482582546 0
376 0.1499999999999974 1.863052891686651 0
377 0.04999999999999032 1.693177177575884 0
378 0.09999999999998774 1.778115034945149 0
379 0.1499999999999903 1.693177230869625 0
380 0.04999999999998384 1.538744759984199 0
381 0.09999999999997417 1.615960995576207 0
382 0.1499999999999838 1.53874481387512 0
383 0.04999999999997799 1.398351652376405 0
384 0.09999999999996184 1.468548233137802 0
385 0.149999999999978 1.398351706315483 0
386 0.04999999999997264 1.270721554894281 0
387 0.09999999999995063 1.334536630503388 0
388 0.1499999999999727 1.270721608427383 0
389 0.04999999999996781 1.154694195829246 0
390 0.09999999999994044 1.21270790193383 0
391 0.1499999999999678 1.154694248584409 0
392 0.04999999999996339 1.04921478007966 0
393 0.0999999999999312 1.101954514062304 0
394 0.1499999999999634 1.049214831755903 0
395 0.04999999999995938 0.9533244070121151 0
396 0.09999999999992276 1.001269619054323 0
397 0.1499999999999594 0.9533244573696138 0
398 0.04999999999995572 0.866151339118254 0
399 0.0999999999999151 0.9097378978674217 0
400 0.1499999999999557 0.8661513879697036 0
401 0.04999999999995242 0.7869030967060923 0
402 0.09999999999990813 0.8265272419257982 0
403 0.1499999999999524 0.7869031439091426 0
404 0.0499999999999494 0.714859243455958 0
405 0.09999999999990182 0.7508811932444447 0
406 0.1499999999999494 0.7148592889065859 0
407 0.04999999999994666 0.6493648326110655 0
408 0.09999999999989606 0.6821120603028485 0
409 0.1499999999999467 0.649364876237785 0
410 0.04999999999994418 0.5898244592220389 0
411 0.09999999999989084 0.6195946672629334 0
412 0.1499999999999442 0.5898245009808445 0
413 0.04999999999994192 0.5356968466542602 0
414 0.0999999999998861 0.5627606733453413 0
415 0.1499999999999419 0.5356968865242218 0
416 0.04999999999993986 0.4864899282411523 0
417 0.09999999999988177 0.5110934069100517 0
418 0.1499999999999398 0.4864899662205723 0
419 0.049999999999938 0.4417563654962798 0
420 0.09999999999987785 0.4641231653893437 0
421 0.149999999999938 0.4417564015993701 0
422 0.0499999999999363 0.4010894912504441 0
423 0.0999999999998743 0.4214229459626425 0
424 0.1499999999999363 0.4010895255044757 0
425 0.04999999999993475 0.3641196054751888 0
426 0.09999999999987105 0.3826045650370228 0
427 0.1499999999999347 0.3641196379179823 0
428 0.04999999999993333 0.330510620781392 0
429 0.09999999999986808 0.3473151289084337 0
430 0.1499999999999333 0.3305106514591716 0
431 0.04999999999993205 0.2999569980282272 0
432 0.09999999999986538 0.3152338243156434 0
433 0.149999999999932 0.2999570269937827 0
434 0.0499999999999309 0.2721809800225353 0
435 0.09999999999986295 0.2860690030945474 0
436 0.1499999999999309 0.2721810073336445 0
437 0.04999999999992983 0.2469300515796697 0
438 0.09999999999986073 0.2595555290584018 0
439 0.1499999999999298 0.2469300772977578 0
440 0.04999999999992889 0.2239746657780122 0
441 0.09999999999985872 0.2354523711556133 0
442 0.1499999999999289 0.2239746899670136 0
443 0.049999999999928 0.2031061336316786 0
444 0.09999999999985688 0.2135404114334418 0
445 0.149999999999928 0.2031061563570627 0
446 0.04999999999992722 0.1841347371947794 0
447 0.09999999999985522 0.1936204464265675 0
448 0.1499999999999272 0.1841347585227494 0
449 0.04999999999992651 0.1668880138505874 0
450 0.09999999999985373 0.1755113858538805 0
451 0.1499999999999265 0.1668880338474056 0
452 0.04999999999992584 0.1512091765512613 0
453 0.09999999999985235 0.1590486048829864 0
454 0.1499999999999259 0.1512091952826911 0
455 0.04999999999992525 0.1369556880400951 0
456 0.0999999999998511 0.1440824413612479 0
457 0.1499999999999252 0.1369557055709439 0
458 0.04999999999992469 0.1239979687797137 0
459 0.09999999999984995 0.1304768369325462 0
460 0.1499999999999247 0.1239979853394322 0
461 0.04999999999992422 0.1122182259861346 0
462 0.09999999999984892 0.1181081053524817 0
463 0.1499999999999242 0.1122182413046463 0
464 0.04999999999992375 0.1015093684653283 0
465 0.09999999999984797 0.1068638046311809 0
466 0.1499999999999237 0.1015093827686143 0
467 0.04999999999992336 0.0917740474151134 0
468 0.09999999999984711 0.09664171485255418 0
469 0.1499999999999234 0.09177406076116074 0
470 0.04999999999992297 0.08292375227443863 0
471 0.09999999999984634 0.08734890629827531 0
472 0.149999999999923 0.08292376474238847 0
473 0.04999999999992264 0.07487802898108592 0
474 0.09999999999984562 0.07890089669925479 0
475 0.1499999999999226 0.07487804079910615 0
476 0.04999999999992234 0.06756373784702766 0
477 0.09999999999984498 0.07122088906864218 0
478 0.1499999999999223 0.06756374864734901 0
479 0.04999999999992206 0.06091438112992069 0
480 0.09999999999984439 0.06423906470175163 0
481 0.1499999999999221 0.06091439118270914 0
482 0.04999999999992181 0.05486951222910578 0
483 0.09999999999984387 0.05789195153068834 0
484 0.1499999999999218 0.05486952158101777 0
485 0.04999999999992159 0.04937417470728526 0
486 0.09999999999984339 0.05212184808353666 0
487 0.1499999999999216 0.04937418381673785 0
488 0.04999999999992136 0.04437841294017972 0
489 0.09999999999984295 0.0468762982175326 0
490 0.1499999999999214 0.04437842140592756 0
491 0.04999999999992118 0.03983681316590745 0
492 0.09999999999984255 0.04210761704892192 0
493 0.1499999999999212 0.03983682068367293 0
494 0.049999999999921 0.03570808515184826 0
495 0.09999999999984219 0.03777245286365019 0
496 0.149999999999921 0.03570809245317213 0
497 0.04999999999992085 0.0319546971918644 0
498 0.09999999999984185 0.03383139462115287 0
499 0.1499999999999209 0.0319547036877267 0
500 0.04999999999992072 0.02854252605009748 0
501 0.09999999999984158 0.03024861481646761 0
502 0.1499999999999207 0.02854253233618187 0
503 0.04999999999992059 0.02544055448875033 0
504 0.0999999999998413 0.02699154323198903 0
505 0.1499999999999206 0.02544056005292646 0
506 0.04999999999992046 0.02262057820129793 0
507 0.09999999999984105 0.02403056908689811 0
508 0.1499999999999205 0.02262058360461774 0
509 0.04999999999992037 0.02005696369485258 0
510 0.09999999999984083 0.02133877354014872 0
511 0.1499999999999204 0.02005696865982663 0
512 0.04999999999992026 0.01772640740344593 0
513 0.09999999999984063 0.01889168789709912 0
514 0.1499999999999203 0.01772641183027136 0
515 0.04999999999992017 0.01560771874800821 0
516 0.09999999999984044 0.01666706525599326 0
517 0.1499999999999202 0.01560772304224753 0
518 0.04999999999992009 0.01368163949023643 0
519 0.09999999999984026 0.01464468114125185 0
520 0.1499999999999201 0.01368164328451522 0
521 0.04999999999992003 0.01193065718326133 0
522 0.09999999999984011 0.01280615020487844 0
523 0.14999999999992 0.01193066086150077 0
524 0.04999999999991995 0.01033885476226827 0
525 0.09999999999983997 0.01113475774297921 0
526 0.1499999999999199 0.01033885816488648 0
527 0.04999999999991989 0.00889176240883305 0
528 0.09999999999983984 0.00961531022013319 0
529 0.1499999999999199 0.008891765544544964 0
530 0.04999999999991984 0.007576224890537473 0
531 0.09999999999983974 0.008233995138844629 0
532 0.1499999999999199 0.007576227711463029 0
533 0.04999999999991979 0.006380280733091727 0
534 0.09999999999983963 0.006978254189268162 0
535 0.1499999999999198 0.006380283421980418 0
536 0.04999999999991975 0.005293056805668831 0
537 0.09999999999983954 0.0058366700627477 0
538 0.1499999999999198 0.005293059290249822 0
539 0.0499999999999197 0.004304671349943537 0
540 0.09999999999983944 0.004798865272750903 0
541 0.1499999999999197 0.00430467364514142 0
542 0.04999999999991968 0.003406139642841364 0
543 0.09999999999983938 0.003855406600120494 0
544 0.1499999999999197 0.003406141762555654 0
545 0.04999999999991964 0.002589293489313106 0
546 0.09999999999983931 0.002997717585297898 0
547 0.1499999999999196 0.002589295446481468 0
548 0.04999999999991959 0.00184670593757505 0
549 0.09999999999983922 0.002218000654400639 0
550 0.1499999999999196 0.00184670774423293 0
551 0.04999999999991956 0.001171625139292954 0
552 0.09999999999983915 0.001509166406933 0
553 0.1499999999999196 0.001171626806631067 0
554 0.04999999999991955 0.0005579161968992625 0
555 0.09999999999983911 0.0008647714695351494 0
556 0.1499999999999196 0.0005579177353173145 0
557 0.09999999999983908 0.0002789584830541443 0
$EndNodes
$Elements
138
1 16 2 1 6 4 148 285 145 216 353 354 147
2 16 2 1 6 145 285 75 3 354 355 144 146
3 16 2 1 6 148 149 286 285 217 356 357 353
4 16 2 1 6 285 286 74 75 357 358 143 355
5 16 2 1 6 149 150 287 286 218 359 360 356
6 16 2 1 6 286 287 73 74 360 361 142 358
7 16 2 1 6 150 151 288 287 219 362 363 359
8 16 2 1 6 287 288 72 73 363 364 141 361
9 16 2 1 6 151 152 289 288 220 365 366 362
10 16 2 1 6 288 289 71 72 366 367 140 364
11 16 2 1 6 152 153 290 289 221 368 369 365
12 16 2 1 6 289 290 70 71 369 370 139 367
13 16 2 1 6 153 154 291 290 222 371 372 368
14 16 2 1 6 290 291 69 70 372 373 138 370
15 16 2 1 6 154 155 292 291 223 374 375 371
16 16 2 1 6 291 292 68 69 375 376 137 373
17 16 2 1 6 155 156 293 292 224 377 378 374
18 16 2 1 6 292 293 67 68 378 379 136 376
19 16 2 1 6 156 157 294 293 225 380 381 377
20 16 2 1 6 293 294 66 67 381 382 135 379
21 16 2 1 6 157 158 295 294 226 383 384 380
22 16 2 1 6 294 295 65 66 384 385 134 382
23 16 2 1 6 158 159 296 295 227 386 387 383
24 16 2 1 6 295 296 64 65 387 388 133 385
25 16 2 1 6 159 160 297 296 228 389 390 386
26 16 2 1 6 296 297 63 64 390 391 132 388
27 16 2 1 6 160 161 298 297 229 392 393 389
28 16 2 1 6 297 298 62 63 393 394 131 391
29 16 2 1 6 161 162 299 298 230 395 396 392
30 16 2 1 6 298 299 61 62 396 397 130 394
31 16 2 1 6 162 163 300 299 231 398 399 395
32 16 2 1 6 299 300 60 61 399 400 129 397
33 16 2 1 6 163 164 301 300 232 401 402 398
34 16 2 1 6 300 301 59 60 402 403 128 400
35 16 2 1 6 164 165 302 301 233 404 405 401
36 16 2 1 6 301 302 58 59 405 406 127 403
37 16 2 1 6 165 166 303 302 234 407 408 404
38 16 2 1 6 302 303 57 58 408 409 126 406
39 16 2 1 6 166 167 304 303 235 410 411 407
40 16 2 1 6 303 304 56 57 411 412 125 409
41 16 2 1 6 167 168 305 304 236 413 414 410
42 16 2 1 6 304 305 55 56 414 415 124 412
43 16 2 1 6 168 169 306 305 237 416 417 413
44 16 2 1 6 305 306 54 55 417 418 123 415
45 16 2 1 6 169 170 307 306 238 419 420 416
46 16 2 1 6 306 307 53 54 420 421 122 418
47 16 2 1 6 170 171 308 307 239 422 423 419
48 16 2 1 6 307 308 52 53 423 424 121 421
49 16 2 1 6 171 172 309 308 240 425 426 422
50 16 2 1 6 308 309 51 52 426 427 120 424
51 16 2 1 6 172 173 310 309 241 428 429 425
52 16 2 1 6 309 310 50 51 429 430 119 427
53 16 2 1 6 173 174 311 310 242 431 432 428
54 16 2 1 6 310 311 49 50 432 433 118 430
55 16 2 1 6 174 175 312 311 243 434 435 431
56 16 2 1 6 311 312 48 49 435 436 117 433
57 16 2 1 6 175 176 313 312 244 437 438 434
58 16 2 1 6 312 313 47 48 438 439 116 436
59 16 2 1 6 176 177 314 313 245 440 441 437
60 16 2 1 6 313 314 46 47 441 442 115 439
61 16 2 1 6 177 178 315 314 246 443 444 440
62 16 2 1 6 314 315 45 46 444 445 114 442
63 16 2 1 6 178 179 316 315 247 446 447 443
64 16 2 1 6 315 316 44 45 447 448 113 445
65 16 2 1 6 179 180 317 316 248 449 450 446
66 16 2 1 6 316 317 43 44 450 451 112 448
67 16 2 1 6 180 181 318 317 249 452 453 449
68 16 2 1 6 317 318 42 43 453 454 111 451
69 16 2 1 6 181 182 319 318 250 455 456 452
70 16 2 1 6 318 319 41 42 456 457 110 454
71 16 2 1 6 182 183 320 319 251 458 459 455
72 16 2 1 6 319 320 40 41 459 460 109 457
73 16 2 1 6 183 184 321 320 252 461 462 458
74 16 2 1 6 320 321 39 40 462 463 108 460
75 16 2 1 6 184 185 322 321 253 464 465 461
76 16 2 1 6 321 322 38 39 465 466 107 463
77 16 2 1 6 185 186 323 322 254 467 468 464
78 16 2 1 6 322 323 37 38 468 469 106 466
79 16 2 1 6 186 187 324 323 255 470 471 467
80 16 2 1 6 323 324 36 37 471 472 105 469
81 16 2 1 6 187 188 325 324 256 473 474 470
82 16 2 1 6 324 325 35 36 474 475 104 472
83 16 2 1 6 188 189 326 325 257 476 477 473
84 16 2 1 6 325 326 34 35 477 478 103 475
85 16 2 1 6 189 190 327 326 258 479 480 476
86 16 2 1 6 326 327 33 34 480 481 102 478
87 16 2 1 6 190 191 328 327 259 482 483 479
88 16 2 1 6 327 328 32 33 483 484 101 481
89 16 2 1 6 191 192 329 328 260 485 486 482
90 16 2 1 6 328 329 31 32 486 487 100 484
91 16 2 1 6 192 193 330 329 261 488 489 485
92 16 2 1 6 329 330 30 31 489 490 99 487
93 16 2 1 6 193 194 331 330 262 491 492 488
94 16 2 1 6 330 331 29 30 492 493 98 490
95 16 2 1 6 194 195 332 331 263 494 495 491
96 16 2 1 6 331 332 28 29 495 496 97 493
97 16 2 1 6 195 196 333 332 264 497 498 494
98 16 2 1 6 332 333 27 28 498 499 96 496
99 16 2 1 6 196 197 334 333 265 500 501 497
100 16 2 1 6 333 334 26 27 501 502 95 499
101 16 2 1 6 197 198 335 334 266 503 504 500
102 16 2 1 6 334 335 25 26 504 505 94 502
103 16 2 1 6 198 199 336 335 267 506 507 503
104 16 2 1 6 335 336 24 25 507 508 93 505
105 16 2 1 6 199 200 337 336 268 509 510 506
106 16 2 1 6 336 337 23 24 510 511 92 508
107 16 2 1 6 200 201 338 337 269 512 513 509
108 16 2 1 6 337 338 22 23 513 514 91 511
109 16 2 1 6 201 202 339 338 270 515 516 512
110 16 2 1 6 338 339 21 22 516 517 90 514
111 16 2 1 6 202 203 340 339 271 518 519 515
112 16 2 1 6 339 340 20 21 519 520 89 517
113 16 2 1 6 203 204 341 340 272 521 522 518
114 16 2 1 6 340 341 19 20 522 523 88 520
115 16 2 1 6 204 205 342 341 273 524 525 521
116 16 2 1 6 341 342 18 19 525 526 87 523
117 16 2 1 6 205 206 343 342 274 527 528 524
118 16 2 1 6 342 343 17 18 528 529 86 526
119 16 2 1 6 206 207 344 343 275 530 531 527
120 16 2 1 6 343 344 16 17 531 532 85 529
121 16 2 1 6 207 208 345 344 276 533 534 530
122 16 2 1 6 344 345 15 16 534 535 84 532
123 16 2 1 6 208 209 346 345 277 536 537 533
124 16 2 1 6 345 346 14 15 537 538 83 535
125 16 2 1 6 209 210 347 346 278 539 540 536
126 16 2 1 6 346 347 13 14 540 541 82 538
127 16 2 1 6 210 211 348 347 279 542 543 539
128 16 2 1 6 347 348 12 13 543 544 81 541
129 16 2 1 6 211 212 349 348 280 545 546 542
130 16 2 1 6 348 349 11 12 546 547 80 544
131 16 2 1 6 212 213 350 349 281 548 549 545
132 16 2 1 6 349 350 10 11 549 550 79 547
133 16 2 1 6 213 214 351 350 282 551 552 548
134 16 2 1 6 350 351 9 10 552 553 78 550
135 16 2 1 6 214 215 352 351 283 554 555 551
136 16 2 1 6 351 352 8 9 555 556 77 553
137 16 2 1 6 215 1 5 352 284 6 557 554
138 16 2 1 6 352 5 2 8 557 7 76 556
$EndElements
