$MeshFormat
2.2 0 8
$EndMeshFormat
$PhysicalNames
4
1 2 "pipe_inner"
1 4 "pipe_outer"
2 1 "water"
2 3 "pipe"
$EndPhysicalNames
$Nodes
529
1 -0.00176 0 0
2 0 -0.00176 0
3 0.00176 0 0
4 0 0.00176 0
5 -0.005988796318347692 0 0
6 0 -0.005988796318347692 0
7 0.005988796318347692 0 0
8 0 0.005988796318347692 0
9 -0.008800000000000001 0 0
10 0 -0.008800000000000001 0
11 0.008800000000000001 0 0
12 0 0.008800000000000001 0
13 -0.01 0 0
14 0 -0.01 0
15 0.01 0 0
16 0 0.01 0
17 -0.001320000000001037 -0.0004399999999989632 0
18 -0.0008800000000023067 -0.0008799999999976934 0
19 -0.0004400000000011426 -0.001319999999998857 0
20 -0.001540000000000436 -0.0002199999999995643 0
21 -0.001100000000001702 -0.0006599999999982979 0
22 -0.0006600000000016506 -0.001099999999998349 0
23 -0.0002200000000004564 -0.001539999999999544 0
24 0.0004399999999989632 -0.001320000000001037 0
25 0.0008799999999976934 -0.0008800000000023067 0
26 0.001319999999998857 -0.0004400000000011426 0
27 0.0002199999999995643 -0.001540000000000436 0
28 0.0006599999999982979 -0.001100000000001702 0
29 0.001099999999998349 -0.0006600000000016506 0
30 0.001539999999999544 -0.0002200000000004564 0
31 0.001320000000001037 0.0004399999999989632 0
32 0.0008800000000023067 0.0008799999999976934 0
33 0.0004400000000011426 0.001319999999998857 0
34 0.001540000000000436 0.0002199999999995643 0
35 0.001100000000001702 0.0006599999999982979 0
36 0.0006600000000016506 0.001099999999998349 0
37 0.0002200000000004564 0.001539999999999544 0
38 -0.0004399999999989632 0.001320000000001037 0
39 -0.0008799999999976934 0.0008800000000023067 0
40 -0.001319999999998857 0.0004400000000011426 0
41 -0.0002199999999995643 0.001540000000000436 0
42 -0.0006599999999982979 0.001100000000001702 0
43 -0.001099999999998349 0.0006600000000016506 0
44 -0.001539999999999544 0.0002200000000004564 0
45 -0.005532926342902727 -0.002291813130835044 0
46 -0.004234718487856626 -0.00423471848784074 0
47 -0.002291813130845509 -0.005532926342898392 0
48 -0.005873723276369086 -0.001168356202232383 0
49 -0.004979502152980147 -0.003327196966084358 0
50 -0.003327196966097797 -0.004979502152971166 0
51 -0.00116835620223861 -0.005873723276367848 0
52 0.002291813130835044 -0.005532926342902727 0
53 0.00423471848784074 -0.004234718487856626 0
54 0.005532926342898392 -0.002291813130845509 0
55 0.001168356202232383 -0.005873723276369086 0
56 0.003327196966084358 -0.004979502152980147 0
57 0.004979502152971166 -0.003327196966097797 0
58 0.005873723276367848 -0.00116835620223861 0
59 0.005532926342902727 0.002291813130835044 0
60 0.004234718487856626 0.00423471848784074 0
61 0.002291813130845509 0.005532926342898392 0
62 0.005873723276369086 0.001168356202232383 0
63 0.004979502152980147 0.003327196966084358 0
64 0.003327196966097797 0.004979502152971166 0
65 0.00116835620223861 0.005873723276367848 0
66 -0.002291813130835044 0.005532926342902727 0
67 -0.00423471848784074 0.004234718487856626 0
68 -0.005532926342898392 0.002291813130845509 0
69 -0.001168356202232383 0.005873723276369086 0
70 -0.003327196966084358 0.004979502152980147 0
71 -0.004979502152971166 0.003327196966097797 0
72 -0.005873723276367848 0.00116835620223861 0
73 -0.008130139886102838 -0.003367614204804303 0
74 -0.006222539674453025 -0.006222539674430212 0
75 -0.003367614204819199 -0.00813013988609667 0
76 -0.00863091046754918 -0.001716794833738153 0
77 -0.007316932588269666 -0.004889018050561624 0
78 -0.00488901805058289 -0.007316932588255456 0
79 -0.001716794833745732 -0.008630910467547673 0
80 0.003367614204804303 -0.008130139886102838 0
81 0.006222539674430212 -0.006222539674453025 0
82 0.00813013988609667 -0.003367614204819199 0
83 0.001716794833738153 -0.00863091046754918 0
84 0.004889018050561624 -0.007316932588269666 0
85 0.007316932588255456 -0.00488901805058289 0
86 0.008630910467547673 -0.001716794833745732 0
87 0.008130139886102838 0.003367614204804303 0
88 0.006222539674453025 0.006222539674430212 0
89 0.003367614204819199 0.00813013988609667 0
90 0.00863091046754918 0.001716794833738153 0
91 0.007316932588269666 0.004889018050561624 0
92 0.00488901805058289 0.007316932588255456 0
93 0.001716794833745732 0.008630910467547673 0
94 -0.003367614204804303 0.008130139886102838 0
95 -0.006222539674430212 0.006222539674453025 0
96 -0.00813013988609667 0.003367614204819199 0
97 -0.001716794833738153 0.00863091046754918 0
98 -0.004889018050561624 0.007316932588269666 0
99 -0.007316932588255456 0.00488901805058289 0
100 -0.008630910467547673 0.001716794833745732 0
101 -0.008548367780989089 0 0
102 -0.008108011405450033 0 0
103 -0.007337387736077389 0 0
104 -0.008674183890494399 0 0
105 -0.008328189593219562 0 0
106 -0.007722699570762985 0 0
107 -0.006663092027212636 0 0
108 -0.003874398159178933 0 0
109 -0.004931597238764709 0 0
110 -0.002817199079588976 0 0
111 0 -0.008548367780989089 0
112 0 -0.008108011405450033 0
113 0 -0.007337387736077389 0
114 0 -0.008674183890494399 0
115 0 -0.008328189593219562 0
116 0 -0.007722699570762985 0
117 0 -0.006663092027212636 0
118 0 -0.003874398159178933 0
119 0 -0.004931597238764709 0
120 0 -0.002817199079588976 0
121 0.008548367780989089 0 0
122 0.008108011405450033 0 0
123 0.007337387736077389 0 0
124 0.008674183890494399 0 0
125 0.008328189593219562 0 0
126 0.007722699570762985 0 0
127 0.006663092027212636 0 0
128 0.003874398159178933 0 0
129 0.004931597238764709 0 0
130 0.002817199079588976 0 0
131 0 0.008548367780989089 0
132 0 0.008108011405450033 0
133 0 0.007337387736077389 0
134 0 0.008674183890494399 0
135 0 0.008328189593219562 0
136 0 0.007722699570762985 0
137 0 0.006663092027212636 0
138 0 0.003874398159178933 0
139 0 0.004931597238764709 0
140 0 0.002817199079588976 0
141 -0.009238795325117398 -0.003826834323639961 0
142 -0.007071067811879121 -0.00707106781185183 0
143 -0.003826834323657088 -0.009238795325110304 0
144 -0.00980785280403342 -0.001950903220155675 0
145 -0.008314696123035167 -0.005555702330181484 0
146 -0.00555570233020802 -0.008314696123017436 0
147 -0.001950903220164448 -0.009807852804031675 0
148 0.003826834323639961 -0.009238795325117398 0
149 0.00707106781185183 -0.007071067811879121 0
150 0.009238795325110304 -0.003826834323657088 0
151 0.001950903220155675 -0.00980785280403342 0
152 0.005555702330181484 -0.008314696123035167 0
153 0.008314696123017436 -0.00555570233020802 0
154 0.009807852804031675 -0.001950903220164448 0
155 0.009238795325117398 0.003826834323639961 0
156 0.007071067811879121 0.00707106781185183 0
157 0.003826834323657088 0.009238795325110304 0
158 0.00980785280403342 0.001950903220155675 0
159 0.008314696123035167 0.005555702330181484 0
160 0.00555570233020802 0.008314696123017436 0
161 0.001950903220164448 0.009807852804031675 0
162 -0.003826834323639961 0.009238795325117398 0
163 -0.00707106781185183 0.007071067811879121 0
164 -0.009238795325110304 0.003826834323657088 0
165 -0.001950903220155675 0.00980785280403342 0
166 -0.005555702330181484 0.008314696123035167 0
167 -0.008314696123017436 0.00555570233020802 0
168 -0.009807852804031675 0.001950903220164448 0
169 -0.0094 0 0
170 0 -0.0094 0
171 0.0094 0 0
172 0 0.0094 0
173 -0.0008799999999998943 1.089623183347932e-15 0
174 -0.0004399999999987938 0.0004400000000011004 0
175 1.089623183347932e-15 0.0008799999999998946 0
176 -0.0004400000000011004 -0.0004399999999987939 0
177 1.084202172485504e-19 0 0
178 0.0004400000000011004 0.0004399999999987939 0
179 -1.089623183347932e-15 -0.0008799999999998942 0
180 0.0004399999999987937 -0.0004400000000011005 0
181 0.0008799999999998942 -1.089623183347932e-15 0
182 -0.001100000000000466 -0.0002199999999989368 0
183 -0.001099999999999376 0.0002200000000011161 0
184 -0.001319999999999963 7.184465695975195e-16 0
185 -0.0006599999999993441 0.000220000000001095 0
186 -0.0006599999999982436 0.0006600000000017035 0
187 -0.0008799999999988468 0.0004400000000013728 0
188 -0.0002199999999988521 0.0006600000000004975 0
189 -0.0002199999999989368 0.001100000000000466 0
190 -0.000439999999998575 0.0008800000000010997 0
191 0.0002200000000011161 0.001099999999999376 0
192 7.184601221246756e-16 0.001319999999999963 0
193 -0.0006600000000017035 -0.0006599999999982436 0
194 -0.0006600000000004974 -0.0002199999999988521 0
195 -0.0008800000000010997 -0.000439999999998575 0
196 -0.0002200000000005502 -0.0002199999999993969 0
197 -0.0002199999999993968 0.0002200000000005502 0
198 -0.0004399999999999471 8.490387212733985e-16 0
199 0.0002200000000005503 0.0002199999999993969 0
200 0.000220000000001095 0.0006599999999993443 0
201 8.490929313820228e-16 0.0004399999999999473 0
202 0.0006600000000017035 0.0006599999999982436 0
203 0.0004400000000013727 0.0008799999999988468 0
204 -0.0002200000000011161 -0.001099999999999376 0
205 -0.000220000000001095 -0.0006599999999993441 0
206 -0.0004400000000013728 -0.0008799999999988467 0
207 0.000219999999998852 -0.0006600000000004974 0
208 0.0002199999999993969 -0.0002200000000005503 0
209 -8.490658263277107e-16 -0.0004399999999999472 0
210 0.0006599999999993439 -0.0002200000000010951 0
211 0.0006600000000004973 0.0002199999999988521 0
212 0.0004399999999999471 -8.490658263277107e-16 0
213 0.001100000000000466 0.0002199999999989368 0
214 0.0008800000000010997 0.000439999999998575 0
215 0.0002199999999989368 -0.001100000000000466 0
216 -7.184601221246756e-16 -0.001319999999999963 0
217 0.0006599999999982436 -0.0006600000000017036 0
218 0.000439999999998575 -0.0008800000000010997 0
219 0.001099999999999376 -0.0002200000000011161 0
220 0.0008799999999988465 -0.0004400000000013728 0
221 0.001319999999999963 -7.184601221246756e-16 0
222 -0.003426463171456921 -0.001365906565419339 0
223 -0.002557359243933644 -0.00255735924392311 0
224 -0.001365906565425721 -0.003426463171453647 0
225 -0.003706861638190009 -0.0006941781011171643 0
226 -0.004479694757179816 -0.00182885984812722 0
227 -0.004790292457280262 -0.0009312671516749514 0
228 -0.00303975107649567 -0.001993598483044404 0
229 -0.003396038865895171 -0.00339603886588189 0
230 -0.004009626614737925 -0.00266039772456435 0
231 -0.001993598483053329 -0.003039751076489163 0
232 -0.001828859848135656 -0.004479694757176009 0
233 -0.002660397724575643 -0.00400962661473012 0
234 -0.0006941781011205183 -0.003706861638188911 0
235 -0.0009312671516796818 -0.004790292457279094 0
236 -0.002373231585728972 -0.0009029532827091785 0
237 -0.002623430819094971 -0.0004570890505583678 0
238 -0.001718679621968011 -0.001718679621960366 0
239 -0.0020698755382487 -0.001326799241521327 0
240 -0.0009029532827134737 -0.00237323158572624 0
241 -0.001326799241527498 -0.002069875538243751 0
242 -0.0004570890505603941 -0.002623430819093977 0
243 0.001365906565419339 -0.003426463171456921 0
244 0.00255735924392311 -0.002557359243933644 0
245 0.003426463171453647 -0.001365906565425721 0
246 0.0006941781011171643 -0.003706861638190009 0
247 0.00182885984812722 -0.004479694757179816 0
248 0.0009312671516749514 -0.004790292457280262 0
249 0.001993598483044404 -0.00303975107649567 0
250 0.00339603886588189 -0.003396038865895171 0
251 0.00266039772456435 -0.004009626614737925 0
252 0.003039751076489163 -0.001993598483053329 0
253 0.004479694757176009 -0.001828859848135656 0
254 0.00400962661473012 -0.002660397724575643 0
255 0.003706861638188911 -0.0006941781011205183 0
256 0.004790292457279094 -0.0009312671516796818 0
257 0.0009029532827091785 -0.002373231585728972 0
258 0.0004570890505583678 -0.002623430819094971 0
259 0.001718679621960366 -0.001718679621968011 0
260 0.001326799241521327 -0.0020698755382487 0
261 0.00237323158572624 -0.0009029532827134737 0
262 0.002069875538243751 -0.001326799241527498 0
263 0.002623430819093977 -0.0004570890505603941 0
264 0.003426463171456921 0.001365906565419339 0
265 0.002557359243933644 0.00255735924392311 0
266 0.001365906565425721 0.003426463171453647 0
267 0.003706861638190009 0.0006941781011171643 0
268 0.004479694757179816 0.00182885984812722 0
269 0.004790292457280262 0.0009312671516749514 0
270 0.00303975107649567 0.001993598483044404 0
271 0.003396038865895171 0.00339603886588189 0
272 0.004009626614737925 0.00266039772456435 0
273 0.001993598483053329 0.003039751076489163 0
274 0.001828859848135656 0.004479694757176009 0
275 0.002660397724575643 0.00400962661473012 0
276 0.0006941781011205183 0.003706861638188911 0
277 0.0009312671516796818 0.004790292457279094 0
278 0.002373231585728972 0.0009029532827091785 0
279 0.002623430819094971 0.0004570890505583678 0
280 0.001718679621968011 0.001718679621960366 0
281 0.0020698755382487 0.001326799241521327 0
282 0.0009029532827134737 0.00237323158572624 0
283 0.001326799241527498 0.002069875538243751 0
284 0.0004570890505603941 0.002623430819093977 0
285 -0.001365906565419339 0.003426463171456921 0
286 -0.00255735924392311 0.002557359243933644 0
287 -0.003426463171453647 0.001365906565425721 0
288 -0.0006941781011171643 0.003706861638190009 0
289 -0.00182885984812722 0.004479694757179816 0
290 -0.0009312671516749514 0.004790292457280262 0
291 -0.001993598483044404 0.00303975107649567 0
292 -0.00339603886588189 0.003396038865895171 0
293 -0.00266039772456435 0.004009626614737925 0
294 -0.003039751076489163 0.001993598483053329 0
295 -0.004479694757176009 0.001828859848135656 0
296 -0.00400962661473012 0.002660397724575643 0
297 -0.003706861638188911 0.0006941781011205183 0
298 -0.004790292457279094 0.0009312671516796818 0
299 -0.0009029532827091785 0.002373231585728972 0
300 -0.0004570890505583678 0.002623430819094971 0
301 -0.001718679621960366 0.001718679621968011 0
302 -0.001326799241521327 0.0020698755382487 0
303 -0.00237323158572624 0.0009029532827134737 0
304 -0.002069875538243751 0.001326799241527498 0
305 -0.002623430819093977 0.0004570890505603941 0
306 -0.007897662029238153 -0.003271318723539821 0
307 -0.006044608826025088 -0.006044608826002883 0
308 -0.003271318723554334 -0.007897662029232142 0
309 -0.007490825786866582 -0.003102801634285131 0
310 -0.005733229846742158 -0.005733229846721019 0
311 -0.003102801634298968 -0.00749082578686085 0
312 -0.006778862351464128 -0.002807896723428605 0
313 -0.005188316624384957 -0.005188316624365707 0
314 -0.002807896723441235 -0.006778862351458897 0
315 -0.008384113291068196 -0.001667703823101089 0
316 -0.008013900957670498 -0.003319466464172063 0
317 -0.008507511879308616 -0.001692249328419602 0
318 -0.007107708044685403 -0.004749218680011137 0
319 -0.006133574250239055 -0.006133574250216548 0
320 -0.007212320316477533 -0.004819118365286382 0
321 -0.004749218680030723 -0.007107708044672314 0
322 -0.003319466464186766 -0.008013900957664407 0
323 -0.004819118365306801 -0.007212320316463888 0
324 -0.001667703823108792 -0.008384113291066659 0
325 -0.001692249328427246 -0.008507511879307095 0
326 -0.007952218239807723 -0.001581794555995556 0
327 -0.007694243908052368 -0.003187060178912476 0
328 -0.008168165765437958 -0.001624749189548323 0
329 -0.006741565099840647 -0.004504569785841752 0
330 -0.005888919336383623 -0.005888919336361952 0
331 -0.006924636572263027 -0.004626894232926445 0
332 -0.004504569785860406 -0.006741565099828183 0
333 -0.003187060178926652 -0.007694243908046496 0
334 -0.004626894232945566 -0.006924636572250249 0
335 -0.0015817945560029 -0.007952218239806262 0
336 -0.001624749189555847 -0.008168165765436462 0
337 -0.007196401888156625 -0.00143145333618481 0
338 -0.007134844069165355 -0.00295534917885687 0
339 -0.007574310063981818 -0.001506623946090113 0
340 -0.006100814936235604 -0.004076434214278876 0
341 -0.005460773235563558 -0.005460773235543361 0
342 -0.006421190018038123 -0.004290502000060313 0
343 -0.004076434214295876 -0.006100814936224244 0
344 -0.002955349178870104 -0.007134844069159874 0
345 -0.004290502000078144 -0.006421190018026213 0
346 -0.001431453336191513 -0.007196401888155293 0
347 -0.001506623946097137 -0.007574310063980422 0
348 -0.006155894347183426 -0.002549854927131828 0
349 -0.006535062582262904 -0.001299904769208604 0
350 -0.004711517556120795 -0.004711517556103217 0
351 -0.005540158544607867 -0.003701815590181628 0
352 -0.002549854927143384 -0.00615589434717864 0
353 -0.003701815590196823 -0.005540158544597716 0
354 -0.001299904769215111 -0.00653506258226161 0
355 0.003271318723539821 -0.007897662029238153 0
356 0.006044608826002883 -0.006044608826025088 0
357 0.007897662029232142 -0.003271318723554334 0
358 0.003102801634285131 -0.007490825786866582 0
359 0.005733229846721019 -0.005733229846742158 0
360 0.00749082578686085 -0.003102801634298968 0
361 0.002807896723428605 -0.006778862351464128 0
362 0.005188316624365707 -0.005188316624384957 0
363 0.006778862351458897 -0.002807896723441235 0
364 0.001667703823101089 -0.008384113291068196 0
365 0.003319466464172063 -0.008013900957670498 0
366 0.001692249328419602 -0.008507511879308616 0
367 0.004749218680011137 -0.007107708044685403 0
368 0.006133574250216548 -0.006133574250239055 0
369 0.004819118365286382 -0.007212320316477533 0
370 0.007107708044672314 -0.004749218680030723 0
371 0.008013900957664407 -0.003319466464186766 0
372 0.007212320316463888 -0.004819118365306801 0
373 0.008384113291066659 -0.001667703823108792 0
374 0.008507511879307095 -0.001692249328427246 0
375 0.001581794555995556 -0.007952218239807723 0
376 0.003187060178912476 -0.007694243908052368 0
377 0.001624749189548323 -0.008168165765437958 0
378 0.004504569785841752 -0.006741565099840647 0
379 0.005888919336361952 -0.005888919336383623 0
380 0.004626894232926445 -0.006924636572263027 0
381 0.006741565099828183 -0.004504569785860406 0
382 0.007694243908046496 -0.003187060178926652 0
383 0.006924636572250249 -0.004626894232945566 0
384 0.007952218239806262 -0.0015817945560029 0
385 0.008168165765436462 -0.001624749189555847 0
386 0.00143145333618481 -0.007196401888156625 0
387 0.00295534917885687 -0.007134844069165355 0
388 0.001506623946090113 -0.007574310063981818 0
389 0.004076434214278876 -0.006100814936235604 0
390 0.005460773235543361 -0.005460773235563558 0
391 0.004290502000060313 -0.006421190018038123 0
392 0.006100814936224244 -0.004076434214295876 0
393 0.007134844069159874 -0.002955349178870104 0
394 0.006421190018026213 -0.004290502000078144 0
395 0.007196401888155293 -0.001431453336191513 0
396 0.007574310063980422 -0.001506623946097137 0
397 0.002549854927131828 -0.006155894347183426 0
398 0.001299904769208604 -0.006535062582262904 0
399 0.004711517556103217 -0.004711517556120795 0
400 0.003701815590181628 -0.005540158544607867 0
401 0.00615589434717864 -0.002549854927143384 0
402 0.005540158544597716 -0.003701815590196823 0
403 0.00653506258226161 -0.001299904769215111 0
404 0.007897662029238153 0.003271318723539821 0
405 0.006044608826025088 0.006044608826002883 0
406 0.003271318723554334 0.007897662029232142 0
407 0.007490825786866582 0.003102801634285131 0
408 0.005733229846742158 0.005733229846721019 0
409 0.003102801634298968 0.00749082578686085 0
410 0.006778862351464128 0.002807896723428605 0
411 0.005188316624384957 0.005188316624365707 0
412 0.002807896723441235 0.006778862351458897 0
413 0.008384113291068196 0.001667703823101089 0
414 0.008013900957670498 0.003319466464172063 0
415 0.008507511879308616 0.001692249328419602 0
416 0.007107708044685403 0.004749218680011137 0
417 0.006133574250239055 0.006133574250216548 0
418 0.007212320316477533 0.004819118365286382 0
419 0.004749218680030723 0.007107708044672314 0
420 0.003319466464186766 0.008013900957664407 0
421 0.004819118365306801 0.007212320316463888 0
422 0.001667703823108792 0.008384113291066659 0
423 0.001692249328427246 0.008507511879307095 0
424 0.007952218239807723 0.001581794555995556 0
425 0.007694243908052368 0.003187060178912476 0
426 0.008168165765437958 0.001624749189548323 0
427 0.006741565099840647 0.004504569785841752 0
428 0.005888919336383623 0.005888919336361952 0
429 0.006924636572263027 0.004626894232926445 0
430 0.004504569785860406 0.006741565099828183 0
431 0.003187060178926652 0.007694243908046496 0
432 0.004626894232945566 0.006924636572250249 0
433 0.0015817945560029 0.007952218239806262 0
434 0.001624749189555847 0.008168165765436462 0
435 0.007196401888156625 0.00143145333618481 0
436 0.007134844069165355 0.00295534917885687 0
437 0.007574310063981818 0.001506623946090113 0
438 0.006100814936235604 0.004076434214278876 0
439 0.005460773235563558 0.005460773235543361 0
440 0.006421190018038123 0.004290502000060313 0
441 0.004076434214295876 0.006100814936224244 0
442 0.002955349178870104 0.007134844069159874 0
443 0.004290502000078144 0.006421190018026213 0
444 0.001431453336191513 0.007196401888155293 0
445 0.001506623946097137 0.007574310063980422 0
446 0.006155894347183426 0.002549854927131828 0
447 0.006535062582262904 0.001299904769208604 0
448 0.004711517556120795 0.004711517556103217 0
449 0.005540158544607867 0.003701815590181628 0
450 0.002549854927143384 0.00615589434717864 0
451 0.003701815590196823 0.005540158544597716 0
452 0.001299904769215111 0.00653506258226161 0
453 -0.003271318723539821 0.007897662029238153 0
454 -0.006044608826002883 0.006044608826025088 0
455 -0.007897662029232142 0.003271318723554334 0
456 -0.003102801634285131 0.007490825786866582 0
457 -0.005733229846721019 0.005733229846742158 0
458 -0.00749082578686085 0.003102801634298968 0
459 -0.002807896723428605 0.006778862351464128 0
460 -0.005188316624365707 0.005188316624384957 0
461 -0.006778862351458897 0.002807896723441235 0
462 -0.001667703823101089 0.008384113291068196 0
463 -0.003319466464172063 0.008013900957670498 0
464 -0.001692249328419602 0.008507511879308616 0
465 -0.004749218680011137 0.007107708044685403 0
466 -0.006133574250216548 0.006133574250239055 0
467 -0.004819118365286382 0.007212320316477533 0
468 -0.007107708044672314 0.004749218680030723 0
469 -0.008013900957664407 0.003319466464186766 0
470 -0.007212320316463888 0.004819118365306801 0
471 -0.008384113291066659 0.001667703823108792 0
472 -0.008507511879307095 0.001692249328427246 0
473 -0.001581794555995556 0.007952218239807723 0
474 -0.003187060178912476 0.007694243908052368 0
475 -0.001624749189548323 0.008168165765437958 0
476 -0.004504569785841752 0.006741565099840647 0
477 -0.005888919336361952 0.005888919336383623 0
478 -0.004626894232926445 0.006924636572263027 0
479 -0.006741565099828183 0.004504569785860406 0
480 -0.007694243908046496 0.003187060178926652 0
481 -0.006924636572250249 0.004626894232945566 0
482 -0.007952218239806262 0.0015817945560029 0
483 -0.008168165765436462 0.001624749189555847 0
484 -0.00143145333618481 0.007196401888156625 0
485 -0.00295534917885687 0.007134844069165355 0
486 -0.001506623946090113 0.007574310063981818 0
487 -0.004076434214278876 0.006100814936235604 0
488 -0.005460773235543361 0.005460773235563558 0
489 -0.004290502000060313 0.006421190018038123 0
490 -0.006100814936224244 0.004076434214295876 0
491 -0.007134844069159874 0.002955349178870104 0
492 -0.006421190018026213 0.004290502000078144 0
493 -0.007196401888155293 0.001431453336191513 0
494 -0.007574310063980422 0.001506623946097137 0
495 -0.002549854927131828 0.006155894347183426 0
496 -0.001299904769208604 0.006535062582262904 0
497 -0.004711517556103217 0.004711517556120795 0
498 -0.003701815590181628 0.005540158544607867 0
499 -0.00615589434717864 0.002549854927143384 0
500 -0.005540158544597716 0.003701815590196823 0
501 -0.00653506258226161 0.001299904769215111 0
502 -0.008684467605610102 -0.00359722426422217 0
503 -0.00921938163579129 -0.001833849026946953 0
504 -0.006646803743166051 -0.006646803743141041 0
505 -0.007815814355652373 -0.005222360190371617 0
506 -0.003597224264238177 -0.008684467605603475 0
507 -0.005222360190395451 -0.007815814355636448 0
508 -0.001833849026955123 -0.009219381635789666 0
509 0.00359722426422217 -0.008684467605610102 0
510 0.001833849026946953 -0.00921938163579129 0
511 0.006646803743141041 -0.006646803743166051 0
512 0.005222360190371617 -0.007815814355652373 0
513 0.008684467605603475 -0.003597224264238177 0
514 0.007815814355636448 -0.005222360190395451 0
515 0.009219381635789666 -0.001833849026955123 0
516 0.008684467605610102 0.00359722426422217 0
517 0.00921938163579129 0.001833849026946953 0
518 0.006646803743166051 0.006646803743141041 0
519 0.007815814355652373 0.005222360190371617 0
520 0.003597224264238177 0.008684467605603475 0
521 0.005222360190395451 0.007815814355636448 0
522 0.001833849026955123 0.009219381635789666 0
523 -0.00359722426422217 0.008684467605610102 0
524 -0.001833849026946953 0.00921938163579129 0
525 -0.006646803743141041 0.006646803743166051 0
526 -0.005222360190371617 0.007815814355652373 0
527 -0.008684467605603475 0.003597224264238177 0
528 -0.007815814355636448 0.005222360190395451 0
529 -0.009219381635789666 0.001833849026955123 0
$EndNodes
$Elements
160
1 8 2 2 9 9 73 76
2 8 2 2 9 73 74 77
3 8 2 2 9 74 75 78
4 8 2 2 9 75 10 79
5 8 2 2 10 10 80 83
6 8 2 2 10 80 81 84
7 8 2 2 10 81 82 85
8 8 2 2 10 82 11 86
9 8 2 2 11 11 87 90
10 8 2 2 11 87 88 91
11 8 2 2 11 88 89 92
12 8 2 2 11 89 12 93
13 8 2 2 12 12 94 97
14 8 2 2 12 94 95 98
15 8 2 2 12 95 96 99
16 8 2 2 12 96 9 100
17 8 2 4 1009 13 141 144
18 8 2 4 1009 141 142 145
19 8 2 4 1009 142 143 146
20 8 2 4 1009 143 14 147
21 8 2 4 1010 14 148 151
22 8 2 4 1010 148 149 152
23 8 2 4 1010 149 150 153
24 8 2 4 1010 150 15 154
25 8 2 4 1011 15 155 158
26 8 2 4 1011 155 156 159
27 8 2 4 1011 156 157 160
28 8 2 4 1011 157 16 161
29 8 2 4 1012 16 162 165
30 8 2 4 1012 162 163 166
31 8 2 4 1012 163 164 167
32 8 2 4 1012 164 13 168
33 10 2 1 26 1 17 173 40 20 182 183 44 184
34 10 2 1 26 40 173 174 39 183 185 186 43 187
35 10 2 1 26 39 174 175 38 186 188 189 42 190
36 10 2 1 26 38 175 33 4 189 191 37 41 192
37 10 2 1 26 17 18 176 173 21 193 194 182 195
38 10 2 1 26 173 176 177 174 194 196 197 185 198
39 10 2 1 26 174 177 178 175 197 199 200 188 201
40 10 2 1 26 175 178 32 33 200 202 36 191 203
41 10 2 1 26 18 19 179 176 22 204 205 193 206
42 10 2 1 26 176 179 180 177 205 207 208 196 209
43 10 2 1 26 177 180 181 178 208 210 211 199 212
44 10 2 1 26 178 181 31 32 211 213 35 202 214
45 10 2 1 26 19 2 24 179 23 27 215 204 216
46 10 2 1 26 179 24 25 180 215 28 217 207 218
47 10 2 1 26 180 25 26 181 217 29 219 210 220
48 10 2 1 26 181 26 3 31 219 30 34 213 221
49 10 2 1 34 5 108 222 45 109 225 226 48 227
50 10 2 1 34 45 222 223 46 226 228 229 49 230
51 10 2 1 34 46 223 224 47 229 231 232 50 233
52 10 2 1 34 47 224 118 6 232 234 119 51 235
53 10 2 1 34 108 1 17 222 110 20 236 225 237
54 10 2 1 34 222 17 18 223 236 21 238 228 239
55 10 2 1 34 223 18 19 224 238 22 240 231 241
56 10 2 1 34 224 19 2 118 240 23 120 234 242
57 10 2 1 36 6 118 243 52 119 246 247 55 248
58 10 2 1 36 52 243 244 53 247 249 250 56 251
59 10 2 1 36 53 244 245 54 250 252 253 57 254
60 10 2 1 36 54 245 128 7 253 255 129 58 256
61 10 2 1 36 118 2 24 243 120 27 257 246 258
62 10 2 1 36 243 24 25 244 257 28 259 249 260
63 10 2 1 36 244 25 26 245 259 29 261 252 262
64 10 2 1 36 245 26 3 128 261 30 130 255 263
65 10 2 1 38 7 128 264 59 129 267 268 62 269
66 10 2 1 38 59 264 265 60 268 270 271 63 272
67 10 2 1 38 60 265 266 61 271 273 274 64 275
68 10 2 1 38 61 266 138 8 274 276 139 65 277
69 10 2 1 38 128 3 31 264 130 34 278 267 279
70 10 2 1 38 264 31 32 265 278 35 280 270 281
71 10 2 1 38 265 32 33 266 280 36 282 273 283
72 10 2 1 38 266 33 4 138 282 37 140 276 284
73 10 2 1 40 8 138 285 66 139 288 289 69 290
74 10 2 1 40 66 285 286 67 289 291 292 70 293
75 10 2 1 40 67 286 287 68 292 294 295 71 296
76 10 2 1 40 68 287 108 5 295 297 109 72 298
77 10 2 1 40 138 4 38 285 140 41 299 288 300
78 10 2 1 40 285 38 39 286 299 42 301 291 302
79 10 2 1 40 286 39 40 287 301 43 303 294 304
80 10 2 1 40 287 40 1 108 303 44 110 297 305
81 10 2 1 42 9 101 306 73 104 315 316 76 317
82 10 2 1 42 73 306 307 74 316 318 319 77 320
83 10 2 1 42 74 307 308 75 319 321 322 78 323
84 10 2 1 42 75 308 111 10 322 324 114 79 325
85 10 2 1 42 101 102 309 306 105 326 327 315 328
86 10 2 1 42 306 309 310 307 327 329 330 318 331
87 10 2 1 42 307 310 311 308 330 332 333 321 334
88 10 2 1 42 308 311 112 111 333 335 115 324 336
89 10 2 1 42 102 103 312 309 106 337 338 326 339
90 10 2 1 42 309 312 313 310 338 340 341 329 342
91 10 2 1 42 310 313 314 311 341 343 344 332 345
92 10 2 1 42 311 314 113 112 344 346 116 335 347
93 10 2 1 42 103 5 45 312 107 48 348 337 349
94 10 2 1 42 312 45 46 313 348 49 350 340 351
95 10 2 1 42 313 46 47 314 350 50 352 343 353
96 10 2 1 42 314 47 6 113 352 51 117 346 354
97 10 2 1 44 10 111 355 80 114 364 365 83 366
98 10 2 1 44 80 355 356 81 365 367 368 84 369
99 10 2 1 44 81 356 357 82 368 370 371 85 372
100 10 2 1 44 82 357 121 11 371 373 124 86 374
101 10 2 1 44 111 112 358 355 115 375 376 364 377
102 10 2 1 44 355 358 359 356 376 378 379 367 380
103 10 2 1 44 356 359 360 357 379 381 382 370 383
104 10 2 1 44 357 360 122 121 382 384 125 373 385
105 10 2 1 44 112 113 361 358 116 386 387 375 388
106 10 2 1 44 358 361 362 359 387 389 390 378 391
107 10 2 1 44 359 362 363 360 390 392 393 381 394
108 10 2 1 44 360 363 123 122 393 395 126 384 396
109 10 2 1 44 113 6 52 361 117 55 397 386 398
110 10 2 1 44 361 52 53 362 397 56 399 389 400
111 10 2 1 44 362 53 54 363 399 57 401 392 402
112 10 2 1 44 363 54 7 123 401 58 127 395 403
113 10 2 1 46 11 121 404 87 124 413 414 90 415
114 10 2 1 46 87 404 405 88 414 416 417 91 418
115 10 2 1 46 88 405 406 89 417 419 420 92 421
116 10 2 1 46 89 406 131 12 420 422 134 93 423
117 10 2 1 46 121 122 407 404 125 424 425 413 426
118 10 2 1 46 404 407 408 405 425 427 428 416 429
119 10 2 1 46 405 408 409 406 428 430 431 419 432
120 10 2 1 46 406 409 132 131 431 433 135 422 434
121 10 2 1 46 122 123 410 407 126 435 436 424 437
122 10 2 1 46 407 410 411 408 436 438 439 427 440
123 10 2 1 46 408 411 412 409 439 441 442 430 443
124 10 2 1 46 409 412 133 132 442 444 136 433 445
125 10 2 1 46 123 7 59 410 127 62 446 435 447
126 10 2 1 46 410 59 60 411 446 63 448 438 449
127 10 2 1 46 411 60 61 412 448 64 450 441 451
128 10 2 1 46 412 61 8 133 450 65 137 444 452
129 10 2 1 48 12 131 453 94 134 462 463 97 464
130 10 2 1 48 94 453 454 95 463 465 466 98 467
131 10 2 1 48 95 454 455 96 466 468 469 99 470
132 10 2 1 48 96 455 101 9 469 471 104 100 472
133 10 2 1 48 131 132 456 453 135 473 474 462 475
134 10 2 1 48 453 456 457 454 474 476 477 465 478
135 10 2 1 48 454 457 458 455 477 479 480 468 481
136 10 2 1 48 455 458 102 101 480 482 105 471 483
137 10 2 1 48 132 133 459 456 136 484 485 473 486
138 10 2 1 48 456 459 460 457 485 487 488 476 489
139 10 2 1 48 457 460 461 458 488 490 491 479 492
140 10 2 1 48 458 461 103 102 491 493 106 482 494
141 10 2 1 48 133 8 66 459 137 69 495 484 496
142 10 2 1 48 459 66 67 460 495 70 497 487 498
143 10 2 1 48 460 67 68 461 497 71 499 490 500
144 10 2 1 48 461 68 5 103 499 72 107 493 501
145 10 2 3 1042 13 9 73 141 169 76 502 144 503
146 10 2 3 1042 141 73 74 142 502 77 504 145 505
147 10 2 3 1042 142 74 75 143 504 78 506 146 507
148 10 2 3 1042 143 75 10 14 506 79 170 147 508
149 10 2 3 1044 14 10 80 148 170 83 509 151 510
150 10 2 3 1044 148 80 81 149 509 84 511 152 512
151 10 2 3 1044 149 81 82 150 511 85 513 153 514
152 10 2 3 1044 150 82 11 15 513 86 171 154 515
153 10 2 3 1046 15 11 87 155 171 90 516 158 517
154 10 2 3 1046 155 87 88 156 516 91 518 159 519
155 10 2 3 1046 156 88 89 157 518 92 520 160 521
156 10 2 3 1046 157 89 12 16 520 93 172 161 522
157 10 2 3 1048 16 12 94 162 172 97 523 165 524
158 10 2 3 1048 162 94 95 163 523 98 525 166 526
159 10 2 3 1048 163 95 96 164 525 99 527 167 528
160 10 2 3 1048 164 96 9 13 527 100 169 168 529
$EndElements
