[Info]
Version 1
Dimension 3
NumNodes 54
Num3DElements 2
Num2DElements 4
Num1DElements 0
NumNodeBC 0
NumSaveNodes 0
NumSaveElements 0
Num 2d-line      : 0
Num 2d-line,quad : 0
Num 3d-line      : 0
Num 3d-line,quad : 0
Num triangle     : 0
Num triangle,quad: 0
Num quadr        : 0
Num quadr,quad   : 4
Num tetra        : 0
Num tetra,quad   : 0
Num brick        : 0
Num brick,quad   : 2
Num pyramid      : 0
Num pyramid,quad : 0
Num wedge        : 0
Num wedge,quad   : 0

[Nodes]
#NodeNr x-coord y-coord z-coord
1  -1 -1 -1
2   1 -1 -1
3   1  1 -1
4  -1  1 -1
5  -1 -1  1
6   1 -1  1
7   1  1  1
8  -1  1  1
9   0 -1 -1
10  1  0 -1
11  0  1 -1
12 -1  0 -1
13  0 -1  1
14  1  0  1
15  0  1  1
16 -1  0  1
17 -1 -1  0
18  1 -1  0
19  1  1  0
20 -1  1  0
21  0 -1  0
22  1  0  0
23  0  1  0
24 -1  0  0
25  0  0 -1
26  0  0  1
27  0  0  0

28 -1 -1  1
29  1 -1  1
30  1  1  1
31 -1  1  1
32 -1 -1  3
33  1 -1  3
34  1  1  3
35 -1  1  3
36  0 -1  1
37  1  0  1
38  0  1  1
39 -1  0  1
40  0 -1  3
41  1  0  3
42  0  1  3
43 -1  0  3
44 -1 -1  2
45  1 -1  2
46  1  1  2
47 -1  1  2
48  0 -1  2
49  1  0  2
50  0  1  2
51 -1  0  2
52  0  0  1
53  0  0  3
54  0  0  2


[3D Elements]
#ElemNr  ElemType  NrOfNodes  Level
#Node1 Node2 ... NodeNrOfNodes
1 111 27 master_elem
1 2 3 4 5 6 7 8 9 10 11 12 13 14 15 16 17 18 19 20 21 22 23 24 25 26 27
2 111 27 slave_elem
28 29 30 31 32 33 34 35 36 37 38 39 40 41 42 43 44 45 46 47 48 49 50 51 52 53 54

[2D Elements]
#ElemNr  ElemType  NrOfNodes  Level
#Node1 Node2 ... NodeNrOfNodes
3 107 9 master_iface
5 6 7 8 13 14 15 16 26
4 107 9 slave_iface
28 29 30 31 36 37 38 39 52
5 107 9 bottom
1 2 3 4 9 10 11 12 25
6 107 9 top
32 33 34 35 40 41 42 43 53

[1D Elements]
#ElemNr  ElemType  NrOfNodes  Level
#Node1 Node2 ... NodeNrOfNodes

[Node BC]
#NodeNr Level

[Save Nodes]
#NodeNr Level

[Save Elements]
#ElemNr Level

