[Info]
Version 1
Dimension 2
NumNodes 66
Num3DElements 0
Num2DElements 50
Num1DElements 0
NumNodeBC 21
NumSaveNodes 0
NumSaveElements 0
NumElemType0 0
NumElemType1 0
NumElemType2 0
NumElemType3 0
NumElemType4 0
NumElemType5 0
NumElemType6 50
NumElemType7 0
NumElemType8 0
NumElemType9 0
NumElemType10 0
NumElemType11 0
NumBaseElemType0 0
NumBaseElemType1 0
NumBaseElemType2 0
NumBaseElemType3 0
NumBaseElemType4 0
NumBaseElemType5 0
NumBaseElemType6 50
NumBaseElemType7 0
NumBaseElemType8 0
NumBaseElemType9 0
NumBaseElemType10 0
NumBaseElemType11 0
NumBaseElemType12 0
NumBaseElemType13 0
NumBaseElemType14 0
NumBaseElemType15 0

[Nodes]
#NodeNr x-coord y-coord z-coord
       1  0.0000000000000e+00  0.0000000000000e+00  0.0000000000000e+00
       2  5.0000000000000e+00  0.0000000000000e+00  0.0000000000000e+00
       3  1.0000000000000e+00  0.0000000000000e+00  0.0000000000000e+00
       4  2.0000000000000e+00  0.0000000000000e+00  0.0000000000000e+00
       5  3.0000000000000e+00  0.0000000000000e+00  0.0000000000000e+00
       6  4.0000000000000e+00  0.0000000000000e+00  0.0000000000000e+00
       7  5.0000000000000e+00  1.0000000000000e+00  0.0000000000000e+00
       8  6.0000000000000e+00  1.0000000000000e+00  0.0000000000000e+00
       9  6.0000000000000e+00  0.0000000000000e+00  0.0000000000000e+00
      10  1.0000000000000e+01  0.0000000000000e+00  0.0000000000000e+00
      11  9.0000000000000e+00  0.0000000000000e+00  0.0000000000000e+00
      12  8.0000000000000e+00  0.0000000000000e+00  0.0000000000000e+00
      13  7.0000000000000e+00  0.0000000000000e+00  0.0000000000000e+00
      14  1.0000000000000e+01  5.0000000000000e+00  0.0000000000000e+00
      15  1.0000000000000e+01  1.0000000000000e+00  0.0000000000000e+00
      16  1.0000000000000e+01  2.0000000000000e+00  0.0000000000000e+00
      17  1.0000000000000e+01  3.0000000000000e+00  0.0000000000000e+00
      18  1.0000000000000e+01  4.0000000000000e+00  0.0000000000000e+00
      19  0.0000000000000e+00  5.0000000000000e+00  0.0000000000000e+00
      20  9.0000000000000e+00  5.0000000000000e+00  0.0000000000000e+00
      21  8.0000000000000e+00  5.0000000000000e+00  0.0000000000000e+00
      22  7.0000000000000e+00  5.0000000000000e+00  0.0000000000000e+00
      23  6.0000000000000e+00  5.0000000000000e+00  0.0000000000000e+00
      24  5.0000000000000e+00  5.0000000000000e+00  0.0000000000000e+00
      25  4.0000000000000e+00  5.0000000000000e+00  0.0000000000000e+00
      26  3.0000000000000e+00  5.0000000000000e+00  0.0000000000000e+00
      27  2.0000000000000e+00  5.0000000000000e+00  0.0000000000000e+00
      28  1.0000000000000e+00  5.0000000000000e+00  0.0000000000000e+00
      29  0.0000000000000e+00  4.0000000000000e+00  0.0000000000000e+00
      30  0.0000000000000e+00  3.0000000000000e+00  0.0000000000000e+00
      31  0.0000000000000e+00  2.0000000000000e+00  0.0000000000000e+00
      32  0.0000000000000e+00  1.0000000000000e+00  0.0000000000000e+00
      33  7.0000004643570e+00  1.0000122110270e+00  0.0000000000000e+00
      34  9.0000014268680e+00  1.0000053363230e+00  0.0000000000000e+00
      35  3.0002574756780e+00  1.0014233373870e+00  0.0000000000000e+00
      36  1.9999999999990e+00  9.9999999999990e-01  0.0000000000000e+00
      37  9.9999999999930e-01  9.9999999999970e-01  0.0000000000000e+00
      38  5.0000849422790e+00  2.0004232343480e+00  0.0000000000000e+00
      39  9.9999999999880e-01  2.0000000000000e+00  0.0000000000000e+00
      40  9.9999999999930e-01  3.0000000000010e+00  0.0000000000000e+00
      41  9.9999999999950e-01  4.0000000000010e+00  0.0000000000000e+00
      42  1.9999999999990e+00  4.0000000000010e+00  0.0000000000000e+00
      43  2.9999999999990e+00  4.0000000000000e+00  0.0000000000000e+00
      44  3.9999320621940e+00  4.0006466171470e+00  0.0000000000000e+00
      45  4.9999436551050e+00  4.0004021328030e+00  0.0000000000000e+00
      46  5.9999916949180e+00  4.0001095534370e+00  0.0000000000000e+00
      47  7.0000339817070e+00  4.0000263431720e+00  0.0000000000000e+00
      48  8.0000178856700e+00  4.0000217108570e+00  0.0000000000000e+00
      49  8.9999957292410e+00  4.0000016686140e+00  0.0000000000000e+00
      50  9.0000047957770e+00  3.0000081986810e+00  0.0000000000000e+00
      51  9.0000016757420e+00  2.0000079361620e+00  0.0000000000000e+00
      52  6.0000327082180e+00  2.0000702872090e+00  0.0000000000000e+00
      53  4.0001837223000e+00  2.0010228343520e+00  0.0000000000000e+00
      54  8.0000031322840e+00  1.0000082410850e+00  0.0000000000000e+00
      55  3.0000396817400e+00  2.0004406261660e+00  0.0000000000000e+00
      56  6.0000343901610e+00  3.0001015518280e+00  0.0000000000000e+00
      57  5.0000383094370e+00  3.0002922139660e+00  0.0000000000000e+00
      58  1.9999999999990e+00  3.0000000000010e+00  0.0000000000000e+00
      59  2.9999722409060e+00  3.0004966876540e+00  0.0000000000000e+00
      60  4.0000345995210e+00  3.0005762074180e+00  0.0000000000000e+00
      61  7.0000083270220e+00  3.0000446149660e+00  0.0000000000000e+00
      62  8.0000117436780e+00  3.0000160784270e+00  0.0000000000000e+00
      63  7.0000148461310e+00  2.0000307424680e+00  0.0000000000000e+00
      64  1.9999999999980e+00  2.0000000000010e+00  0.0000000000000e+00
      65  4.0001823363050e+00  1.0003989903020e+00  0.0000000000000e+00
      66  8.0000077255350e+00  2.0000139802990e+00  0.0000000000000e+00

[3D Elements]
#ElemNr  ElemType  NrOfNodes  Level
#Node1 Node2 ... NodeNrOfNodes

[2D Elements]
#ElemNr  ElemType  NrOfNodes  Level
#Node1 Node2 ... NodeNrOfNodes
1 6 4 air
11 10 15 34
2 6 4 air
34 15 16 51
3 6 4 air
51 16 17 50
4 6 4 air
50 17 18 49
5 6 4 air
49 18 14 20
6 6 4 air
49 20 21 48
7 6 4 air
48 21 22 47
8 6 4 air
47 22 23 46
9 6 4 air
46 23 24 45
10 6 4 air
45 24 25 44
11 6 4 air
44 25 26 43
12 6 4 air
43 26 27 42
13 6 4 air
42 27 28 41
14 6 4 air
41 28 19 29
15 6 4 air
41 29 30 40
16 6 4 air
40 30 31 39
17 6 4 air
39 31 32 37
18 6 4 air
37 32 1 3
19 6 4 air
37 3 4 36
20 6 4 air
36 4 5 35
21 6 4 air
35 5 6 65
22 6 4 air
65 6 2 7
23 6 4 air
8 9 13 33
24 6 4 air
33 13 12 54
25 6 4 air
54 12 11 34
26 6 4 air
38 7 8 52
27 6 4 air
50 49 48 62
28 6 4 air
62 48 47 61
29 6 4 air
61 47 46 56
30 6 4 air
56 46 45 57
31 6 4 air
57 45 44 60
32 6 4 air
60 44 43 59
33 6 4 air
59 43 42 58
34 6 4 air
58 42 41 40
35 6 4 air
58 40 39 64
36 6 4 air
64 39 37 36
37 6 4 air
64 36 35 55
38 6 4 air
59 58 64 55
39 6 4 air
55 35 65 53
40 6 4 air
60 59 55 53
41 6 4 air
53 65 7 38
42 6 4 air
57 60 53 38
43 6 4 air
56 57 38 52
44 6 4 air
54 34 51 66
45 6 4 air
66 51 50 62
46 6 4 air
52 8 33 63
47 6 4 air
61 56 52 63
48 6 4 air
66 62 61 63
49 6 4 air
63 33 54 66
50 6 4 coil
2 9 8 7

[1D Elements]
#ElemNr  ElemType  NrOfNodes  Level
#Node1 Node2 ... NodeNrOfNodes

[Node BC]
#NodeNr Level
       1 az-fix
      10 az-fix
      14 az-fix
      15 az-fix
      16 az-fix
      17 az-fix
      18 az-fix
      19 az-fix
      20 az-fix
      21 az-fix
      22 az-fix
      23 az-fix
      24 az-fix
      25 az-fix
      26 az-fix
      27 az-fix
      28 az-fix
      29 az-fix
      30 az-fix
      31 az-fix
      32 az-fix

[Save Nodes]
#NodeNr Level

[Save Elements]
#ElemNr Level

