
0                         NaN
2.0000000000000226E-4     NaN
3.999999999999941E-4      NaN
5.999999999999998E-4      NaN
8.000000000000021E-4      NaN
0.0010000000000000009     NaN
0.0012000000000000031     NaN
0.0013999999999999985     NaN
0.0016000000000000007     NaN
0.0018000000000000065     NaN
0.0020000000000000018     NaN
0.002200000000000004      NaN
0.002399999999999996      NaN
0.0025999999999999947     NaN
0.0028000000000000004     NaN
0.0029999999999999957     NaN
0.0031999999999999945     NaN
0.00339999999999999       NaN
0.0035999999999999886     NaN
0.0037999999999999944     NaN
0.003999999999999993      NaN
0.004199999999999995      NaN
0.004399999999999991      NaN
0.0045999999999999895     NaN
0.004799999999999995      NaN
0.004999999999999994      NaN
0.005199999999999996      NaN
0.005399999999999988      NaN
0.005599999999999987      NaN
0.005799999999999989      NaN
0.005999999999999988      NaN
0.00619999999999999       NaN
0.006399999999999982      NaN
0.006599999999999981      NaN
0.00679999999999999       NaN
0.006999999999999989      NaN
0.007199999999999991      NaN
0.007399999999999983      NaN
0.007599999999999982      NaN
0.007799999999999984      NaN
0.007999999999999983      NaN
0.008199999999999989      NaN
0.00839999999999998       NaN
0.00859999999999998       NaN
0.008799999999999985      NaN
0.00899999999999998       NaN
0.00919999999999999       NaN
0.009399999999999988      NaN
0.00959999999999999       NaN
0.0098                    NaN
0.009999999999999998      NaN
0.009999999999999998      1.4194721164065907E-8
0.010200000000000004      1.4041635137953517E-8
0.010399999999999993      1.3889393760904656E-8
0.010599999999999995      1.3737259559381844E-8
0.010800000000000004      1.3584551139215079E-8
0.011000000000000003      1.3430646257517464E-8
0.011200000000000002      1.3271946381557437E-8
0.011399999999999997      1.3121223605440915E-8
0.011599999999999996      1.2977988703081193E-8
0.011800000000000001      1.2841753767763957E-8
0.012                     1.2712035067055831E-8
0.012200000000000006      1.2584589459239831E-8
0.012399999999999998      1.2458246472206272E-8
0.012599999999999997      1.2332500360970426E-8
0.01280000000000001       1.2206892154946202E-8
0.013000000000000001      1.2081012240681048E-8
0.013200000000000007      1.1955912021561152E-8
0.013399999999999999      1.1833823296434986E-8
0.013599999999999998      1.1714326220410134E-8
0.01380000000000001       1.159703089444074E-8
0.014000000000000002      1.1481579742639447E-8
0.0142                    1.1361634233030742E-8
0.0144                    1.1245076935309065E-8
0.014599999999999998      1.1131560162024908E-8
0.014800000000000011      1.102076054751705E-8
0.015000000000000003      1.0912381169646195E-8
0.015200000000000016      1.0798943644452564E-8
0.015399999999999994      1.0688791676329554E-8
0.015599999999999992      1.0581620976387304E-8
0.015800000000000012      1.0477149659224815E-8
0.016000000000000004      1.037512017476576E-8
0.01620000000000001       1.0267809122957005E-8
0.0164                    1.0163616835873572E-8
0.0166                    1.0062274178481746E-8
0.016800000000000006      9.963533263692893E-9
0.017000000000000005      9.867169230946229E-9
0.017200000000000003      9.76536271805323E-9
0.017400000000000002      9.666634912632078E-9
0.0176                    9.570744975366687E-9
0.017800000000000014      9.47747140414715E-9
0.018000000000000006      9.386613667593544E-9
0.01820000000000001       9.28945333629278E-9
0.018400000000000003      9.195482673939902E-9
0.018600000000000002      9.104472853064439E-9
0.018800000000000008      9.016211690766036E-9
0.019000000000000006      8.930505177076807E-9
0.019200000000000012      8.837804777806589E-9
0.019399999999999997      8.748381115643884E-9
0.019599999999999996      8.662008325915143E-9
0.019800000000000016      8.578474837265881E-9
0.020000000000000007      8.497584833117176E-9
0.020200000000000006      8.409321868923577E-9
0.020400000000000005      8.32436466183119E-9
0.020600000000000004      8.242485242315671E-9
0.020800000000000016      8.163468101362875E-9
0.021000000000000008      8.08711161439054E-9
0.021200000000000014      8.003250643970072E-9
0.0214                    7.922659956147065E-9
0.021600000000000005      7.84510800968932E-9
0.02180000000000001       7.770374450769858E-9
0.02200000000000001       7.698251516344814E-9
0.022200000000000015      7.61875845153384E-9
0.022400000000000007      7.542438455920155E-9
0.022600000000000006      7.469056351813793E-9
0.022800000000000018      7.398387399210134E-9
0.02300000000000001       7.330218686130903E-9
0.023200000000000023      7.255034751526123E-9
0.0234                    7.182872218249336E-9
0.0236                    7.1134940554544265E-9
0.02380000000000002       7.0466733716709106E-9
0.02400000000000001       6.982194788134323E-9
0.024200000000000017      6.911214138471093E-9
0.0244                    6.843062600685726E-9
0.024600000000000007      6.7775048173579555E-9
0.02480000000000002       6.714315597576877E-9
0.025000000000000012      6.653281259325434E-9
0.02520000000000001       6.586336538742038E-9
0.025400000000000002      6.522007338664559E-9
0.0256                    6.46006428691678E-9
0.02580000000000002       6.400288372057491E-9
0.026000000000000013      6.342472237250075E-9
0.026200000000000025      6.279338173414955E-9
0.02640000000000001       6.218604614171478E-9
0.02660000000000001       6.160052358934106E-9
0.02680000000000002       6.103472779127389E-9
0.027000000000000014      6.0486690480925815E-9
0.02720000000000002       5.989076961034657E-9
0.02740000000000001       5.931685949183558E-9
0.02760000000000001       5.876290359405819E-9
0.027800000000000023      5.822695222745044E-9
0.02800000000000002       5.770717410272408E-9
0.02820000000000002       5.71437512670364E-9
0.028400000000000005      5.660062230634064E-9
0.02860000000000001       5.607588763302022E-9
0.028800000000000023      5.556775391840172E-9
0.029000000000000015      5.507454486963004E-9
0.029200000000000014      5.454067612577688E-9
0.029400000000000006      5.402572629858444E-9
0.029600000000000005      5.352796039418644E-9
0.029800000000000024      5.304574712424583E-9
0.030000000000000023      5.257756890955771E-9
0.030200000000000022      5.2070480224894455E-9
0.030400000000000014      5.158128631463836E-9
0.030600000000000013      5.110841145407673E-9
0.030800000000000025      5.065037920698832E-9
0.031000000000000017      5.020582169805817E-9
0.031200000000000023      4.972305448654127E-9
0.03140000000000001       4.925747151299206E-9
0.03160000000000002       4.8807640643744445E-9
0.03180000000000003       4.837222312307309E-9
0.03200000000000003       4.7949982177312305E-9
0.032200000000000034      4.748947861557805E-9
0.032400000000000026      4.70456935262709E-9
0.03260000000000003       4.66173159493726E-9
0.032800000000000044      4.620312141820603E-9
0.033000000000000036      4.580197997113844E-9
0.033200000000000035      4.536210705447204E-9
0.03340000000000003       4.493864723495059E-9
0.033600000000000026      4.453038541365174E-9
0.033800000000000045      4.4136185695364475E-9
0.034000000000000044      4.375499889198692E-9
0.03420000000000006       4.3334519788619875E-9
0.03440000000000004       4.293022373964827E-9
0.03460000000000004       4.254096676798594E-9
0.034800000000000046      4.216567694386846E-9
0.035000000000000045      4.18033614673928E-9
0.03520000000000006       4.140136850411565E-9
0.03540000000000004       4.101532992524105E-9
0.03560000000000004       4.064415140451961E-9
0.03580000000000006       4.028680408666353E-9
0.03600000000000005       3.994233133306382E-9
0.036200000000000065      3.955815723958408E-9
0.03640000000000004       3.918965508838138E-9
0.03660000000000005       3.8835763727738415E-9
0.03680000000000006       3.849548179482043E-9
0.037000000000000054      3.81678741972153E-9
0.03720000000000006       3.780099770619076E-9
0.03740000000000005       3.744942409785881E-9
0.03760000000000006       3.7112114647584284E-9
0.03780000000000008       3.6788085793606683E-9
0.03800000000000007       3.647641540865234E-9
0.03820000000000008       3.6126374711725043E-9
0.038400000000000066      3.5791170364978624E-9
0.03860000000000006       3.5469780901510982E-9
0.03880000000000008       3.516123645900604E-9
0.03900000000000007       3.486462487354084E-9
0.039200000000000075      3.4530948573205745E-9
0.03940000000000006       3.4211552497156417E-9
0.03960000000000006       3.3905432006369145E-9
0.03980000000000008       3.361163146037239E-9
0.04000000000000008       3.3329250143934775E-9
0.04020000000000009       3.3011410991183967E-9
0.04040000000000007       3.2707227817887157E-9
0.040600000000000074      3.2415715842685163E-9
0.04080000000000009       3.2135937424900204E-9
0.041000000000000085      3.186700781800504E-9
0.0412000000000001        3.1564400356390253E-9
0.04140000000000008       3.127478564504258E-9
0.04160000000000008       3.0997203786624462E-9
0.041800000000000094      3.0730740667816695E-9
0.042000000000000086      3.047453352361147E-9
0.04220000000000009       3.0186473285311526E-9
0.04240000000000008       2.9910734624696046E-9
0.042600000000000075      2.9646388140094363E-9
0.042800000000000095      2.9392549112652016E-9
0.04300000000000009       2.9148382862768273E-9
0.043200000000000106      2.887412231042506E-9
0.04340000000000007       2.8611532350789732E-9
0.043600000000000076      2.8359719099487476E-9
0.04380000000000011       2.8117832299684978E-9
0.0440000000000001        2.7885070454961403E-9
0.04420000000000011       2.762382557106747E-9
0.0444000000000001        2.7373642302621784E-9
0.044600000000000105      2.7133665890696034E-9
0.044800000000000124      2.6903084042994E-9
0.045000000000000116      2.6681131833863102E-9
0.04520000000000012       2.6432113082569653E-9
0.0454000000000001        2.619360268693273E-9
0.045600000000000106      2.5964786779047553E-9
0.045800000000000125      2.574489260539096E-9
0.04600000000000012       2.553319319234621E-9
0.04620000000000012       2.5295635321527672E-9
0.046400000000000115      2.506809358839204E-9
0.04660000000000011       2.484979488091777E-9
0.046800000000000126      2.464000563420142E-9
0.04700000000000012       2.4438036267127214E-9
0.04720000000000014       2.4211222788777345E-9
0.0474000000000001        2.3993992181587915E-9
0.04760000000000011       2.37856102937057E-9
0.04780000000000013       2.3585380764606064E-9
0.04800000000000012       2.339264924441541E-9
0.048200000000000125      2.317592909896132E-9
0.0484000000000001        2.2968409820985385E-9
0.04860000000000011       2.2769393200448597E-9
0.04880000000000013       2.257821693493036E-9
0.049000000000000134      2.2394258647179E-9
0.04920000000000014       2.2187054215413646E-9
0.04940000000000013       2.1988708847544303E-9
0.04960000000000012       2.179855656301566E-9
0.04980000000000014       2.161596535509077E-9
0.050000000000000135      2.144034102437394E-9
0.050200000000000154      2.1242148059621503E-9
0.050400000000000146      2.1052500346056646E-9
0.05060000000000015       2.087076024937381E-9
0.050800000000000144      2.069632220492784E-9
0.05100000000000015       2.0528616385346646E-9
0.051200000000000155      2.033899744905495E-9
0.05140000000000013       2.0157626499133897E-9
0.05160000000000014       1.99838906368281E-9
0.05180000000000016       1.981720722796295E-9
0.05200000000000015       1.9657027421569443E-9
0.052200000000000156      1.947560096201102E-9
0.052400000000000134      1.930213248782004E-9
0.05260000000000014       1.9136030815046628E-9
0.05280000000000016       1.8976733369232274E-9
0.05300000000000015       1.882370956955659E-9
0.05320000000000016       1.865013690955358E-9
0.053400000000000135      1.8484233158054525E-9
0.05360000000000014       1.8325426588009312E-9
0.053800000000000174      1.8173172605140215E-9
0.054000000000000166      1.8026957008954254E-9
0.05420000000000017       1.7860929285201373E-9
0.054400000000000164      1.7702279118115853E-9
0.054600000000000155      1.7550452776521437E-9
0.054800000000000175      1.7404922369469476E-9
0.05500000000000017       1.7265188992069427E-9
0.055200000000000186      1.7106415628233634E-9
0.05540000000000015       1.695472584010572E-9
0.055600000000000156      1.6809583147360657E-9
0.055800000000000176      1.6670475787968086E-9
0.05600000000000017       1.653691975368506E-9
0.05620000000000017       1.6385119472589385E-9
0.05640000000000018       1.6240108007338146E-9
0.05660000000000017       1.610136593872682E-9
0.05680000000000019       1.596839758701841E-9
0.05700000000000018       1.5840733939509272E-9
0.05720000000000019       1.5695628736352246E-9
0.05740000000000018       1.5557020044404037E-9
0.057600000000000186      1.5424405669762741E-9
0.05780000000000019       1.5297306287249887E-9
0.05800000000000018       1.5175268260915952E-9
0.05820000000000019       1.5036580256225164E-9
0.05840000000000017       1.4904102687599888E-9
0.05860000000000017       1.4777350899503457E-9
0.05880000000000019       1.465586230619261E-9
0.059000000000000184      1.4539199105394807E-9
0.05920000000000019       1.4406649828838483E-9
0.05940000000000017       1.4280034717739484E-9
0.059600000000000174      1.4158886938270077E-9
0.05980000000000019       1.4042760966952462E-9
0.0600000000000002        1.3931235197877159E-9
0.060200000000000205      1.3804546645550303E-9
0.06040000000000018       1.3683528620083766E-9
0.06060000000000019       1.356773223105316E-9
0.06080000000000021       1.345672915357465E-9
0.0610000000000002        1.3350114130109854E-9
0.061200000000000206      1.322901088261187E-9
0.06140000000000021       1.311332891923028E-9
0.0616000000000002        1.3002637177112287E-9
0.06180000000000024       1.2896524413084447E-9
0.062000000000000215      1.2794601602044686E-9
0.06220000000000022       1.267881335998554E-9
0.0624000000000002        1.256821217048986E-9
0.06260000000000021       1.2462384424391893E-9
0.06280000000000023       1.2360935578763339E-9
0.06300000000000022       1.2263492454893504E-9
0.06320000000000024       1.2152756500402544E-9
0.0634000000000002        1.2046987956232309E-9
0.06360000000000021       1.1945790061078805E-9
0.06380000000000023       1.1848784360140394E-9
0.06400000000000022       1.1755612906554815E-9
0.06420000000000023       1.1649676187221911E-9
0.06440000000000022       1.1548500616331881E-9
0.06460000000000023       1.1451705501565928E-9
0.06480000000000023       1.1358927697994805E-9
0.06500000000000022       1.126982371746446E-9
0.06520000000000023       1.1168444430513958E-9
0.06540000000000022       1.1071631736621777E-9
0.06560000000000021       1.0979020136252249E-9
0.06580000000000025       1.0890260928775143E-9
0.06600000000000024       1.0805024234621032E-9
0.06620000000000026       1.0707972931727414E-9
0.06640000000000024       1.0615303563561781E-9
0.06660000000000024       1.0526664927157482E-9
0.06680000000000026       1.0441721891252101E-9
0.06700000000000025       1.036015733607267E-9
0.06720000000000027       1.026721765474307E-9
0.06740000000000024       1.0178483484982743E-9
0.06760000000000024       1.0093617070649224E-9
0.06780000000000025       1.00122960306772E-9
0.06800000000000024       9.934215221146757E-10
0.06820000000000026       9.845184373060935E-10
0.06840000000000024       9.760189534880624E-10
0.06860000000000024       9.678905641375666E-10
0.06880000000000028       9.601022342901907E-10
0.06900000000000026       9.526245794023555E-10
0.06920000000000026       9.440934912995142E-10
0.06940000000000024       9.359496597613468E-10
0.06960000000000025       9.281617836018589E-10
0.06980000000000026       9.206999712769969E-10
0.07000000000000026       9.135359127819031E-10
0.07020000000000028       9.053593517819094E-10
0.07040000000000024       8.975542675934704E-10
0.07060000000000025       8.900905126762203E-10
0.07080000000000028       8.829392912325326E-10
0.07100000000000027       8.760733244705308E-10
0.07120000000000028       8.682352493910679E-10
0.07140000000000027       8.607534326116049E-10
0.07160000000000027       8.535988389981637E-10
0.07180000000000028       8.467437309862682E-10
0.07200000000000027       8.401618274964671E-10
0.07220000000000028       8.32647613687912E-10
0.07240000000000027       8.254750219815158E-10
0.07260000000000026       8.186160960219238E-10
0.07280000000000028       8.120441260994666E-10
0.07300000000000027       8.057338019697629E-10
0.07320000000000029       7.985301924887261E-10
0.07340000000000026       7.916541813237416E-10
0.07360000000000026       7.850788615023594E-10
0.07380000000000031       7.787785244661082E-10
0.07400000000000029       7.727288070206195E-10
0.0742000000000003        7.658238132754295E-10
0.07440000000000027       7.592330307645684E-10
0.07460000000000028       7.529305734735163E-10
0.07480000000000031       7.468917077220563E-10
0.0750000000000003        7.410929934554085E-10
0.07520000000000031       7.344757358812568E-10
0.07540000000000027       7.281599459332006E-10
0.07560000000000028       7.2212072848967E-10
0.07580000000000028       7.163342963903912E-10
0.07600000000000029       7.107781062698927E-10
0.0762000000000003        7.044385932888539E-10
0.07640000000000027       6.983884301073058E-10
0.07660000000000028       6.926036791815969E-10
0.07680000000000031       6.870614679609771E-10
0.0770000000000003        6.817401194596146E-10
0.07720000000000031       6.756689730266734E-10
0.07740000000000029       6.698756407770976E-10
0.0776000000000003        6.643371057149743E-10
0.07780000000000031       6.590313741317861E-10
0.0780000000000003        6.539376011089637E-10
0.07820000000000032       6.481257478608375E-10
0.0784000000000003        6.42580689853216E-10
0.07860000000000031       6.37280290518323E-10
0.07880000000000034       6.322033961393054E-10
0.07900000000000032       6.273299564701353E-10
0.07920000000000033       6.217683129779897E-10
0.07940000000000032       6.164628832067414E-10
0.07960000000000031       6.113923693025795E-10
0.07980000000000034       6.065364172127987E-10
0.08000000000000032       6.018757326022561E-10
0.08020000000000034       5.965549196329232E-10
0.08040000000000032       5.914800943274285E-10
0.08060000000000031       5.866307562594536E-10
0.08080000000000033       5.819873113175468E-10
0.08100000000000032       5.77531183087001E-10
0.08120000000000033       5.724413055942985E-10
0.0814000000000003        5.675874723166759E-10
0.08160000000000031       5.629499415448724E-10
0.08180000000000033       5.585098421397606E-10
0.08200000000000034       5.542492805361379E-10
0.08220000000000036       5.493798064406285E-10
0.08240000000000032       5.447366626220611E-10
0.08260000000000033       5.403008318306097E-10
0.08280000000000035       5.360541335081456E-10
0.08300000000000034       5.319793265576045E-10
0.08320000000000036       5.273190881709146E-10
0.08340000000000033       5.228756700320163E-10
0.08360000000000033       5.186307508187088E-10
0.08380000000000037       5.145668139194395E-10
0.08400000000000035       5.106672461008221E-10
0.08420000000000037       5.062045741890972E-10
0.08440000000000034       5.019494218777462E-10
0.08460000000000034       4.978841414187694E-10
0.08480000000000035       4.93991859608469E-10
0.08500000000000035       4.902565724786596E-10
0.08520000000000036       4.859795561940502E-10
0.08540000000000034       4.819010036291164E-10
0.08560000000000034       4.780039239953416E-10
0.08580000000000036       4.742720725037095E-10
0.08600000000000035       4.706900412039395E-10
0.08620000000000036       4.665868898222664E-10
0.08640000000000035       4.626734505997234E-10
0.08660000000000034       4.5893337757628806E-10
0.08680000000000038       4.5535104358928316E-10
0.08700000000000037       4.519116273902265E-10
0.08720000000000037       4.479710945572647E-10
0.08740000000000035       4.4421190088213647E-10
0.08760000000000034       4.4061833571842187E-10
0.08780000000000036       4.371753810328144E-10
0.08800000000000036       4.3386879494005725E-10
0.08820000000000036       4.300806152620589E-10
0.08840000000000034       4.264658573605552E-10
0.08860000000000035       4.230094368087677E-10
0.0888000000000004        4.1969693630252476E-10
0.08900000000000038       4.1651468576802316E-10
0.08920000000000039       4.1286996870911487E-10
0.08940000000000037       4.0939127893804416E-10
0.08960000000000037       4.0606414736768477E-10
0.08980000000000038       4.028747469570263E-10
0.09000000000000039       3.9980996956100807E-10
0.0902000000000004        3.9630149744212653E-10
0.09040000000000037       3.929522268071089E-10
0.09060000000000036       3.897482893217739E-10
0.0908000000000004        3.866764338353072E-10
0.09100000000000039       3.837241001528736E-10
0.0912000000000004        3.8034648538176266E-10
0.09140000000000037       3.7712182998781405E-10
0.09160000000000038       3.740368467078298E-10
0.0918000000000004        3.71078840714769E-10
0.09200000000000039       3.682357804995754E-10
0.09220000000000039       3.649854510615753E-10
0.09240000000000037       3.618824010745079E-10
0.09260000000000038       3.5891389888792423E-10
0.0928000000000004        3.560677806698661E-10
0.09300000000000039       3.533325185827676E-10
0.0932000000000004        3.502075189071664E-10
0.09340000000000037       3.472246214541326E-10
0.09360000000000038       3.4437161907839176E-10
0.09380000000000041       3.416368480903916E-10
0.0940000000000004        3.3900925390185047E-10
0.09420000000000041       3.360088688766683E-10
0.09440000000000041       3.3314581732856957E-10
0.0946000000000004        3.3040838082112784E-10
0.09480000000000044       3.2778536049192754E-10
0.09500000000000042       3.2526614032684876E-10
0.09520000000000042       3.223903717208732E-10
0.09540000000000039       3.196474552230155E-10
0.09560000000000039       3.170261223631596E-10
0.09580000000000044       3.145156011510553E-10
0.09600000000000043       3.121056771156946E-10
0.09620000000000042       3.093546220431617E-10
0.0964000000000004        3.0673208901909163E-10
0.09660000000000042       3.042272202372652E-10
0.09680000000000046       3.018296324194041E-10
0.09700000000000043       2.995294757280107E-10
0.09720000000000045       2.9690267379416335E-10
0.09740000000000043       2.944000791208604E-10
0.09760000000000042       2.9201120749606087E-10
0.09780000000000047       2.8972602878306914E-10
0.09800000000000046       2.8753502378307317E-10
0.0982000000000005        2.850308505559536E-10
0.09840000000000046       2.8264646553222385E-10
0.09860000000000047       2.8037172611702704E-10
0.09880000000000048       2.7819692513931824E-10
0.09900000000000048       2.7611284570572165E-10
0.09920000000000048       2.7372803245842696E-10
0.09940000000000047       2.714583968980802E-10
0.09960000000000047       2.6929411367342464E-10
0.0998000000000005        2.672257761902073E-10
0.10000000000000049       2.6524444946388613E-10
0.10020000000000051       2.629738005415824E-10
0.1004000000000005        2.6081348535531116E-10
0.1006000000000005        2.5875398075547027E-10
0.1008000000000005        2.567861676791623E-10
0.1010000000000005        2.5490138198048857E-10
0.10120000000000053       2.5273774096426213E-10
0.10140000000000048       2.5067936714867947E-10
0.10160000000000048       2.48717034464837E-10
0.10180000000000052       2.4684190806862837E-10
0.1020000000000005        2.4504559310987743E-10
0.10220000000000053       2.4298007877666296E-10
0.10240000000000049       2.4101460693056186E-10
0.10260000000000051       2.39140252653531E-10
0.10280000000000056       2.37348470821767E-10
0.10300000000000054       2.3563114277435173E-10
0.10320000000000054       2.3365363987778727E-10
0.10340000000000052       2.3177090787169824E-10
0.10360000000000053       2.2997433426167752E-10
0.10380000000000056       2.2825567583475235E-10
0.10400000000000055       2.26607103207392E-10
0.10420000000000057       2.2470695740712606E-10
0.10440000000000055       2.2289640893681401E-10
0.10460000000000055       2.211671732525366E-10
0.10480000000000059       2.195113249287067E-10
0.10500000000000057       2.179213401025374E-10
0.10520000000000057       2.1608817736674826E-10
0.10540000000000055       2.143396970798822E-10
0.10560000000000055       2.126679589809467E-10
0.10580000000000059       2.1106537158106238E-10
0.10600000000000057       2.09524732570333E-10
0.10620000000000057       2.077493059333969E-10
0.10640000000000055       2.0605406199870118E-10
0.10660000000000056       2.0443141847664527E-10
0.10680000000000059       2.0287413089615087E-10
0.1070000000000006        2.0137533109068992E-10
0.10720000000000063       1.9965029375798304E-10
0.10740000000000058       1.9800148749320336E-10
0.10760000000000061       1.9642169599132345E-10
0.10780000000000065       1.9490402893011576E-10
0.10800000000000062       1.9344195869492773E-10
0.10820000000000063       1.917624710370128E-10
0.10840000000000061       1.90155903875561E-10
0.10860000000000061       1.8861540688437125E-10
0.10880000000000065       1.8713444288284136E-10
0.10900000000000062       1.857068229864699E-10
0.10920000000000063       1.8407091868999366E-10
0.10940000000000061       1.825053058347669E-10
0.10960000000000061       1.8100349051146486E-10
0.10980000000000065       1.7955927813509486E-10
0.11000000000000065       1.7816680721699286E-10
0.11020000000000069       1.7657546694804856E-10
0.11040000000000064       1.7505245081386046E-10
0.11060000000000064       1.7359160149939476E-10
0.11080000000000068       1.7218704633782924E-10
0.11100000000000065       1.7083322989150142E-10
0.11120000000000066       1.692901364483869E-10
0.11140000000000064       1.6781397894046E-10
0.11160000000000062       1.6639890671320093E-10
0.11180000000000065       1.6503933845755906E-10
0.11200000000000065       1.6372999376700943E-10
0.11220000000000066       1.6224096988717655E-10
0.1124000000000007        1.6081793014016824E-10
0.11260000000000067       1.5945529157983643E-10
0.1128000000000007        1.5814772501342529E-10
0.11300000000000068       1.5689018567606447E-10
0.11320000000000069       1.5546234521187004E-10
0.11340000000000064       1.5409977967081587E-10
0.11360000000000067       1.5279712805655418E-10
0.1138000000000007        1.5154926771929887E-10
0.11400000000000071       1.503513442623812E-10
0.11420000000000075       1.489920207349765E-10
0.1144000000000007        1.4769727667617788E-10
0.1146000000000007        1.4646192399239247E-10
0.11480000000000071       1.4528099834888946E-10
0.11500000000000071       1.441497883951195E-10
0.11520000000000075       1.4286534185328027E-10
0.11540000000000072       1.4164455289162592E-10
0.11560000000000073       1.4048235882854985E-10
0.11580000000000076       1.3937390774103724E-10
0.11600000000000074       1.3831458705961623E-10
0.11620000000000075       1.371092266369369E-10
0.11640000000000073       1.3596615432974556E-10
0.11660000000000073       1.3488039272835587E-10
0.11680000000000076       1.3384716456087064E-10
0.11700000000000074       1.328619206550479E-10
0.11720000000000078       1.3173670674869203E-10
0.11740000000000073       1.3067179553153544E-10
0.11760000000000073       1.2966226789136543E-10
0.11780000000000077       1.2870339722653744E-10
0.11800000000000074       1.2779067669624904E-10
0.11820000000000078       1.267428698067893E-10
0.11840000000000073       1.2575267941229702E-10
0.11860000000000076       1.248152353414111E-10
0.1188000000000008        1.2392585549938175E-10
0.1190000000000008        1.2308007224100413E-10
0.11920000000000083       1.2210296331335825E-10
0.11940000000000078       1.2118010287771536E-10
0.11960000000000079       1.2030667965698355E-10
0.11980000000000082       1.1947806883372923E-10
0.1200000000000008        1.1868985730961683E-10
0.1202000000000008        1.1777314472658496E-10
0.12040000000000076       1.1690675661492672E-10
0.12060000000000079       1.1608596801267337E-10
0.12080000000000082       1.1530624068415973E-10
0.1210000000000008        1.1456324701064133E-10
0.12120000000000083       1.1369393141738204E-10
0.12140000000000079       1.1287067671344339E-10
0.12160000000000079       1.1208888407368997E-10
0.12180000000000082       1.1134414228219059E-10
0.12200000000000083       1.1063225005105126E-10
0.12220000000000086       1.0979592597741224E-10
0.12240000000000081       1.0900133507464505E-10
0.12260000000000082       1.0824404992841747E-10
0.12280000000000085       1.075198309719764E-10
0.12300000000000083       1.0682464714604192E-10
0.12320000000000086       1.0600700746208097E-10
0.12340000000000084       1.0522700438857454E-10
0.12360000000000082       1.044804256075712E-10
0.12380000000000088       1.0376324529760143E-10
0.12400000000000086       1.0307164319315775E-10
0.12420000000000087       1.0225999429335809E-10
0.12440000000000087       1.0148239431579946E-10
0.12460000000000085       1.0073488248492462E-10
0.12480000000000088       1.0001368111051377E-10
0.1250000000000009        9.931521323888655E-11
0.1252000000000009        9.849982253450702E-11
0.12540000000000084       9.771563274713525E-11
0.12560000000000085       9.695896026356377E-11
0.12580000000000088       9.622629906371638E-11
0.1260000000000009        9.551433724501394E-11
0.1262000000000009        9.468948269148737E-11
0.12640000000000087       9.389388562455569E-11
0.12660000000000088       9.312415268177568E-11
0.1268000000000009        9.237706078785613E-11
0.1270000000000009        9.164957286451436E-11
0.1272000000000009        9.081421536814701E-11
0.1274000000000009        9.000716505855045E-11
0.1276000000000009        8.922531879702882E-11
0.12780000000000094       8.846573495053309E-11
0.12800000000000092       8.772564857402908E-11
0.12820000000000092       8.688368579533215E-11
0.1284000000000009        8.607007952172408E-11
0.12860000000000094       8.528200329632995E-11
0.12880000000000094       8.45167821223205E-11
0.12900000000000095       8.377190733646806E-11
0.12920000000000095       8.293198458176388E-11
0.12940000000000093       8.21213865113302E-11
0.1296000000000009        8.133753534218975E-11
0.12980000000000097       8.057799341254182E-11
0.13000000000000095       7.984047787564606E-11
0.13020000000000098       7.901533114703565E-11
0.13040000000000096       7.822122107373809E-11
0.13060000000000094       7.745577440568324E-11
0.130800000000001         7.671674515170053E-11
0.13100000000000098       7.600202914536555E-11
0.13120000000000098       7.520732920155418E-11
0.13140000000000096       7.44458445671924E-11
0.13160000000000097       7.371534469329937E-11
0.131800000000001         7.301371174469198E-11
0.13200000000000098       7.233895506882484E-11
0.13220000000000098       7.159163189124379E-11
0.13240000000000093       7.087978880708757E-11
0.13260000000000097       7.020125916345315E-11
0.132800000000001         6.95539732359407E-11
0.13300000000000098       6.89359727047691E-11
0.133200000000001         6.825205797996368E-11
0.133400000000001         6.760550871209473E-11
0.133600000000001         6.699413261563195E-11
0.13380000000000106       6.641581896543799E-11
0.13400000000000103       6.586855332784055E-11
0.13420000000000107       6.52607111384419E-11
0.13440000000000102       6.469124413028365E-11
0.13460000000000102       6.4157848546873E-11
0.13480000000000106       6.365829028599967E-11
0.13500000000000104       6.319042020998481E-11
0.13520000000000107       6.26655335567254E-11
0.13540000000000102       6.217872571039764E-11
0.135600000000001         6.172752059843314E-11
0.13580000000000106       6.130950688083507E-11
0.13600000000000104       6.092235397465924E-11
0.13620000000000104       6.04797138382017E-11
0.13640000000000102       6.007330380406102E-11
0.136600000000001         5.970046020267655E-11
0.13680000000000106       5.935858818895301E-11
0.13700000000000104       5.904517811155183E-11
0.13720000000000107       5.867583550463307E-11
0.13740000000000102       5.833935084326225E-11
0.13760000000000103       5.803291171997857E-11
0.13780000000000112       5.775378645078287E-11
0.1380000000000011        5.7499339870544724E-11
0.1382000000000011        5.718692461479172E-11
0.13840000000000108       5.690278643651133E-11
0.13860000000000108       5.6644047168391265E-11
0.13880000000000112       5.6407924776393125E-11
0.1390000000000011        5.619174748304246E-11
0.1392000000000011        5.59146042159939E-11
0.13940000000000105       5.566046671710161E-11
0.13960000000000108       5.542649402162229E-11
0.13980000000000112       5.520995499694313E-11
0.1400000000000011        5.500824003938568E-11
0.1402000000000011        5.474232952360448E-11
0.14040000000000108       5.44940508374005E-11
0.14060000000000109       5.4260697322533014E-11
0.14080000000000112       5.403968045701155E-11
0.14100000000000112       5.382853899905004E-11
0.14120000000000113       5.355042323695541E-11
0.1414000000000011        5.328499807119695E-11
0.14160000000000109       5.3029765599244335E-11
0.14180000000000115       5.278234789783112E-11
0.14200000000000113       5.2540494039283765E-11
0.1422000000000012        5.222988202585822E-11
0.14240000000000114       5.192786595676132E-11
0.14260000000000111       5.163220381647619E-11
0.14280000000000118       5.134077003746265E-11
0.14300000000000115       5.105156109941323E-11
0.14320000000000116       5.069317850592631E-11
0.14340000000000114       5.034042323975693E-11
0.14360000000000114       4.999133323621513E-11
0.14380000000000118       4.9644056108237887E-11
0.14400000000000118       4.92968540795805E-11
0.1442000000000012        4.888164636834094E-11
0.14440000000000114       4.8470391304172834E-11
0.14460000000000114       4.806141592182148E-11
0.1448000000000012        4.765314917609525E-11
0.14500000000000118       4.724412686710262E-11
0.14520000000000122       4.676993891414628E-11
0.14540000000000117       4.629941506562033E-11
0.14560000000000117       4.58311739131068E-11
0.1458000000000012        4.53639290729585E-11
0.14600000000000118       4.4896494624898596E-11
0.14620000000000122       4.4368402010555515E-11
0.1464000000000012        4.384512050743739E-11
0.1466000000000012        4.332556204147037E-11
0.14680000000000124       4.280872868565996E-11
0.1470000000000012        4.22937189685245E-11
0.14720000000000122       4.17241516645653E-11
0.14740000000000117       4.1162004038010607E-11
0.14760000000000117       4.06064842602824E-11
0.14780000000000124       4.005688781301242E-11
0.14800000000000124       3.951260475238248E-11
0.14820000000000125       3.892131645131987E-11
0.14840000000000123       3.834151365625523E-11
0.1486000000000012        3.777269885815451E-11
0.14880000000000126       3.721445894669361E-11
0.14900000000000124       3.6666472976202654E-11
0.1492000000000013        3.608024019302263E-11
0.14940000000000123       3.551092414435948E-11
0.14960000000000123       3.4958294371513896E-11
0.1498000000000013        3.44221958981203E-11
0.15000000000000127       3.390255614311043E-11
0.1502000000000013        3.335417504719754E-11
0.15040000000000125       3.2829183143191696E-11
0.15060000000000126       3.2327521996586514E-11
0.1508000000000013        3.1849183326776136E-11
0.15100000000000127       3.139421307579828E-11
0.15120000000000128       3.091988153761524E-11
0.15140000000000123       3.0475650559178835E-11
0.15160000000000126       3.0061415519521666E-11
0.1518000000000013        2.967707163138239E-11
0.15200000000000127       2.932251499952257E-11
0.1522000000000013        2.895636929224187E-11
0.15240000000000128       2.8625783131355888E-11
0.15260000000000132       2.833025619173295E-11
0.15280000000000135       2.8069224913768516E-11
0.15300000000000133       2.7842066180410578E-11
0.15320000000000134       2.76075497733868E-11
0.1534000000000013        2.7410859483815786E-11
0.1536000000000013        2.725075860748713E-11
0.15380000000000135       2.7125916427145456E-11
0.15400000000000133       2.7034923088224503E-11
0.15420000000000134       2.6935784227265898E-11
0.15440000000000131       2.6872182512724713E-11
0.1546000000000013        2.6842069808232903E-11
0.15480000000000135       2.6843343731801788E-11
0.15500000000000133       2.687387270727443E-11
0.15520000000000134       2.689060396892596E-11
0.15540000000000131       2.693635228036941E-11
0.15560000000000132       2.7008543202972937E-11
0.15580000000000135       2.7104633949009584E-11
0.15600000000000133       2.7222136488909E-11
0.15620000000000137       2.7317202799238325E-11
0.1564000000000013        2.7432389831061465E-11
0.1566000000000013        2.756503040412143E-11
0.15680000000000135       2.7712561720913516E-11
0.15700000000000136       2.787253780078668E-11
0.15720000000000142       2.8000830754027743E-11
0.15740000000000137       2.8140068148822348E-11
0.15760000000000138       2.828781392081715E-11
0.1578000000000014        2.844176707666568E-11
0.1580000000000014        2.8599764179275513E-11
0.15820000000000142       2.8717956506320292E-11
0.15840000000000137       2.88390054414086E-11
0.15860000000000138       2.8960844945118556E-11
0.1588000000000014        2.9081540831031557E-11
0.1590000000000014        2.9199287941564365E-11
0.15920000000000142       2.927108092333896E-11
0.15940000000000135       2.9339285787447147E-11
0.15960000000000138       2.940221732031508E-11
0.15980000000000144       2.945830297614705E-11
0.16000000000000142       2.9506078475935963E-11
0.16020000000000142       2.950397087094288E-11
0.1604000000000014        2.9493539660920477E-11
0.16060000000000138       2.9473435651362826E-11
0.16080000000000144       2.9442399579500836E-11
0.16100000000000142       2.939925802819616E-11
0.16120000000000145       2.930448748360025E-11
0.1614000000000014        2.9198239115850714E-11
0.16160000000000138       2.9079443251163056E-11
0.16180000000000147       2.894709959548909E-11
0.16200000000000142       2.88002741457382E-11
0.16220000000000145       2.86021145243888E-11
0.1624000000000014        2.83907403389137E-11
0.16260000000000144       2.8165312387539558E-11
0.16280000000000147       2.7925044448496316E-11
0.16300000000000148       2.7669201340664138E-11
0.16320000000000148       2.7364189223263907E-11
0.16340000000000143       2.704550985505481E-11
0.16360000000000144       2.6712520176831238E-11
0.16380000000000147       2.636461855786045E-11
0.16400000000000148       2.6001244072681506E-11
0.1642000000000015        2.5592569874278392E-11
0.16440000000000146       2.5170987141660796E-11
0.16460000000000147       2.4736034573946527E-11
0.1648000000000015        2.4287286784756065E-11
0.16500000000000148       2.3824355158634E-11
0.1652000000000015        2.332156880697686E-11
0.1654000000000015        2.2807868403875665E-11
0.1656000000000015        2.228299163814855E-11
0.16580000000000153       2.174671650952857E-11
0.1660000000000015        2.119886513915494E-11
0.16620000000000154       2.0618173932431046E-11
0.1664000000000015        2.0030011398580452E-11
0.16660000000000147       1.9434396138992304E-11
0.16680000000000153       1.8831413217665094E-11
0.1670000000000015        1.8221225368242413E-11
0.16720000000000151       1.758712943231653E-11
0.1674000000000015        1.6951117340119186E-11
0.1676000000000015        1.6313730719037292E-11
0.16780000000000153       1.5675660922200278E-11
0.16800000000000154       1.5037781198244544E-11
0.1682000000000016        1.4388160177633688E-11
0.16840000000000152       1.3746164968263263E-11
0.16860000000000153       1.3113532465257186E-11
0.1688000000000016        1.2492383505141213E-11
0.16900000000000157       1.1885306106752946E-11
0.1692000000000016        1.1285837772877935E-11
0.16940000000000155       1.0712497590715172E-11
0.16960000000000156       1.0169803388776804E-11
0.1698000000000016        9.663063350096612E-12
0.17000000000000157       9.198414714479387E-12
0.17020000000000157       8.775767616922922E-12
0.17040000000000152       8.414221130023771E-12
0.17060000000000156       8.120983281565158E-12
0.1708000000000016        7.902712271542063E-12
0.17100000000000157       7.764800758362742E-12
0.17120000000000157       7.704842874955891E-12
0.17140000000000155       7.732211951601198E-12
0.17160000000000156       7.843822541108549E-12
0.1718000000000016        8.034078724908149E-12
0.1720000000000016        8.295583948656339E-12
0.17220000000000166       8.613882835635749E-12
0.1724000000000016        8.986922785244819E-12
0.17260000000000159       9.405486300595633E-12
0.17280000000000165       9.861237041604994E-12
0.17300000000000162       1.0346878343013417E-11
0.17320000000000166       1.0849322869204452E-11
0.1734000000000016        1.1369274643981193E-11
0.1736000000000016        1.1901795676608373E-11
0.17380000000000165       1.2442792620625063E-11
0.17400000000000163       1.2988878122020897E-11
0.17420000000000166       1.3528201415418483E-11
0.17440000000000158       1.4066191055395665E-11
0.17460000000000162       1.460067360650756E-11
0.17480000000000165       1.512983734804808E-11
0.17500000000000165       1.565216561729647E-11
0.17520000000000166       1.615381983017149E-11
0.1754000000000016        1.6644242386779667E-11
0.17560000000000162       1.712239462220767E-11
0.17580000000000168       1.758739355863726E-11
0.17600000000000166       1.8038485086827916E-11
0.1762000000000017        1.8470160583986783E-11
0.17640000000000164       1.8882624650490064E-11
0.17660000000000164       1.9275286761633654E-11
0.17680000000000168       1.964763944502475E-11
0.17700000000000166       1.9999245048894616E-11
0.1772000000000017        2.0339187734728458E-11
0.17740000000000164       2.0647039680376835E-11
0.17760000000000167       2.0922400441277495E-11
0.1778000000000017        2.1164932473064445E-11
0.1780000000000017        2.137435192722457E-11
0.17820000000000175       2.1590526960232058E-11
0.17840000000000167       2.1783035494028324E-11
0.17860000000000167       2.1951708879108614E-11
0.17880000000000174       2.2096403473052748E-11
0.1790000000000017        2.2216998146365694E-11
0.1792000000000014        2.2331736029914527E-11
0.179400000000001         2.2405922995875518E-11
0.17960000000000065       2.24394768480195E-11
0.17980000000000038       2.2432346925293394E-11
0.18000000000000002       2.238451294563507E-11
